<?xml version="1.0" encoding="UTF-8" standalone="no"?>
<svg
   xmlns:dc="http://purl.org/dc/elements/1.1/"
   xmlns:cc="http://creativecommons.org/ns#"
   xmlns:rdf="http://www.w3.org/1999/02/22-rdf-syntax-ns#"
   xmlns:svg="http://www.w3.org/2000/svg"
   xmlns="http://www.w3.org/2000/svg"
   xmlns:sodipodi="http://sodipodi.sourceforge.net/DTD/sodipodi-0.dtd"
   xmlns:inkscape="http://www.inkscape.org/namespaces/inkscape"
   sodipodi:docname="offset.3.svg"
   inkscape:version="1.0alpha (ce9af91c8d, 2019-05-22, custom)"
   id="svg8"
   version="1.1"
   viewBox="0 0 1000 1000"
   height="1000"
   width="1000">
  <style
     id="style846" />
  <defs
     id="defs2">
    <inkscape:path-effect
       update_on_knot_move="true"
       attempt_force_join="true"
       miter_limit="4"
       offset="0"
       unit="mm"
       linejoin_type="round"
       is_visible="true"
       id="path-effect905"
       effect="offset" />
    <inkscape:path-effect
       update_on_knot_move="true"
       attempt_force_join="true"
       miter_limit="4"
       offset="2.3182348"
       unit="mm"
       linejoin_type="bevel"
       is_visible="true"
       id="path-effect1063"
       effect="offset" />
    <inkscape:path-effect
       update_on_knot_move="true"
       attempt_force_join="true"
       miter_limit="4"
       offset="5.5583416"
       unit="mm"
       linejoin_type="bevel"
       is_visible="true"
       id="path-effect889"
       effect="offset" />
    <inkscape:path-effect
       effect="offset"
       id="path-effect950"
       is_visible="true"
       linejoin_type="extrp_arc"
       unit="mm"
       offset="15.753983"
       miter_limit="4"
       attempt_force_join="true"
       update_on_knot_move="true" />
    <inkscape:path-effect
       effect="offset"
       id="path-effect944"
       is_visible="true"
       linejoin_type="round"
       unit="mm"
       offset="0"
       miter_limit="4"
       attempt_force_join="true"
       update_on_knot_move="true" />
    <inkscape:path-effect
       effect="offset"
       id="path-effect942"
       is_visible="true"
       linejoin_type="round"
       unit="mm"
       offset="8.0064153"
       miter_limit="4"
       attempt_force_join="true"
       update_on_knot_move="true" />
    <inkscape:path-effect
       effect="offset"
       id="path-effect886"
       is_visible="true"
       linejoin_type="round"
       unit="mm"
       offset="-30.114608"
       miter_limit="4"
       attempt_force_join="true"
       update_on_knot_move="true" />
    <inkscape:path-effect
       attempt_force_join="true"
       miter_limit="100"
       linejoin_type="extrp_arc"
       line_width="80"
       linecap_type="butt"
       is_visible="true"
       id="path-effect872"
       effect="join_type" />
    <inkscape:path-effect
       effect="offset"
       id="path-effect937"
       is_visible="true"
       linejoin_type="miter"
       unit="mm"
       offset="-17.560666"
       miter_limit="4"
       attempt_force_join="true"
       update_on_knot_move="true" />
    <inkscape:path-effect
       effect="offset"
       id="path-effect934"
       is_visible="true"
       linejoin_type="round"
       unit="mm"
       offset="-16.418874"
       miter_limit="4"
       attempt_force_join="true"
       update_on_knot_move="true" />
    <inkscape:path-effect
       effect="offset"
       id="path-effect902"
       is_visible="true"
       linejoin_type="round"
       unit="mm"
       offset="25.329793"
       miter_limit="4"
       attempt_force_join="true"
       update_on_knot_move="true" />
    <inkscape:path-effect
       effect="offset"
       id="path-effect900"
       is_visible="true"
       linejoin_type="round"
       unit="mm"
       offset="0"
       miter_limit="4"
       attempt_force_join="true"
       update_on_knot_move="true" />
    <inkscape:path-effect
       effect="offset"
       id="path-effect897"
       is_visible="true"
       linejoin_type="round"
       unit="mm"
       offset="0"
       miter_limit="4"
       attempt_force_join="true"
       update_on_knot_move="true" />
    <inkscape:path-effect
       effect="offset"
       id="path-effect879"
       is_visible="true"
       linejoin_type="round"
       unit="mm"
       offset="23.494393"
       miter_limit="4"
       attempt_force_join="true"
       update_on_knot_move="true" />
    <inkscape:path-effect
       effect="offset"
       id="path-effect859"
       is_visible="true"
       linejoin_type="round"
       offset="21.1"
       miter_limit="4"
       attempt_force_join="true"
       update_on_knot_move="true" />
    <inkscape:path-effect
       update_on_knot_move="true"
       attempt_force_join="false"
       miter_limit="100"
       offset="28.920632"
       linejoin_type="round"
       is_visible="true"
       id="path-effect857"
       effect="offset" />
    <inkscape:path-effect
       effect="offset"
       id="path-effect1186"
       is_visible="true"
       linejoin_type="bevel"
       offset="14.3"
       miter_limit="4"
       attempt_force_join="true"
       update_on_knot_move="true" />
    <inkscape:path-effect
       effect="offset"
       id="path-effect1179"
       is_visible="true"
       linejoin_type="round"
       offset="243.12447"
       miter_limit="4"
       attempt_force_join="true"
       update_on_knot_move="true" />
    <inkscape:path-effect
       effect="offset"
       id="path-effect967"
       is_visible="true"
       linejoin_type="extrp_arc1"
       offset="-20.22513"
       miter_limit="4"
       attempt_force_join="true"
       update_on_knot_move="true" />
    <inkscape:path-effect
       effect="offset"
       id="path-effect849"
       is_visible="true"
       linejoin_type="round"
       offset="0"
       miter_limit="4"
       attempt_force_join="true"
       update_on_knot_move="true" />
    <inkscape:path-effect
       update_on_knot_move="true"
       attempt_force_join="true"
       miter_limit="10"
       offset="100"
       linejoin_type="miter"
       is_visible="true"
       id="path-effect844"
       effect="offset" />
    <inkscape:path-effect
       update_on_knot_move="true"
       attempt_force_join="true"
       miter_limit="4"
       offset="55.889475"
       linejoin_type="round"
       is_visible="true"
       id="path-effect3310"
       effect="offset" />
    <inkscape:path-effect
       update_on_knot_move="true"
       attempt_force_join="true"
       miter_limit="4"
       offset="41.29291"
       linejoin_type="miter"
       is_visible="true"
       id="path-effect3308"
       effect="offset" />
    <inkscape:path-effect
       update_on_knot_move="true"
       attempt_force_join="true"
       miter_limit="4"
       offset="0"
       linejoin_type="round"
       is_visible="true"
       id="path-effect2742"
       effect="offset" />
    <inkscape:path-effect
       update_on_knot_move="true"
       attempt_force_join="true"
       miter_limit="4"
       offset="0"
       linejoin_type="round"
       is_visible="true"
       id="path-effect2740"
       effect="offset" />
    <inkscape:path-effect
       effect="offset"
       id="path-effect993"
       is_visible="true"
       linejoin_type="miter"
       offset="1.418028"
       miter_limit="4"
       attempt_force_join="true"
       update_on_knot_move="true" />
    <clipPath
       clipPathUnits="userSpaceOnUse"
       id="clipPath863">
      <path
         sodipodi:type="star"
         style="fill:#d4aa00;stroke-width:48.869;stroke-linejoin:round"
         id="path865"
         sodipodi:sides="5"
         sodipodi:cx="-237.93484"
         sodipodi:cy="704.16815"
         sodipodi:r1="238.39684"
         sodipodi:r2="119.19841"
         sodipodi:arg1="0.70432124"
         sodipodi:arg2="1.3326398"
         inkscape:flatsided="false"
         inkscape:rounded="0"
         inkscape:randomized="0"
         inkscape:transform-center-x="17.379295"
         inkscape:transform-center-y="-5.5936297" />
    </clipPath>
    <clipPath
       clipPathUnits="userSpaceOnUse"
       id="clipPath929">
      <path
         id="path931"
         style="d:m -248.79678000000001248, 588.46774000000004889 -116.26735999999999649, -31.15373999999999910 -116.26734999999999332, -31.15373999999999910 85.11360999999999422, -85.11360999999999422 85.11360999999999422, -85.11361999999998318 31.15373999999999910, 116.26735999999999649 z;fill:#ffff00;stroke-width:187.366;stroke-linejoin:round"
         d="M -856.56437,230.38505 -395.25711,217.05743 66.050116,203.72981 -153.06146,609.89741 -372.17303,1016.065 -614.36869,623.22503 Z"
         inkscape:connector-curvature="0" />
    </clipPath>
    <clipPath
       clipPathUnits="userSpaceOnUse"
       id="clipPath877">
      <path
         id="path879"
         style="d:m -248.79678000000001248, 588.46774000000004889 -116.26735999999999649, -31.15373999999999910 -116.26734999999999332, -31.15373999999999910 85.11360999999999422, -85.11360999999999422 85.11360999999999422, -85.11361999999998318 31.15373999999999910, 116.26735999999999649 z;fill:#ffff00;stroke-width:134.764;stroke-linejoin:round"
         d="m -628.85205,312.07715 331.93595,-2e-5 331.935847,-1e-5 L -130.94817,599.54211 -296.9161,887.00704 -462.88407,599.54211 Z"
         inkscape:connector-curvature="0" />
    </clipPath>
    <clipPath
       clipPathUnits="userSpaceOnUse"
       id="clipPath881">
      <path
         inkscape:connector-curvature="0"
         d="M -794.41366,283.40631 -391.47095,271.76489 11.471634,260.12349 -179.91791,614.90284 -371.30747,969.68212 -582.86056,626.54423 Z"
         style="d:m -248.79678000000001248, 588.46774000000004889 -116.26735999999999649, -31.15373999999999910 -116.26734999999999332, -31.15373999999999910 85.11360999999999422, -85.11360999999999422 85.11360999999999422, -85.11361999999998318 31.15373999999999910, 116.26735999999999649 z;fill:#ffff00;stroke-width:163.661;stroke-linejoin:round"
         id="path883" />
    </clipPath>
    <clipPath
       clipPathUnits="userSpaceOnUse"
       id="clipPath912">
      <path
         id="path914"
         style="opacity:0.55;fill:#ffffff;fill-opacity:0.563929;fill-rule:evenodd;stroke-width:0.358001"
         d="m -281.10843,554.28099 a 119.5101,119.19217 0 0 1 -119.5101,119.19217 119.5101,119.19217 0 0 1 -119.51011,-119.19217 119.5101,119.19217 0 0 1 119.51011,-119.19217 119.5101,119.19217 0 0 1 119.5101,119.19217 z"
         inkscape:connector-curvature="0" />
    </clipPath>
    <clipPath
       id="clipPath896"
       clipPathUnits="userSpaceOnUse">
      <path
         id="path898"
         style="opacity:0.55;fill:#ffffff;fill-opacity:0.563929;fill-rule:evenodd;stroke-width:0.358001"
         d="m -258.4662,558.28643 c 0,65.82802 -37.8192,69.37754 -103.82281,69.37754 -66.00361,0 -135.1974,-3.54952 -135.1974,-69.37754 0,-65.82802 104.2038,13.70488 136.58402,-55.50733 34.80268,-74.39017 102.43619,-10.32069 102.43619,55.50733 z"
         inkscape:connector-curvature="0"
         sodipodi:nodetypes="sssss" />
    </clipPath>
    <clipPath
       id="clipPath900"
       clipPathUnits="userSpaceOnUse">
      <path
         inkscape:original-d="m 778.12348,562.10994 c 0,65.82802 -37.8192,69.37754 -103.82281,69.37754 -66.00361,0 -135.1974,-3.54952 -135.1974,-69.37754 0,-65.82802 104.2038,13.70488 136.58402,-55.50733 34.80268,-74.39017 102.43619,-10.32069 102.43619,55.50733 z"
         sodipodi:nodetypes="sssss"
         inkscape:connector-curvature="0"
         d="m 778.12348,562.10994 c 0,65.82802 -37.8192,69.37754 -103.82281,69.37754 -66.00361,0 -135.1974,-3.54952 -135.1974,-69.37754 0,-65.82802 104.2038,13.70488 136.58402,-55.50733 34.80268,-74.39017 102.43619,-10.32069 102.43619,55.50733 z"
         style="opacity:0.55;fill:#ffffff;fill-opacity:0.563929;fill-rule:evenodd;stroke-width:0.358001"
         id="path902" />
    </clipPath>
  </defs>
  <sodipodi:namedview
     inkscape:guide-bbox="true"
     showguides="true"
     inkscape:snap-text-baseline="true"
     id="base"
     pagecolor="#ff4bb1"
     bordercolor="#666666"
     borderopacity="1.0"
     inkscape:pageopacity="1"
     inkscape:pageshadow="2"
     inkscape:zoom="0.69129087"
     inkscape:cx="209.17831"
     inkscape:cy="526.37529"
     inkscape:document-units="px"
     inkscape:current-layer="layer1"
     inkscape:document-rotation="0"
     showgrid="true"
     inkscape:snap-grids="true"
     inkscape:snap-others="true"
     inkscape:showpageshadow="false"
     borderlayer="true"
     objecttolerance="20"
     inkscape:window-width="1920"
     inkscape:window-height="1016"
     inkscape:window-x="0"
     inkscape:window-y="27"
     inkscape:window-maximized="1"
     inkscape:object-nodes="false"
     inkscape:snap-nodes="false"
     inkscape:snap-bbox="true"
     inkscape:bbox-nodes="true"
     inkscape:pagecheckerboard="false"
     inkscape:snap-global="false"
     showborder="false"
     units="px">
    <inkscape:grid
       opacity="0.03137255"
       color="#3f3fff"
       empopacity="0.07058824"
       empcolor="#3f3fff"
       type="xygrid"
       id="grid10"
       units="mm"
       spacingx="1"
       spacingy="1"
       visible="false"
       enabled="false" />
    <sodipodi:guide
       id="guide883"
       orientation="0,-1"
       position="635.4095,1120.8173" />
    <sodipodi:guide
       id="guide885"
       orientation="1,0"
       position="1200.7151,889.6237" />
  </sodipodi:namedview>
  <metadata
     id="metadata5">
    <rdf:RDF>
      <cc:Work
         rdf:about="">
        <dc:format>image/svg+xml</dc:format>
        <dc:type
           rdf:resource="http://purl.org/dc/dcmitype/StillImage" />
        <dc:title />
      </cc:Work>
    </rdf:RDF>
  </metadata>
  <g
     inkscape:label="Layer 1"
     inkscape:groupmode="layer"
     id="layer1">
    <ellipse
       style="opacity:0.108356;fill:#ffffff;fill-opacity:0.989034;stroke-width:86.0992;stroke-linejoin:round"
       id="path963"
       cx="107.99397"
       cy="-205.49559"
       rx="335.57565"
       ry="238.56824" />
    <text
       id="text962"
       y="221.69981"
       x="-391.59827"
       style="font-style:normal;font-variant:normal;font-weight:300;font-stretch:normal;font-size:40px;line-height:1;font-family:Lato;-inkscape-font-specification:'Lato Light';text-align:center;letter-spacing:0px;word-spacing:0px;text-anchor:middle;fill:#ffffff"
       xml:space="preserve"><tspan
         y="221.69981"
         x="-391.59827"
         id="tspan960"
         sodipodi:role="line">PREVIOUS</tspan><tspan
         y="261.69986"
         x="-391.59827"
         sodipodi:role="line"
         id="tspan889">DESTRUCTIVE</tspan><tspan
         y="301.69986"
         x="-391.59827"
         sodipodi:role="line"
         id="tspan897">OFFSET</tspan><tspan
         y="341.69986"
         x="-391.59827"
         sodipodi:role="line"
         id="tspan891" /><tspan
         y="381.69986"
         x="-391.59827"
         sodipodi:role="line"
         id="tspan893" /><tspan
         y="421.69986"
         x="-391.59827"
         sodipodi:role="line"
         id="tspan1176" /></text>
    <text
       xml:space="preserve"
       style="font-style:normal;font-variant:normal;font-weight:300;font-stretch:normal;font-size:40px;line-height:0%;font-family:Lato;-inkscape-font-specification:'Lato Light';letter-spacing:0px;word-spacing:0px;fill:#ffffff"
       x="542.50665"
       y="261.69986"
       id="text855"><tspan
         sodipodi:role="line"
         id="tspan853"
         x="542.50665"
         y="261.69986">LPE OFFSET</tspan></text>
    <text
       xml:space="preserve"
       style="font-style:normal;font-variant:normal;font-weight:300;font-stretch:normal;font-size:64.7611px;line-height:1;font-family:Lato;-inkscape-font-specification:'Lato Light';text-align:center;letter-spacing:0px;word-spacing:0px;text-anchor:middle;fill:#ffffff;fill-opacity:0.563929;stroke-width:1.61902"
       x="107.93227"
       y="-28.83263"
       id="text926"><tspan
         id="tspan924"
         sodipodi:role="line"
         x="107.93226"
         y="-28.83263"
         style="fill:#ffffff;fill-opacity:0.563929;stroke-width:1.61902">CLIPS</tspan></text>
    <path
       inkscape:original-d="m 815.68197,587.93325 c 7.6826,6.51068 22.0061,10.5473 30.73041,10.28687 34.24618,-1.04171 39.58494,-33.07425 39.06408,-52.86672 -0.78128,-26.04272 -17.31841,-41.40792 -38.67344,-40.75686 -21.22481,0.65107 -33.72532,15.49542 -33.72532,32.94404 0,17.70905 13.80264,29.6887 30.46998,29.03764 6.90132,-0.26043 12.50051,-3.25534 15.88606,-6.6409 0.13022,11.4588 -6.25025,17.44863 -15.88606,17.70905 -7.94303,0 -14.58392,-4.03662 -19.01118,-6.64089 z m 31.25127,-40.10579 c -7.81282,0.13021 -10.41709,-6.51068 -10.54731,-11.58901 -0.13021,-6.25025 5.20855,-11.19837 11.84944,-11.19837 8.33367,0 10.93794,8.85452 10.93794,15.3652 -2.08341,2.60428 -6.12003,7.16175 -12.24007,7.42218 z m -91.16173,-10.28688 13.02136,-6.12004 v 48.30925 h -13.02136 v 17.31841 h 52.08544 v -17.31841 h -12.10987 v -73.7009 h -23.17802 c -9.50559,11.32859 -15.3652,13.412 -22.78738,17.05798 z m -46.33163,-8.59409 v 7.6826 43.49134 h -7.29196 v 16.92777 h 41.1475 v -16.92777 h -7.16175 v -57.29398 h 7.16175 v -16.79756 h -49.61138 l -12.50051,48.69989 -13.15157,-48.69989 H 618.681 v 16.79756 h 6.90132 v 57.42419 h -7.03153 v 16.79756 h 35.28789 v -16.79756 h -7.42218 v -51.30415 h 0.52085 c 0.39065,6.51068 2.08342,13.93285 2.73449,16.14648 l 14.58392,51.95523 h 27.21465 l 13.67242,-50.65309 c 0.9115,-2.99491 2.73449,-11.58901 3.7762,-17.44862 z M 582.17031,597.0482 h 26.04272 v -32.5534 h 5.20855 v -13.93286 h -43.23092 v 13.93286 h 7.94303 v 5.46897 c -1.9532,3.38555 -5.07833,6.38047 -12.5005,6.38047 -11.32859,0 -17.83927,-10.67752 -17.83927,-23.95931 0,-13.02136 7.29197,-24.48015 17.83927,-24.48015 7.6826,0 14.45371,5.98982 14.84435,16.53712 h 23.30823 v -38.41301 h -19.40182 l -2.73449,9.37538 c -2.08342,-2.08342 -6.51068,-10.93794 -25.39165,-10.93794 -20.31332,0 -39.97558,19.53204 -39.97558,47.9186 0,28.12614 18.09969,45.83519 40.88707,45.83519 10.02645,0 18.09969,-4.55747 20.96439,-9.37538 z M 438.23549,506.02889 v 17.1882 h 7.1617 v 56.5127 h -7.1617 v 17.31841 h 72.91958 v -33.85554 h -21.87588 v 16.53713 h -16.79756 v -56.5127 h 6.90132 v -17.1882 z"
       inkscape:path-effect="#path-effect905"
       clip-path="url(#clipPath900)"
       id="path892"
       style="font-style:normal;font-variant:normal;font-weight:normal;font-stretch:normal;font-size:40px;line-height:0%;font-family:ChunkFive;-inkscape-font-specification:ChunkFive;letter-spacing:0px;word-spacing:0px;fill:#ffffff;stroke-width:3.25534"
       d="m 815.68197,587.93325 c 7.6826,6.51068 22.0061,10.5473 30.73041,10.28687 34.24618,-1.04171 39.58494,-33.07425 39.06408,-52.86672 -0.78128,-26.04272 -17.31841,-41.40792 -38.67344,-40.75686 -21.22481,0.65107 -33.72532,15.49542 -33.72532,32.94404 0,17.70905 13.80264,29.6887 30.46998,29.03764 6.90132,-0.26043 12.50051,-3.25534 15.88606,-6.6409 0.13022,11.4588 -6.25025,17.44863 -15.88606,17.70905 -7.94303,0 -14.58392,-4.03662 -19.01118,-6.64089 z m 31.25127,-40.10579 c -7.81282,0.13021 -10.41709,-6.51068 -10.54731,-11.58901 -0.13021,-6.25025 5.20855,-11.19837 11.84944,-11.19837 8.33367,0 10.93794,8.85452 10.93794,15.3652 -2.08341,2.60428 -6.12003,7.16175 -12.24007,7.42218 z m -91.16173,-10.28688 13.02136,-6.12004 v 48.30925 h -13.02136 v 17.31841 h 52.08544 v -17.31841 h -12.10987 v -73.7009 h -23.17802 c -9.50559,11.32859 -15.3652,13.412 -22.78738,17.05798 z m -46.33163,-8.59409 v 7.6826 43.49134 h -7.29196 v 16.92777 h 41.1475 v -16.92777 h -7.16175 v -57.29398 h 7.16175 v -16.79756 h -49.61138 l -12.50051,48.69989 -13.15157,-48.69989 H 618.681 v 16.79756 h 6.90132 v 57.42419 h -7.03153 v 16.79756 h 35.28789 v -16.79756 h -7.42218 v -51.30415 h 0.52085 c 0.39065,6.51068 2.08342,13.93285 2.73449,16.14648 l 14.58392,51.95523 h 27.21465 l 13.67242,-50.65309 c 0.9115,-2.99491 2.73449,-11.58901 3.7762,-17.44862 z M 582.17031,597.0482 h 26.04272 v -32.5534 h 5.20855 v -13.93286 h -43.23092 v 13.93286 h 7.94303 v 5.46897 c -1.9532,3.38555 -5.07833,6.38047 -12.5005,6.38047 -11.32859,0 -17.83927,-10.67752 -17.83927,-23.95931 0,-13.02136 7.29197,-24.48015 17.83927,-24.48015 7.6826,0 14.45371,5.98982 14.84435,16.53712 h 23.30823 v -38.41301 h -19.40182 l -2.73449,9.37538 c -2.08342,-2.08342 -6.51068,-10.93794 -25.39165,-10.93794 -20.31332,0 -39.97558,19.53204 -39.97558,47.9186 0,28.12614 18.09969,45.83519 40.88707,45.83519 10.02645,0 18.09969,-4.55747 20.96439,-9.37538 z M 438.23549,506.02889 v 17.1882 h 7.1617 v 56.5127 h -7.1617 v 17.31841 h 72.91958 v -33.85554 h -21.87588 v 16.53713 h -16.79756 v -56.5127 h 6.90132 v -17.1882 z"
       inkscape:connector-curvature="0"
       sodipodi:nodetypes="ccccscccccccsccccccccccccccccccccccccccccccccccccccccccccccccccccccssscccccsssccccccccccccccccc" />
    <path
       d="m -480.33203,500.64258 c -20.31332,0 -39.97461,19.53141 -39.97461,47.91797 0,28.12614 18.09934,45.83593 40.88672,45.83593 10.02645,0 18.10014,-4.55709 20.96484,-9.375 l 4.03516,8.20313 h 26.04297 v -32.55273 h 5.20898 v -13.9336 h -43.23047 v 13.9336 h 7.94336 v 5.46874 c -1.9532,3.38555 -5.07978,6.38086 -12.50195,6.38086 -11.32859,0 -17.83789,-10.67914 -17.83789,-23.96093 0,-13.02136 7.29059,-24.47852 17.83789,-24.47852 7.6826,0 14.45506,5.98981 14.8457,16.53711 h 23.30664 v -38.41406 h -19.40039 l -2.73437,9.375 c -2.08342,-2.08342 -6.51161,-10.9375 -25.39258,-10.9375 z m 290.54492,0.13086 c -21.22481,0.65107 -33.72461,15.49474 -33.72461,32.94336 0,17.70905 13.80141,29.68817 30.46875,29.03711 6.90132,-0.26043 12.50117,-3.25507 15.88672,-6.64063 0.13022,11.4588 -6.25091,17.44857 -15.88672,17.70899 -7.94303,0 -14.5825,-4.03636 -19.00976,-6.64063 l -8.85547,16.92774 c 7.6826,6.51067 22.00616,10.54753 30.73047,10.2871 34.24618,-1.04171 39.58531,-33.07471 39.06445,-52.86718 -0.78128,-26.04272 -17.3188,-41.40692 -38.67383,-40.75586 z m -408.56641,1.43164 v 17.18945 h 7.16016 v 56.51172 h -7.16016 v 17.31836 h 72.91797 v -33.85547 h -21.875 v 16.53711 h -16.79687 v -56.51172 h 6.90039 v -17.18945 z m 180.44532,0 v 16.79883 h 6.90039 v 57.42382 h -7.03125 v 16.79688 h 35.28711 v -16.79688 h -7.42188 v -51.30468 h 0.52149 c 0.39065,6.51068 2.0833,13.93285 2.73437,16.14648 l 14.58399,51.95508 h 27.21484 l 13.67187,-50.65234 c 0.9115,-2.99491 2.73564,-11.58961 3.77735,-17.44922 h 0.51953 v 7.68164 43.49219 h -7.29102 v 16.92773 h 41.14649 v -16.92773 h -7.16016 v -57.29297 h 7.16016 v -16.79883 h -49.61133 l -12.5,48.69922 -13.15234,-48.69922 z m 153.88672,0 c -9.50559,11.32859 -15.36493,13.41261 -22.78711,17.05859 l 5.99023,14.45313 13.02148,-6.11914 v 48.30859 h -13.02148 v 17.31836 h 52.08594 v -17.31836 h -12.10938 v -73.70117 z m 75.66796,19.01172 c 8.33367,0 10.9375,8.85455 10.9375,15.36523 -2.08341,2.60428 -6.12019,7.16145 -12.24023,7.42188 -7.81282,0.13021 -10.41666,-6.51152 -10.54687,-11.58985 -0.13022,-6.25025 5.20871,-11.19726 11.8496,-11.19726 z"
       inkscape:original="M -480.33203 500.64258 C -500.64535 500.64258 -520.30664 520.17399 -520.30664 548.56055 C -520.30664 576.68669 -502.2073 594.39648 -479.41992 594.39648 C -469.39347 594.39648 -461.31978 589.83939 -458.45508 585.02148 L -454.41992 593.22461 L -428.37695 593.22461 L -428.37695 560.67188 L -423.16797 560.67188 L -423.16797 546.73828 L -466.39844 546.73828 L -466.39844 560.67188 L -458.45508 560.67188 L -458.45508 566.14062 C -460.40828 569.52617 -463.53486 572.52148 -470.95703 572.52148 C -482.28562 572.52148 -488.79492 561.84234 -488.79492 548.56055 C -488.79492 535.53919 -481.50433 524.08203 -470.95703 524.08203 C -463.27443 524.08203 -456.50197 530.07184 -456.11133 540.61914 L -432.80469 540.61914 L -432.80469 502.20508 L -452.20508 502.20508 L -454.93945 511.58008 C -457.02287 509.49666 -461.45106 500.64258 -480.33203 500.64258 z M -189.78711 500.77344 C -211.01192 501.42451 -223.51172 516.26818 -223.51172 533.7168 C -223.51172 551.42585 -209.71031 563.40497 -193.04297 562.75391 C -186.14165 562.49348 -180.5418 559.49884 -177.15625 556.11328 C -177.02603 567.57208 -183.40716 573.56185 -193.04297 573.82227 C -200.986 573.82227 -207.62547 569.78591 -212.05273 567.18164 L -220.9082 584.10938 C -213.2256 590.62005 -198.90204 594.65691 -190.17773 594.39648 C -155.93155 593.35477 -150.59242 561.32177 -151.11328 541.5293 C -151.89456 515.48658 -168.43208 500.12238 -189.78711 500.77344 z M -598.35352 502.20508 L -598.35352 519.39453 L -591.19336 519.39453 L -591.19336 575.90625 L -598.35352 575.90625 L -598.35352 593.22461 L -525.43555 593.22461 L -525.43555 559.36914 L -547.31055 559.36914 L -547.31055 575.90625 L -564.10742 575.90625 L -564.10742 519.39453 L -557.20703 519.39453 L -557.20703 502.20508 L -598.35352 502.20508 z M -417.9082 502.20508 L -417.9082 519.00391 L -411.00781 519.00391 L -411.00781 576.42773 L -418.03906 576.42773 L -418.03906 593.22461 L -382.75195 593.22461 L -382.75195 576.42773 L -390.17383 576.42773 L -390.17383 525.12305 L -389.65234 525.12305 C -389.26169 531.63373 -387.56904 539.0559 -386.91797 541.26953 L -372.33398 593.22461 L -345.11914 593.22461 L -331.44727 542.57227 C -330.53577 539.57736 -328.71163 530.98266 -327.66992 525.12305 L -327.15039 525.12305 L -327.15039 532.80469 L -327.15039 576.29688 L -334.44141 576.29688 L -334.44141 593.22461 L -293.29492 593.22461 L -293.29492 576.29688 L -300.45508 576.29688 L -300.45508 519.00391 L -293.29492 519.00391 L -293.29492 502.20508 L -342.90625 502.20508 L -355.40625 550.9043 L -368.55859 502.20508 L -417.9082 502.20508 z M -264.02148 502.20508 C -273.52707 513.53367 -279.38641 515.61769 -286.80859 519.26367 L -280.81836 533.7168 L -267.79688 527.59766 L -267.79688 575.90625 L -280.81836 575.90625 L -280.81836 593.22461 L -228.73242 593.22461 L -228.73242 575.90625 L -240.8418 575.90625 L -240.8418 502.20508 L -264.02148 502.20508 z M -188.35352 521.2168 C -180.01985 521.2168 -177.41602 530.07135 -177.41602 536.58203 C -179.49943 539.18631 -183.53621 543.74348 -189.65625 544.00391 C -197.46907 544.13412 -200.07291 537.49239 -200.20312 532.41406 C -200.33334 526.16381 -194.99441 521.2168 -188.35352 521.2168 z "
       inkscape:radius="0"
       sodipodi:type="inkscape:offset"
       style="font-style:normal;font-variant:normal;font-weight:normal;font-stretch:normal;font-size:40px;line-height:0%;font-family:ChunkFive;-inkscape-font-specification:ChunkFive;letter-spacing:0px;word-spacing:0px;fill:#ffffff;stroke-width:3.25534"
       clip-path="url(#clipPath896)"
       id="path908" />
  </g>
</svg>
