<?xml version="1.0" encoding="UTF-8" standalone="no"?>
<svg
   xmlns:dc="http://purl.org/dc/elements/1.1/"
   xmlns:cc="http://creativecommons.org/ns#"
   xmlns:rdf="http://www.w3.org/1999/02/22-rdf-syntax-ns#"
   xmlns:svg="http://www.w3.org/2000/svg"
   xmlns="http://www.w3.org/2000/svg"
   xmlns:xlink="http://www.w3.org/1999/xlink"
   xmlns:sodipodi="http://sodipodi.sourceforge.net/DTD/sodipodi-0.dtd"
   xmlns:inkscape="http://www.inkscape.org/namespaces/inkscape"
   width="750"
   height="625"
   viewBox="0 0 198.4375 165.36459"
   version="1.1"
   id="svg8"
   inkscape:version="1.0.1 (3bc2e813f5, 2020-09-07)"
   sodipodi:docname="coderic-proposal-2-cardstyle.svg">
  <title
     id="title1048">Inkscape-Aboutscreen-cardstyle</title>
  <defs
     id="defs2">
    <linearGradient
       inkscape:collect="always"
       xlink:href="#linearGradient2402"
       id="linearGradient7073"
       gradientUnits="userSpaceOnUse"
       gradientTransform="matrix(0.02075509,0.02075509,-0.02075509,0.02075509,449.0667,-465.2639)"
       x1="5036.3584"
       y1="20102.154"
       x2="5036.3584"
       y2="17965.645" />
    <linearGradient
       id="linearGradient2402"
       inkscape:collect="always">
      <stop
         id="stop2398"
         offset="0"
         style="stop-color:#ff0d99;stop-opacity:1" />
      <stop
         id="stop2400"
         offset="1"
         style="stop-color:#ff6699;stop-opacity:0;" />
    </linearGradient>
  </defs>
  <sodipodi:namedview
     id="base"
     pagecolor="#ffffff"
     bordercolor="#666666"
     borderopacity="1.0"
     inkscape:pageopacity="0.0"
     inkscape:pageshadow="2"
     inkscape:zoom="0.35"
     inkscape:cx="-415.90962"
     inkscape:cy="315.27281"
     inkscape:document-units="mm"
     inkscape:current-layer="layer1"
     inkscape:document-rotation="0"
     showgrid="false"
     units="px"
     inkscape:snap-page="false"
     inkscape:window-width="1841"
     inkscape:window-height="1051"
     inkscape:window-x="1591"
     inkscape:window-y="-9"
     inkscape:window-maximized="1" />
  <metadata
     id="metadata5">
    <rdf:RDF>
      <cc:Work
         rdf:about="">
        <dc:format>image/svg+xml</dc:format>
        <dc:type
           rdf:resource="http://purl.org/dc/dcmitype/StillImage" />
        <dc:title>Inkscape-Aboutscreen-cardstyle</dc:title>
      </cc:Work>
    </rdf:RDF>
  </metadata>
  <g
     inkscape:label="mainlayer"
     inkscape:groupmode="layer"
     id="layer1">
    <rect
       style="fill:#1c1e2a;fill-opacity:1;stroke-width:0.964996;stroke-linecap:round;stroke-linejoin:round;paint-order:stroke fill markers"
       id="rect6937"
       width="198.4375"
       height="165.36458"
       x="-4.5898436e-05"
       y="2.7539063e-05"
       inkscape:export-xdpi="415"
       inkscape:export-ydpi="415" />
    <rect
       style="fill:#13151d;fill-opacity:1;stroke:none;stroke-width:0.964998;stroke-linecap:round;stroke-linejoin:round;paint-order:stroke fill markers"
       id="rect6939"
       width="78.651741"
       height="125.89082"
       x="21.076981"
       y="21.077785"
       inkscape:export-xdpi="415"
       inkscape:export-ydpi="415" />
    <rect
       style="fill:#31354a;fill-opacity:1;stroke:none;stroke-width:0.964998;stroke-linecap:round;stroke-linejoin:round;paint-order:stroke fill markers"
       id="rect6941"
       width="78.651741"
       height="125.89082"
       x="18.431717"
       y="18.431911"
       inkscape:export-xdpi="415"
       inkscape:export-ydpi="415" />
    <rect
       style="fill:#13151d;fill-opacity:1;stroke:none;stroke-width:0.964998;stroke-linecap:round;stroke-linejoin:round;paint-order:stroke fill markers"
       id="rect6943"
       width="69.695145"
       height="58.400494"
       x="110.31038"
       y="21.041897"
       inkscape:export-xdpi="415"
       inkscape:export-ydpi="415" />
    <rect
       style="fill:#13151d;fill-opacity:1;stroke:none;stroke-width:0.964998;stroke-linecap:round;stroke-linejoin:round;paint-order:stroke fill markers"
       id="rect6945"
       width="69.695145"
       height="58.400455"
       x="110.31038"
       y="88.532379"
       inkscape:export-xdpi="415"
       inkscape:export-ydpi="415" />
    <rect
       style="fill:#31354a;fill-opacity:1;stroke:none;stroke-width:0.964998;stroke-linecap:round;stroke-linejoin:round;paint-order:stroke fill markers"
       id="rect6947"
       width="69.695145"
       height="58.400494"
       x="107.66512"
       y="18.396023"
       inkscape:export-xdpi="415"
       inkscape:export-ydpi="415" />
    <rect
       style="fill:#31354a;fill-opacity:1;stroke:none;stroke-width:0.964998;stroke-linecap:round;stroke-linejoin:round;paint-order:stroke fill markers"
       id="rect6949"
       width="69.695145"
       height="58.400455"
       x="107.66512"
       y="85.886505"
       inkscape:export-xdpi="415"
       inkscape:export-ydpi="415" />
    <g
       id="g6973"
       transform="translate(-2962.2698,-1048.1598)"
       inkscape:export-xdpi="415"
       inkscape:export-ydpi="415">
      <circle
         style="fill:#ffffff;fill-opacity:1;stroke:none;stroke-width:0.964999;stroke-linecap:round;stroke-linejoin:round;paint-order:stroke fill markers"
         id="circle6963"
         cx="3020.0273"
         cy="1095.0969"
         r="17.197916" />
      <g
         id="g6971"
         transform="matrix(0.05736927,0,0,0.05736927,3008.742,1083.9063)"
         style="stroke-width:1.58296">
        <path
           d="M 163.15,27.83 28.81,165.3 C -16.58,221.51 59.7,214.97 92.4,231.16 104.13,243.15 47.44,252 59.17,264 c 11.73,11.99 70.93,23.1 82.68,35.09 11.73,11.99 -24.01,24.71 -12.28,36.7 11.73,11.99 38.86,0.63 43.94,28.31 3.62,19.78 48.89,8.5 71.03,-7.7 11.73,-12 -22.44,-10.87 -10.71,-22.86 29.17,-29.83 56.33,-10.84 66.31,-40.73 4.93,-14.77 -42.94,-22.77 -31.19,-34.76 33.75,-19.71 150.4,-32.54 95.05,-87.89 L 224.75,27.83 c -17.03,-16.35 -45.45,-16.53 -61.6,0 z m 154.31,264.98 c 0,6.82 50.25,11.29 50.25,-1.61 -7.16,-20.72 -44.31,-19.32 -50.25,1.61 z M 91.1,329.05 c 11.9,10.29 30.28,-2.56 35.79,-16.92 -11.53,-15.32 -54.69,0.55 -35.79,16.92 z m 220.06,-22.23 c -15.34,13.76 1.72,27.72 16.84,18.83 3.37,-3.42 -0.09,-15.41 -16.84,-18.83 z"
           id="path6965"
           inkscape:connector-curvature="0"
           style="fill:#000000;fill-opacity:1;stroke-width:1.58296" />
        <path
           d="m 131,238.6 c 3.59,2.23 57.89,13.26 71.16,15.46 4.6,0.97 1.34,5.71 -5,8.91 -14.3,3.8 -83.66,-24.37 -66.16,-24.37 z"
           id="path6967"
           style="fill:#ffffff;stroke-width:1.58296"
           inkscape:connector-curvature="0" />
        <path
           d="m 216.63,37.47 53.15,53.98 c 5.04,5.15 4.97,15.13 2.15,18 L 245.54,88.34 240.35,119.6 218.3,107.96 182.99,130.27 171.3,83.24 152.33,116.06 h -29 c -11.82,0 -13.21,-15 -2.47,-25.74 18.76,-20.25 40.29,-40.89 51.99,-52.85 11.76,-12.02 32.25,-11.68 43.78,0 z"
           id="path6969"
           style="fill:#ffffff;stroke-width:1.58296"
           inkscape:connector-curvature="0" />
      </g>
    </g>
    <path
       id="path1127"
       style="font-style:normal;font-variant:normal;font-weight:normal;font-stretch:normal;font-size:12.6989px;line-height:1.25;font-family:Poppins;-inkscape-font-specification:Poppins;letter-spacing:0px;word-spacing:0px;fill:#ffffff;stroke-width:0.999999"
       d="M 157.56445 277.12305 L 157.56445 312.63867 L 161.93164 312.63867 L 161.93164 301.02344 L 172.25195 312.63867 L 178.20312 312.63867 L 165.77148 299.44141 L 178.1543 286.33789 L 172.06055 286.33789 L 161.93164 298 L 161.93164 277.12305 L 157.56445 277.12305 z M 115.04102 279.18555 L 115.04102 312.63867 L 119.4082 312.63867 L 119.4082 279.18555 L 115.04102 279.18555 z M 139.66211 285.85742 C 137.87026 285.85742 136.22262 286.225 134.71875 286.96094 C 133.24688 287.69687 132.07877 288.73815 131.21484 290.08203 L 131.21484 286.33789 L 126.84766 286.33789 L 126.84766 312.63867 L 131.21484 312.63867 L 131.21484 298.0957 C 131.21484 295.34394 131.88658 293.24847 133.23047 291.80859 C 134.60635 290.36872 136.4462 289.64844 138.75 289.64844 C 141.0218 289.64844 142.81507 290.35384 144.12695 291.76172 C 145.43884 293.1376 146.09375 295.13599 146.09375 297.75977 L 146.09375 312.63867 L 150.41406 312.63867 L 150.41406 297.13672 C 150.41406 293.48903 149.42133 290.70499 147.4375 288.78516 C 145.45367 286.83333 142.86183 285.85742 139.66211 285.85742 z M 191.01758 285.90625 C 189.12974 285.90625 187.45039 286.24212 185.97852 286.91406 C 184.50664 287.55401 183.37024 288.43283 182.57031 289.55273 C 181.77038 290.67264 181.37109 291.90416 181.37109 293.24805 C 181.37109 294.9439 181.80209 296.32105 182.66602 297.37695 C 183.56194 298.40086 184.61809 299.18456 185.83398 299.72852 C 187.08188 300.24047 188.68293 300.75172 190.63477 301.26367 C 192.77858 301.80763 194.36085 302.36741 195.38477 302.94336 C 196.40867 303.48731 196.92188 304.33638 196.92188 305.48828 C 196.92187 306.60818 196.44234 307.53555 195.48242 308.27148 C 194.52251 309.00742 193.21073 309.375 191.54688 309.375 C 189.75503 309.375 188.29764 308.95888 187.17773 308.12695 C 186.08984 307.29503 185.48152 306.224 185.35352 304.91211 L 180.84375 304.91211 C 180.93974 306.51197 181.45099 307.9357 182.37891 309.18359 C 183.30683 310.39949 184.57006 311.35856 186.16992 312.0625 C 187.76978 312.73444 189.57792 313.07031 191.59375 313.07031 C 193.48159 313.07031 195.14606 312.75127 196.58594 312.11133 C 198.05781 311.43939 199.19421 310.5269 199.99414 309.375 C 200.79407 308.2231 201.19336 306.92816 201.19336 305.48828 C 201.16136 303.88842 200.71354 302.59152 199.84961 301.59961 C 199.01768 300.6077 198.01007 299.87254 196.82617 299.39258 C 195.64227 298.88062 194.10659 298.36938 192.21875 297.85742 C 190.71488 297.44146 189.52994 297.07193 188.66602 296.75195 C 187.83409 296.39998 187.13064 295.95216 186.55469 295.4082 C 186.01074 294.83225 185.73828 294.11197 185.73828 293.24805 C 185.73828 292.16014 186.20294 291.28131 187.13086 290.60938 C 188.05878 289.93743 189.30518 289.60156 190.87305 289.60156 C 192.5689 289.60156 193.91434 290.01768 194.90625 290.84961 C 195.93015 291.68154 196.48994 292.78427 196.58594 294.16016 L 200.95312 294.16016 C 200.82514 291.60038 199.86606 289.58515 198.07422 288.11328 C 196.28237 286.64141 193.92933 285.90625 191.01758 285.90625 z M 218.51953 285.90625 C 216.02375 285.90625 213.79949 286.46603 211.84766 287.58594 C 209.92782 288.70584 208.42384 290.29007 207.33594 292.33789 C 206.24803 294.35372 205.70508 296.72164 205.70508 299.44141 C 205.70508 302.19317 206.24803 304.5928 207.33594 306.64062 C 208.42384 308.68845 209.92782 310.27072 211.84766 311.39062 C 213.79949 312.51053 216.02375 313.07031 218.51953 313.07031 C 221.68726 313.07031 224.32763 312.27174 226.43945 310.67188 C 228.55127 309.04002 229.95817 306.87917 230.66211 304.19141 L 225.95898 304.19141 C 225.47902 305.85526 224.59825 307.13533 223.31836 308.03125 C 222.03847 308.92717 220.43936 309.375 218.51953 309.375 C 216.02375 309.375 214.00852 308.51105 212.47266 306.7832 C 210.93679 305.05535 210.16797 302.60913 210.16797 299.44141 C 210.16797 296.30568 210.93679 293.88921 212.47266 292.19336 C 214.00852 290.46551 216.02375 289.60156 218.51953 289.60156 C 220.43936 289.60156 222.03847 290.06622 223.31836 290.99414 C 224.63025 291.92206 225.51102 293.18529 225.95898 294.78516 L 230.66211 294.78516 C 229.99017 292.0014 228.59814 289.82568 226.48633 288.25781 C 224.40651 286.68995 221.75125 285.90625 218.51953 285.90625 z M 247.31641 285.90625 C 244.98061 285.90625 242.85343 286.46603 240.93359 287.58594 C 239.04576 288.70584 237.55861 290.29007 236.4707 292.33789 C 235.3828 294.35372 234.83789 296.70481 234.83789 299.39258 C 234.83789 302.04835 235.3828 304.41627 236.4707 306.49609 C 237.55861 308.57591 239.04576 310.19185 240.93359 311.34375 C 242.82143 312.49565 244.93373 313.07031 247.26953 313.07031 C 249.54133 313.07031 251.52485 312.5759 253.2207 311.58398 C 254.94855 310.56007 256.2435 309.28001 257.10742 307.74414 L 257.10742 312.63867 L 261.52344 312.63867 L 261.52344 286.33789 L 257.10742 286.33789 L 257.10742 291.13672 C 256.27549 289.63285 255.01226 288.38449 253.31641 287.39258 C 251.62055 286.40066 249.62021 285.90625 247.31641 285.90625 z M 283.12109 285.90625 C 280.84929 285.90625 278.8509 286.41749 277.12305 287.44141 C 275.42719 288.43332 274.14713 289.68168 273.2832 291.18555 L 273.2832 286.33789 L 268.91602 286.33789 L 268.91602 325.11914 L 273.2832 325.11914 L 273.2832 307.79102 C 274.17913 309.29488 275.47407 310.56007 277.16992 311.58398 C 278.89777 312.5759 280.88129 313.07031 283.12109 313.07031 C 285.45689 313.07031 287.5692 312.49565 289.45703 311.34375 C 291.37686 310.19185 292.88084 308.57591 293.96875 306.49609 C 295.05665 304.41627 295.60156 302.04835 295.60156 299.39258 C 295.60156 296.70481 295.05665 294.35372 293.96875 292.33789 C 292.88084 290.29007 291.37686 288.70584 289.45703 287.58594 C 287.5692 286.46603 285.45689 285.90625 283.12109 285.90625 z M 312.73438 285.90625 C 310.1746 285.90625 307.90375 286.46603 305.91992 287.58594 C 303.96809 288.67384 302.44728 290.24124 301.35938 292.28906 C 300.27147 294.33689 299.72852 296.72164 299.72852 299.44141 C 299.72852 302.16117 300.2883 304.56081 301.4082 306.64062 C 302.5281 308.68845 304.06379 310.27072 306.01562 311.39062 C 307.99945 312.51053 310.23859 313.07031 312.73438 313.07031 C 315.8701 313.07031 318.4956 312.28661 320.60742 310.71875 C 322.71924 309.11889 324.12614 307.05512 324.83008 304.52734 L 320.12695 304.52734 C 319.615 305.99922 318.71934 307.18416 317.43945 308.08008 C 316.19156 308.94401 314.62221 309.375 312.73438 309.375 C 310.43057 309.375 308.46389 308.65472 306.83203 307.21484 C 305.23216 305.74297 304.35138 303.71287 304.19141 301.12109 L 325.21484 301.12109 C 325.31084 300.19317 325.35742 299.3124 325.35742 298.48047 C 325.35742 296.08068 324.82935 293.93666 323.77344 292.04883 C 322.74953 290.12899 321.27921 288.62502 319.35938 287.53711 C 317.43954 286.4492 315.23016 285.90625 312.73438 285.90625 z M 312.54297 289.60156 C 314.07884 289.60156 315.47086 289.9206 316.71875 290.56055 C 317.99864 291.16849 319.00625 292.08098 319.74219 293.29688 C 320.47812 294.48077 320.8457 295.9045 320.8457 297.56836 L 304.24023 297.56836 C 304.46421 295.07258 305.34304 293.12077 306.87891 291.71289 C 308.44677 290.30501 310.33516 289.60156 312.54297 289.60156 z M 248.18164 289.69727 C 249.8135 289.69727 251.30065 290.09655 252.64453 290.89648 C 254.02041 291.66442 255.10827 292.78594 255.9082 294.25781 C 256.70813 295.72968 257.10742 297.45758 257.10742 299.44141 C 257.10742 301.42523 256.70813 303.16801 255.9082 304.67188 C 255.10827 306.14375 254.02041 307.28015 252.64453 308.08008 C 251.30065 308.84801 249.8135 309.23242 248.18164 309.23242 C 246.54978 309.23242 245.06068 308.84801 243.7168 308.08008 C 242.37291 307.28015 241.30188 306.14375 240.50195 304.67188 C 239.70202 303.16801 239.30078 301.4084 239.30078 299.39258 C 239.30078 297.40875 239.70202 295.68086 240.50195 294.20898 C 241.30188 292.73711 242.37291 291.61754 243.7168 290.84961 C 245.06068 290.08167 246.54978 289.69727 248.18164 289.69727 z M 282.20898 289.69727 C 283.84084 289.69727 285.32994 290.08167 286.67383 290.84961 C 288.04971 291.61754 289.13757 292.73711 289.9375 294.20898 C 290.73743 295.68086 291.13672 297.40875 291.13672 299.39258 C 291.13672 301.4084 290.73743 303.16801 289.9375 304.67188 C 289.13757 306.14375 288.04971 307.28015 286.67383 308.08008 C 285.32994 308.84801 283.84084 309.23242 282.20898 309.23242 C 280.60912 309.23242 279.12198 308.84801 277.74609 308.08008 C 276.40221 307.28015 275.31435 306.14375 274.48242 304.67188 C 273.68249 303.16801 273.2832 301.42523 273.2832 299.44141 C 273.2832 297.48958 273.68249 295.77656 274.48242 294.30469 C 275.31435 292.80082 276.40221 291.66442 277.74609 290.89648 C 279.12198 290.09655 280.60912 289.69727 282.20898 289.69727 z M 215.90039 326.21875 C 215.118 326.21875 214.45572 326.4896 213.91406 327.03125 C 213.37241 327.5729 213.10156 328.23519 213.10156 329.01758 C 213.10156 329.79997 213.37241 330.46225 213.91406 331.00391 C 214.45572 331.54556 215.118 331.81641 215.90039 331.81641 C 216.65269 331.81641 217.28531 331.54556 217.79688 331.00391 C 218.33853 330.46225 218.60938 329.79997 218.60938 329.01758 C 218.60938 328.23519 218.33853 327.5729 217.79688 327.03125 C 217.28531 326.4896 216.65269 326.21875 215.90039 326.21875 z M 292.95117 327.93359 L 292.95117 331.67969 L 297.2832 331.67969 L 297.2832 360.56836 L 301.43555 360.56836 L 301.43555 327.93359 L 292.95117 327.93359 z M 316.87305 327.93359 L 316.87305 331.67969 L 321.20703 331.67969 L 321.20703 360.56836 L 325.35938 360.56836 L 325.35938 327.93359 L 316.87305 327.93359 z M 112.40039 329.10742 L 124.27148 360.56836 L 129.00977 360.56836 L 140.88086 329.10742 L 136.54883 329.10742 L 126.66406 356.23438 L 116.77734 329.10742 L 112.40039 329.10742 z M 185.47852 335.38086 C 183.55264 335.38086 181.91273 335.7723 180.55859 336.55469 C 179.23455 337.33707 178.21049 338.43529 177.48828 339.84961 L 177.48828 335.83398 L 173.38086 335.83398 L 173.38086 360.56836 L 177.48828 360.56836 L 177.48828 347.11719 C 177.48828 342.12194 179.79048 339.625 184.39453 339.625 L 185.47852 339.625 L 185.47852 335.38086 z M 265.82227 335.38086 C 264.13712 335.38086 262.58814 335.72781 261.17383 336.41992 C 259.7896 337.11204 258.69139 338.08966 257.87891 339.35352 L 257.87891 335.83398 L 253.77148 335.83398 L 253.77148 360.56836 L 257.87891 360.56836 L 257.87891 346.89258 C 257.87891 344.30468 258.50958 342.33265 259.77344 340.97852 C 261.06739 339.62438 262.79823 338.94727 264.96484 338.94727 C 267.10137 338.94727 268.78772 339.60955 270.02148 340.93359 C 271.25525 342.22755 271.87109 344.10864 271.87109 346.57617 L 271.87109 360.56836 L 275.93359 360.56836 L 275.93359 345.98828 C 275.93359 342.55781 275.00046 339.94028 273.13477 338.13477 C 271.26907 336.29916 268.83145 335.38086 265.82227 335.38086 z M 156.09375 335.42773 C 153.6864 335.42773 151.54929 335.95264 149.68359 337.00586 C 147.84799 338.02898 146.41961 339.50381 145.39648 341.42969 C 144.37336 343.35557 143.86133 345.59844 143.86133 348.15625 C 143.86133 350.71406 144.38819 352.96981 145.44141 354.92578 C 146.49462 356.85166 147.93784 358.34132 149.77344 359.39453 C 151.63913 360.44774 153.74659 360.97461 156.09375 360.97461 C 159.04275 360.97461 161.51003 360.23817 163.49609 358.76367 C 165.48215 357.25908 166.80673 355.31671 167.46875 352.93945 L 163.04492 352.93945 C 162.56345 354.32368 161.72125 355.43868 160.51758 356.28125 C 159.344 357.09373 157.86917 357.5 156.09375 357.5 C 153.92714 357.5 152.0757 356.82288 150.54102 355.46875 C 149.03642 354.08453 148.20904 352.17377 148.05859 349.73633 L 167.82812 349.73633 C 167.91841 348.86367 167.96484 348.03434 167.96484 347.25195 C 167.96484 344.99506 167.46764 342.9805 166.47461 341.20508 C 165.51167 339.39957 164.12778 337.98406 162.32227 336.96094 C 160.51676 335.93781 158.44091 335.42773 156.09375 335.42773 z M 198.43164 335.42773 C 196.65622 335.42773 195.07758 335.74307 193.69336 336.375 C 192.30913 336.97684 191.24058 337.80421 190.48828 338.85742 C 189.73598 339.91064 189.35937 341.06817 189.35938 342.33203 C 189.35938 343.9269 189.76564 345.22181 190.57812 346.21484 C 191.4207 347.17778 192.41315 347.91422 193.55664 348.42578 C 194.73022 348.90725 196.23471 349.38962 198.07031 349.87109 C 200.08647 350.38266 201.57612 350.90952 202.53906 351.45117 C 203.502 351.96273 203.98437 352.76044 203.98438 353.84375 C 203.98437 354.89696 203.53361 355.76883 202.63086 356.46094 C 201.7281 357.15305 200.49446 357.5 198.92969 357.5 C 197.24454 357.5 195.87548 357.10856 194.82227 356.32617 C 193.79914 355.54378 193.22583 354.53455 193.10547 353.30078 L 188.86328 353.30078 C 188.95356 354.80537 189.43398 356.14478 190.30664 357.31836 C 191.1793 358.46185 192.36845 359.36532 193.87305 360.02734 C 195.37764 360.65927 197.07882 360.97461 198.97461 360.97461 C 200.75003 360.97461 202.31384 360.6741 203.66797 360.07227 C 205.0522 359.44034 206.12075 358.58331 206.87305 357.5 C 207.62534 356.41669 208.00195 355.19788 208.00195 353.84375 C 207.97186 352.33916 207.55076 351.12035 206.73828 350.1875 C 205.95589 349.25465 205.00793 348.5627 203.89453 348.11133 C 202.78113 347.62986 201.33596 347.14749 199.56055 346.66602 C 198.14623 346.27482 197.03318 345.92787 196.2207 345.62695 C 195.43832 345.29594 194.77603 344.87484 194.23438 344.36328 C 193.72281 343.82163 193.4668 343.14451 193.4668 342.33203 C 193.4668 341.30891 193.90273 340.48154 194.77539 339.84961 C 195.64806 339.21768 196.82238 338.90234 198.29688 338.90234 C 199.89174 338.90234 201.15504 339.29378 202.08789 340.07617 C 203.05082 340.85856 203.57769 341.89746 203.66797 343.19141 L 207.77539 343.19141 C 207.65502 340.78406 206.7535 338.88813 205.06836 337.50391 C 203.38322 336.11968 201.17 335.42773 198.43164 335.42773 z M 235.85156 335.42773 C 233.5044 335.42773 231.38211 335.95264 229.48633 337.00586 C 227.59054 338.02898 226.08605 339.51864 224.97266 341.47461 C 223.88935 343.40049 223.34766 345.62853 223.34766 348.15625 C 223.34766 350.71406 223.87452 352.96981 224.92773 354.92578 C 226.01104 356.85166 227.48587 358.34132 229.35156 359.39453 C 231.24735 360.44774 233.35285 360.97461 235.66992 360.97461 C 238.01708 360.97461 240.1542 360.44774 242.08008 359.39453 C 244.00596 358.34132 245.52527 356.85166 246.63867 354.92578 C 247.78216 352.96981 248.35547 350.71406 248.35547 348.15625 C 248.35547 345.59844 247.79699 343.35557 246.68359 341.42969 C 245.60029 339.50381 244.11258 338.02898 242.2168 337.00586 C 240.32101 335.95264 238.19872 335.42773 235.85156 335.42773 z M 213.7793 335.83398 L 213.7793 360.56836 L 217.88672 360.56836 L 217.88672 335.83398 L 213.7793 335.83398 z M 155.91211 338.90234 C 157.35652 338.90234 158.66626 339.20285 159.83984 339.80469 C 161.04352 340.37643 161.99148 341.23542 162.68359 342.37891 C 163.37571 343.4923 163.7207 344.82976 163.7207 346.39453 L 148.10352 346.39453 C 148.31416 344.04737 149.14153 342.21271 150.58594 340.88867 C 152.06044 339.56463 153.83577 338.90234 155.91211 338.90234 z M 235.80664 338.99219 C 237.28114 338.99219 238.6502 339.33914 239.91406 340.03125 C 241.17792 340.69327 242.20003 341.71539 242.98242 343.09961 C 243.76481 344.48383 244.15625 346.17019 244.15625 348.15625 C 244.15625 350.14231 243.74998 351.82671 242.9375 353.21094 C 242.15511 354.59516 241.11817 355.63406 239.82422 356.32617 C 238.53027 357.01828 237.14442 357.36328 235.66992 357.36328 C 234.19542 357.36328 232.84314 357.03311 231.60938 356.37109 C 230.37561 355.67898 229.3812 354.64008 228.62891 353.25586 C 227.9067 351.87163 227.54687 350.1724 227.54688 348.15625 C 227.54688 346.17019 227.92153 344.48383 228.67383 343.09961 C 229.42613 341.71539 230.42053 340.69327 231.6543 340.03125 C 232.91816 339.33914 234.30205 338.99219 235.80664 338.99219 z M 310.46484 355.24219 C 309.68246 355.24219 309.02017 355.51303 308.47852 356.05469 C 307.93686 356.59634 307.66602 357.25863 307.66602 358.04102 C 307.66602 358.8234 307.93686 359.48569 308.47852 360.02734 C 309.02017 360.569 309.68246 360.83984 310.46484 360.83984 C 311.21714 360.83984 311.84781 360.569 312.35938 360.02734 C 312.90103 359.48569 313.17188 358.8234 313.17188 358.04102 C 313.17188 357.25863 312.90103 356.59634 312.35938 356.05469 C 311.84781 355.51303 311.21714 355.24219 310.46484 355.24219 z M 294.95508 398.15234 L 294.95508 424.86523 L 299.07031 424.86523 L 299.07031 398.15234 L 294.95508 398.15234 z M 114.86133 399.77734 L 114.86133 424.86523 L 123.05469 424.86523 C 125.72596 424.86523 128.06116 424.37145 130.05859 423.38477 C 132.0801 422.37402 133.63189 420.92985 134.71484 419.05273 C 135.82186 417.17562 136.375 414.96306 136.375 412.41211 C 136.375 409.86118 135.82186 407.6336 134.71484 405.73242 C 133.63189 403.80718 132.0801 402.34085 130.05859 401.33008 C 128.06116 400.29527 125.72596 399.77734 123.05469 399.77734 L 114.86133 399.77734 z M 217.95703 399.77734 L 217.95703 424.86523 L 222.07227 424.86523 L 222.07227 413.89062 L 230.375 413.89062 L 230.375 410.53516 L 222.07227 410.53516 L 222.07227 403.13477 L 232.7207 403.13477 L 232.7207 399.77734 L 217.95703 399.77734 z M 118.97656 403.13477 L 123.05469 403.13477 C 125.99068 403.13477 128.24043 403.95143 129.80469 405.58789 C 131.36895 407.22435 132.15234 409.50018 132.15234 412.41211 C 132.15234 415.29997 131.36895 417.53667 129.80469 419.125 C 128.24043 420.71333 125.99068 421.50781 123.05469 421.50781 L 118.97656 421.50781 L 118.97656 403.13477 z M 150.52539 404.65039 C 149.15365 404.65039 147.96192 404.93806 146.95117 405.51562 C 145.96448 406.06912 145.17195 406.85251 144.57031 407.86328 L 144.57031 404.97461 L 140.45508 404.97461 L 140.45508 424.86523 L 144.57031 424.86523 L 144.57031 414.39648 C 144.57031 412.37497 144.97865 410.95494 145.79688 410.13672 C 146.63917 409.3185 147.86613 408.91016 149.47852 408.91016 L 150.52539 408.91016 L 150.52539 404.65039 z M 162.33008 404.65039 C 160.59736 404.65039 159.00838 405.08288 157.56445 405.94922 C 156.14459 406.79152 155.01417 407.98325 154.17188 409.52344 C 153.35365 411.06365 152.94531 412.83265 152.94531 414.83008 C 152.94531 416.82751 153.35365 418.62065 154.17188 420.20898 C 155.01417 421.77326 156.14459 423.00022 157.56445 423.89062 C 158.98432 424.75699 160.54916 425.18945 162.25781 425.18945 C 163.79801 425.18945 165.16977 424.87767 166.37305 424.25195 C 167.57632 423.62626 168.52671 422.84285 169.22461 421.9043 L 169.22461 424.86523 L 173.37695 424.86523 L 173.37695 404.97461 L 169.22461 404.97461 L 169.22461 407.86328 C 168.52671 406.94879 167.58742 406.18954 166.4082 405.58789 C 165.25306 404.9622 163.89434 404.65039 162.33008 404.65039 z M 246.61914 404.65039 C 245.2474 404.65039 244.05567 404.93806 243.04492 405.51562 C 242.05823 406.06912 241.2657 406.85251 240.66406 407.86328 L 240.66406 404.97461 L 236.54883 404.97461 L 236.54883 424.86523 L 240.66406 424.86523 L 240.66406 414.39648 C 240.66406 412.37497 241.0724 410.95494 241.89062 410.13672 C 242.73292 409.3185 243.95988 408.91016 245.57227 408.91016 L 246.61914 408.91016 L 246.61914 404.65039 z M 258.96484 404.65039 C 257.01553 404.65039 255.28371 405.07178 253.76758 405.91406 C 252.27552 406.75637 251.10792 407.95919 250.26562 409.52344 C 249.4474 411.06365 249.03711 412.85679 249.03711 414.90234 C 249.03711 416.94792 249.45849 418.75216 250.30078 420.31641 C 251.16714 421.85661 252.34778 423.05941 253.83984 423.92578 C 255.35597 424.76806 257.06367 425.18945 258.96484 425.18945 C 261.2992 425.18945 263.24824 424.61218 264.8125 423.45703 C 266.40082 422.27782 267.49602 420.77428 268.09766 418.94531 L 263.6582 418.94531 C 262.74371 420.79834 261.17887 421.72461 258.96484 421.72461 C 257.42465 421.72461 256.12529 421.24387 255.06641 420.28125 C 254.00753 419.31863 253.41722 418.04339 253.29688 416.45508 L 268.49414 416.45508 C 268.59039 415.85343 268.63867 415.17962 268.63867 414.43359 C 268.63867 412.50835 268.23034 410.81174 267.41211 409.34375 C 266.59388 407.85167 265.45042 406.69517 263.98242 405.87695 C 262.51443 405.05874 260.84196 404.65039 258.96484 404.65039 z M 281.23828 404.65039 C 279.28897 404.65039 277.55519 405.07178 276.03906 405.91406 C 274.547 406.75637 273.3794 407.95919 272.53711 409.52344 C 271.71888 411.06365 271.31055 412.85679 271.31055 414.90234 C 271.31055 416.94792 271.73193 418.75216 272.57422 420.31641 C 273.44058 421.85661 274.61926 423.05941 276.11133 423.92578 C 277.62746 424.76806 279.33711 425.18945 281.23828 425.18945 C 283.57264 425.18945 285.52168 424.61218 287.08594 423.45703 C 288.67426 422.27782 289.76946 420.77428 290.37109 418.94531 L 285.92969 418.94531 C 285.0152 420.79834 283.45231 421.72461 281.23828 421.72461 C 279.69809 421.72461 278.39873 421.24387 277.33984 420.28125 C 276.28095 419.31863 275.69063 418.04339 275.57031 416.45508 L 290.76758 416.45508 C 290.86383 415.85343 290.91211 415.17962 290.91211 414.43359 C 290.91211 412.50835 290.50182 410.81174 289.68359 409.34375 C 288.86536 407.85167 287.72386 406.69517 286.25586 405.87695 C 284.78786 405.05874 283.11539 404.65039 281.23828 404.65039 z M 176.44531 404.97461 L 182.65234 424.86523 L 186.98438 424.86523 L 190.99219 410.17383 L 194.99805 424.86523 L 199.33008 424.86523 L 205.50391 404.97461 L 201.46094 404.97461 L 197.3457 420.89453 L 193.30273 404.97461 L 189.00586 404.97461 L 184.7832 420.9668 L 180.63086 404.97461 L 176.44531 404.97461 z M 302.13867 404.97461 L 309.97266 424.54102 L 305.92773 434.21484 L 310.1875 434.21484 L 322.38867 404.97461 L 318.13086 404.97461 L 312.31836 420.13672 L 306.72266 404.97461 L 302.13867 404.97461 z M 258.78516 408.11523 C 260.34942 408.11523 261.65987 408.57379 262.71875 409.48828 C 263.77751 410.40278 264.31956 411.61669 264.34375 413.13281 L 253.33398 413.13281 C 253.52651 411.59263 254.12792 410.37871 255.13867 409.48828 C 256.14942 408.57379 257.36529 408.11523 258.78516 408.11523 z M 281.05664 408.11523 C 282.6209 408.11523 283.9333 408.57379 284.99219 409.48828 C 286.05095 410.40278 286.59105 411.61669 286.61523 413.13281 L 275.60547 413.13281 C 275.79799 411.59263 276.3994 410.37871 277.41016 409.48828 C 278.42091 408.57379 279.63678 408.11523 281.05664 408.11523 z M 163.19531 408.22461 C 164.2542 408.22461 165.24176 408.48814 166.15625 409.01758 C 167.07074 409.54701 167.80391 410.31738 168.35742 411.32812 C 168.93499 412.3389 169.22461 413.53063 169.22461 414.90234 C 169.22461 416.27409 168.93499 417.47691 168.35742 418.51172 C 167.80391 419.52249 167.07074 420.29283 166.15625 420.82227 C 165.24176 421.3517 164.2542 421.61719 163.19531 421.61719 C 162.1605 421.61719 161.17489 421.3517 160.23633 420.82227 C 159.32184 420.26877 158.57562 419.47429 157.99805 418.43945 C 157.44454 417.40464 157.16797 416.20182 157.16797 414.83008 C 157.16797 413.45834 157.44454 412.27965 157.99805 411.29297 C 158.57562 410.28222 159.32184 409.52295 160.23633 409.01758 C 161.15082 408.48814 162.13643 408.22461 163.19531 408.22461 z M 327.1543 419.84766 C 326.40827 419.84766 325.78272 420.1001 325.27734 420.60547 C 324.77197 421.11084 324.51953 421.73637 324.51953 422.48242 C 324.51953 423.22845 324.77197 423.854 325.27734 424.35938 C 325.78272 424.86475 326.40827 425.11719 327.1543 425.11719 C 327.87626 425.11719 328.49072 424.86475 328.99609 424.35938 C 329.50147 423.854 329.75391 423.22845 329.75391 422.48242 C 329.75391 421.73637 329.50147 421.11084 328.99609 420.60547 C 328.49072 420.1001 327.87626 419.84766 327.1543 419.84766 z M 116.14453 480.66406 C 115.84161 480.66406 115.58162 480.77379 115.36523 480.99023 C 115.14887 481.19219 115.04102 481.45022 115.04102 481.76758 C 115.04102 482.08488 115.14887 482.35192 115.36523 482.56836 C 115.58161 482.7848 115.8416 482.89258 116.14453 482.89258 C 116.44745 482.89258 116.70744 482.7848 116.92383 482.56836 C 117.14019 482.35197 117.24805 482.08493 117.24805 481.76758 C 117.24805 481.45035 117.14019 481.19231 116.92383 480.99023 C 116.70745 480.77379 116.44746 480.66406 116.14453 480.66406 z M 134.03906 480.92383 L 134.03906 496.93555 L 135.55469 496.93555 L 135.55469 491.63477 L 140.42188 496.93555 L 142.47852 496.93555 L 136.83008 491.00781 L 142.43555 485.12305 L 140.31445 485.12305 L 135.55469 490.40234 L 135.55469 480.92383 L 134.03906 480.92383 z M 125.88086 484.90625 C 124.9865 484.90625 124.1873 485.10077 123.48047 485.49023 C 122.77363 485.86529 122.23248 486.41351 121.85742 487.13477 L 121.85742 485.12305 L 120.3418 485.12305 L 120.3418 496.93555 L 121.85742 496.93555 L 121.85742 490.48828 C 121.85742 489.08902 122.19702 488.02985 122.875 487.30859 C 123.55298 486.58733 124.46002 486.22656 125.59961 486.22656 C 126.71035 486.22656 127.58404 486.56419 128.21875 487.24219 C 128.86788 487.92016 129.19141 488.90169 129.19141 490.18555 L 129.19141 496.93555 L 130.68555 496.93555 L 130.68555 490.01172 C 130.68555 488.35281 130.23811 487.09207 129.34375 486.22656 C 128.44939 485.34664 127.29453 484.90625 125.88086 484.90625 z M 234.78516 484.90625 C 233.78982 484.90625 232.94632 485.10781 232.25391 485.51172 C 231.57592 485.91562 231.07006 486.48503 230.73828 487.2207 L 230.73828 485.12305 L 229.22461 485.12305 L 229.22461 496.93555 L 230.73828 496.93555 L 230.73828 490.33789 C 230.73828 488.95307 231.07082 487.96447 231.73438 487.37305 C 232.39793 486.7816 233.27673 486.48633 234.37305 486.48633 L 234.78516 486.48633 L 234.78516 484.90625 z M 148.16797 484.94922 C 147.36016 484.94922 146.64057 485.09431 146.00586 485.38281 C 145.37115 485.67132 144.87941 486.06032 144.5332 486.55078 C 144.187 487.04124 144.01367 487.57534 144.01367 488.15234 C 144.01367 488.91687 144.20112 489.52863 144.57617 489.99023 C 144.96565 490.43743 145.43426 490.77701 145.98242 491.00781 C 146.53058 491.23862 147.24506 491.46842 148.125 491.69922 C 148.80298 491.87225 149.33708 492.03853 149.72656 492.19727 C 150.13047 492.34152 150.463 492.54308 150.72266 492.80273 C 150.98231 493.06239 151.11133 493.39492 151.11133 493.79883 C 151.11133 494.37584 150.87252 494.85855 150.39648 495.24805 C 149.93488 495.63751 149.29294 495.83203 148.4707 495.83203 C 147.53307 495.83203 146.78329 495.63047 146.2207 495.22656 C 145.67253 494.80824 145.36313 494.26707 145.29102 493.60352 L 143.73242 493.60352 C 143.8334 494.68539 144.30907 495.54498 145.16016 496.17969 C 146.02567 496.79998 147.13817 497.10938 148.49414 497.10938 C 149.30195 497.10937 150.01448 496.96624 150.63477 496.67773 C 151.25505 496.38923 151.73973 495.99827 152.08594 495.50781 C 152.43214 495.00292 152.60352 494.43354 152.60352 493.79883 C 152.58909 493.10642 152.40165 492.55113 152.04102 492.13281 C 151.68039 491.71454 151.24902 491.39808 150.74414 491.18164 C 150.23926 490.96525 149.56007 490.74057 148.70898 490.50977 C 148.00215 490.30789 147.43982 490.12749 147.02148 489.96875 C 146.60315 489.79565 146.24944 489.56585 145.96094 489.27734 C 145.68686 488.9744 145.55078 488.59051 145.55078 488.12891 C 145.55078 487.59519 145.78764 487.14971 146.26367 486.78906 C 146.7397 486.42845 147.36046 486.24805 148.125 486.24805 C 148.99051 486.24805 149.6697 486.46373 150.16016 486.89648 C 150.66503 487.3148 150.93913 487.87009 150.98242 488.5625 L 152.49609 488.5625 C 152.43839 487.43733 152.02115 486.55658 151.24219 485.92188 C 150.46323 485.27275 149.43739 484.94922 148.16797 484.94922 z M 160.50195 484.94922 C 159.39121 484.94922 158.40262 485.20216 157.53711 485.70703 C 156.6716 486.19749 155.99436 486.90296 155.50391 487.82617 C 155.01345 488.73497 154.76758 489.80317 154.76758 491.0293 C 154.76758 492.25545 155.01345 493.33069 155.50391 494.25391 C 155.99436 495.16268 156.6716 495.86815 157.53711 496.37305 C 158.40262 496.8635 159.39121 497.10938 160.50195 497.10938 C 161.94447 497.10937 163.14169 496.74156 164.09375 496.00586 C 165.04581 495.27019 165.65952 494.2957 165.93359 493.08398 L 164.31055 493.08398 C 164.10859 493.9495 163.66822 494.62868 162.99023 495.11914 C 162.32668 495.59516 161.49729 495.83203 160.50195 495.83203 C 159.70857 495.83203 158.99408 495.65359 158.35938 495.29297 C 157.72467 494.93233 157.22076 494.39118 156.8457 493.66992 C 156.48507 492.94866 156.30469 492.06791 156.30469 491.0293 C 156.30469 489.99068 156.48507 489.11893 156.8457 488.41211 C 157.22076 487.69085 157.72467 487.14971 158.35938 486.78906 C 158.99408 486.42845 159.70857 486.24805 160.50195 486.24805 C 161.49729 486.24805 162.32668 486.49197 162.99023 486.98242 C 163.66822 487.45844 164.10859 488.12351 164.31055 488.97461 L 165.93359 488.97461 C 165.65952 487.73404 165.04581 486.75251 164.09375 486.03125 C 163.15611 485.30999 161.9589 484.94922 160.50195 484.94922 z M 173.67969 484.94922 C 172.5978 484.94922 171.62332 485.20216 170.75781 485.70703 C 169.90673 486.19749 169.23655 486.90296 168.74609 487.82617 C 168.27006 488.73497 168.03125 489.7961 168.03125 491.00781 C 168.03125 492.21953 168.27006 493.28772 168.74609 494.21094 C 169.23655 495.13415 169.90673 495.84669 170.75781 496.35156 C 171.62332 496.85646 172.59074 497.10938 173.6582 497.10938 C 174.78337 497.10938 175.74883 496.84939 176.55664 496.33008 C 177.37888 495.79633 177.97846 495.12617 178.35352 494.31836 L 178.35352 496.93555 L 179.86719 496.93555 L 179.86719 485.12305 L 178.35352 485.12305 L 178.35352 487.71875 C 177.99289 486.91094 177.40036 486.24782 176.57812 485.72852 C 175.77031 485.20921 174.80485 484.94922 173.67969 484.94922 z M 189.51758 484.94922 C 188.39241 484.94922 187.41989 485.21628 186.59766 485.75 C 185.78985 486.26931 185.19732 486.92535 184.82227 487.71875 L 184.82227 485.12305 L 183.33008 485.12305 L 183.33008 502.51953 L 184.82227 502.51953 L 184.82227 494.33984 C 185.19732 495.13322 185.7969 495.79633 186.61914 496.33008 C 187.44138 496.84939 188.40684 497.10938 189.51758 497.10938 C 190.58504 497.10938 191.5454 496.85646 192.39648 496.35156 C 193.262 495.84669 193.93217 495.13415 194.4082 494.21094 C 194.89866 493.28772 195.14453 492.21953 195.14453 491.00781 C 195.14453 489.7961 194.89866 488.73497 194.4082 487.82617 C 193.93217 486.90296 193.262 486.19749 192.39648 485.70703 C 191.5454 485.20216 190.58504 484.94922 189.51758 484.94922 z M 203.04297 484.94922 C 201.9178 484.94922 200.91509 485.19509 200.03516 485.68555 C 199.15522 486.176 198.46897 486.88147 197.97852 487.80469 C 197.48806 488.7279 197.24219 489.80317 197.24219 491.0293 C 197.24219 492.25545 197.48806 493.33069 197.97852 494.25391 C 198.4834 495.16268 199.1767 495.86815 200.05664 496.37305 C 200.93658 496.8635 201.93223 497.10938 203.04297 497.10938 C 204.47106 497.10938 205.65221 496.7486 206.58984 496.02734 C 207.54191 495.29165 208.16267 494.34738 208.45117 493.19336 L 206.84961 493.19336 C 206.63323 494.00117 206.1858 494.6431 205.50781 495.11914 C 204.84425 495.59516 204.02388 495.83203 203.04297 495.83203 C 202.29286 495.83203 201.59955 495.67478 200.96484 495.35742 C 200.33014 495.02565 199.81721 494.54096 199.42773 493.90625 C 199.03824 493.27154 198.82256 492.50764 198.7793 491.61328 L 208.58203 491.61328 C 208.61088 491.33919 208.625 490.94314 208.625 490.42383 C 208.625 489.41406 208.39325 488.498 207.93164 487.67578 C 207.48446 486.83912 206.83546 486.176 205.98438 485.68555 C 205.14771 485.19509 204.16813 484.94922 203.04297 484.94922 z M 220.54688 484.94922 C 219.43613 484.94922 218.43342 485.20216 217.53906 485.70703 C 216.6447 486.19749 215.93728 486.90296 215.41797 487.82617 C 214.89866 488.73497 214.64062 489.80317 214.64062 491.0293 C 214.64063 492.25545 214.8916 493.33069 215.39648 494.25391 C 215.91579 495.16268 216.61616 495.86815 217.49609 496.37305 C 218.39046 496.8635 219.39317 497.10938 220.50391 497.10938 C 221.61465 497.10938 222.62442 496.8635 223.5332 496.37305 C 224.44199 495.86815 225.15647 495.15563 225.67578 494.23242 C 226.19509 493.30921 226.45508 492.24101 226.45508 491.0293 C 226.45508 489.80317 226.19509 488.73497 225.67578 487.82617 C 225.1709 486.90296 224.46347 486.19749 223.55469 485.70703 C 222.66033 485.20216 221.65762 484.94922 220.54688 484.94922 z M 242.01172 484.94922 C 240.92983 484.94922 239.95536 485.20216 239.08984 485.70703 C 238.23876 486.19749 237.56858 486.90296 237.07812 487.82617 C 236.60209 488.73497 236.36328 489.7961 236.36328 491.00781 C 236.36328 492.21953 236.60209 493.28772 237.07812 494.21094 C 237.56858 495.13415 238.23876 495.84669 239.08984 496.35156 C 239.95536 496.85646 240.92983 497.10938 242.01172 497.10938 C 243.12246 497.10938 244.08086 496.84939 244.88867 496.33008 C 245.71091 495.79633 246.31049 495.12617 246.68555 494.31836 L 246.68555 497.24023 C 246.68555 498.10575 246.51222 498.85553 246.16602 499.49023 C 245.81981 500.12494 245.34414 500.60061 244.73828 500.91797 C 244.13242 501.24974 243.44618 501.41602 242.68164 501.41602 C 241.6286 501.41602 240.73569 501.17014 240 500.67969 C 239.27874 500.18923 238.787 499.53316 238.52734 498.71094 L 237.03516 498.71094 C 237.28038 499.9515 237.90115 500.93304 238.89648 501.6543 C 239.90625 502.37556 241.16699 502.73633 242.68164 502.73633 C 243.74911 502.73633 244.7024 502.50458 245.53906 502.04297 C 246.37572 501.59578 247.02472 500.95385 247.48633 500.11719 C 247.96236 499.28053 248.19922 498.32211 248.19922 497.24023 L 248.19922 485.12305 L 246.68555 485.12305 L 246.68555 487.69727 C 246.32492 486.90389 245.73239 486.24782 244.91016 485.72852 C 244.08792 485.20921 243.12246 484.94922 242.01172 484.94922 z M 115.38672 485.12305 L 115.38672 496.93555 L 116.90234 496.93555 L 116.90234 485.12305 L 115.38672 485.12305 z M 202.97656 486.24805 C 203.72667 486.24805 204.41998 486.4053 205.05469 486.72266 C 205.6894 487.04001 206.18625 487.51059 206.54688 488.13086 C 206.92187 488.75116 207.10225 489.50093 207.08789 490.38086 L 198.7793 490.38086 C 198.86585 489.06818 199.30622 488.05134 200.09961 487.33008 C 200.893 486.60882 201.8514 486.24805 202.97656 486.24805 z M 173.96094 486.26953 C 174.76875 486.26953 175.50441 486.46402 176.16797 486.85352 C 176.84595 487.24298 177.38005 487.79827 177.76953 488.51953 C 178.15901 489.24079 178.35352 490.07919 178.35352 491.03125 C 178.35352 491.98331 178.15901 492.81976 177.76953 493.54102 C 177.38005 494.26228 176.84595 494.81754 176.16797 495.20703 C 175.50441 495.5965 174.76875 495.79102 173.96094 495.79102 C 173.12428 495.79102 172.3745 495.60357 171.71094 495.22852 C 171.04738 494.83905 170.52034 494.28376 170.13086 493.5625 C 169.7558 492.8268 169.56836 491.97429 169.56836 491.00781 C 169.56836 490.0269 169.7558 489.18341 170.13086 488.47656 C 170.52034 487.7553 171.04738 487.20709 171.71094 486.83203 C 172.3745 486.45698 173.12428 486.26953 173.96094 486.26953 z M 189.21484 486.26953 C 190.05151 486.26953 190.80324 486.45698 191.4668 486.83203 C 192.13036 487.20709 192.64838 487.7553 193.02344 488.47656 C 193.41292 489.18341 193.60742 490.0269 193.60742 491.00781 C 193.60742 491.97429 193.41292 492.82485 193.02344 493.56055 C 192.64838 494.28181 192.13036 494.83709 191.4668 495.22656 C 190.80324 495.60162 190.05151 495.78906 189.21484 495.78906 C 188.40703 495.78906 187.66431 495.59455 186.98633 495.20508 C 186.32277 494.81559 185.79768 494.26032 185.4082 493.53906 C 185.01872 492.8178 184.82227 491.98136 184.82227 491.0293 C 184.82227 490.07723 185.01872 489.24079 185.4082 488.51953 C 185.79768 487.79827 186.32277 487.24298 186.98633 486.85352 C 187.66431 486.46402 188.40703 486.26953 189.21484 486.26953 z M 220.52539 486.26953 C 221.30435 486.26953 222.02589 486.4499 222.68945 486.81055 C 223.35301 487.15675 223.88711 487.69085 224.29102 488.41211 C 224.69492 489.11893 224.89648 489.99068 224.89648 491.0293 C 224.89648 492.06791 224.68786 492.94866 224.26953 493.66992 C 223.86563 494.37677 223.33153 494.90891 222.66797 495.26953 C 222.00441 495.61574 221.28287 495.78906 220.50391 495.78906 C 219.72495 495.78906 219.0034 495.61574 218.33984 495.26953 C 217.69071 494.90891 217.16367 494.37677 216.75977 493.66992 C 216.37029 492.94866 216.17578 492.06791 216.17578 491.0293 C 216.17578 489.99068 216.37029 489.11893 216.75977 488.41211 C 217.16367 487.69085 217.69777 487.15675 218.36133 486.81055 C 219.02489 486.4499 219.74643 486.26953 220.52539 486.26953 z M 242.29297 486.26953 C 243.10078 486.26953 243.83644 486.46402 244.5 486.85352 C 245.17798 487.24298 245.71208 487.79827 246.10156 488.51953 C 246.49104 489.24079 246.68555 490.07723 246.68555 491.0293 C 246.68555 491.98136 246.49104 492.8178 246.10156 493.53906 C 245.71208 494.26032 245.17798 494.81559 244.5 495.20508 C 243.83644 495.59455 243.10078 495.78906 242.29297 495.78906 C 241.45631 495.78906 240.70653 495.60162 240.04297 495.22656 C 239.37941 494.83709 238.85237 494.28181 238.46289 493.56055 C 238.08784 492.82485 237.90039 491.97429 237.90039 491.00781 C 237.90039 490.0269 238.08784 489.18341 238.46289 488.47656 C 238.85237 487.7553 239.37941 487.20709 240.04297 486.83203 C 240.70653 486.45698 241.45631 486.26953 242.29297 486.26953 z M 211.6543 494.81641 C 211.33696 494.81641 211.06991 494.92418 210.85352 495.14062 C 210.65156 495.34258 210.55078 495.60257 210.55078 495.91992 C 210.55078 496.23723 210.65156 496.50426 210.85352 496.7207 C 211.06989 496.93714 211.33694 497.04492 211.6543 497.04492 C 211.95723 497.04492 212.21016 496.93714 212.41211 496.7207 C 212.62847 496.50431 212.73633 496.23728 212.73633 495.91992 C 212.73633 495.60269 212.62847 495.3427 212.41211 495.14062 C 212.21016 494.92418 211.95723 494.81641 211.6543 494.81641 z "
       transform="scale(0.26458333)"
       inkscape:export-xdpi="415"
       inkscape:export-ydpi="415" />
    <path
       id="path6979"
       style="fill:url(#linearGradient7073);fill-opacity:1;stroke:none;stroke-width:44.6;stroke-linecap:round;stroke-linejoin:round;stroke-dasharray:44.6, 267.6"
       d="m 164.4455,18.3958 -28.4211,28.421 c -2.5516,2.5515 -2.5516,6.6598 0,9.2113 2.5514,2.5515 6.6593,2.5514 9.2107,0 l 32.1252,-32.1252 v -5.5071 z"
       inkscape:export-xdpi="415"
       inkscape:export-ydpi="415" />
    <path
       id="path6981"
       style="fill:#ff2555;fill-opacity:1;stroke:none;stroke-width:44.6;stroke-linecap:round;stroke-linejoin:round;stroke-dasharray:44.6, 267.599"
       d="m 162.7159,27.0959 c 0.3103,0.3103 0.3103,0.81 -1e-4,1.1203 l -3.8099,3.81 -4.634,4.6339 c -0.3103,0.3103 -0.3103,0.81 0,1.1203 0.3103,0.3103 0.81,0.3103 1.1203,0 l 4.634,-4.634 1.9119,-1.9119 c 0.3103,-0.3103 0.8099,-0.3103 1.1202,0 0.3103,0.3103 0.3103,0.81 0,1.1203 l -2.2473,2.2473 -3.0363,3.0363 c -0.3103,0.3103 -0.3103,0.8099 0,1.1202 0.3103,0.3103 0.8099,0.3103 1.1202,0 l 2.2394,-2.2393 1.3419,-1.3419 c 0.3103,-0.3104 0.8099,-0.3103 1.1201,0 0.3104,0.3103 0.3105,0.8099 10e-5,1.1202 l -7.4875,7.4875 -2.7881,2.7881 c -2.1721,2.1722 -5.6696,2.1722 -7.8417,1e-4 -2.1722,-2.1722 -2.1722,-5.6696 0,-7.8418 l 1.8775,-1.8775 4.3071,-4.3071 3.1805,-3.1804 c 0.3103,-0.3104 0.8099,-0.3103 1.1201,0 0.3104,0.3103 0.3104,0.8099 1e-4,1.1202 l -0.4313,0.4313 -2.0145,2.0145 c -0.3103,0.3103 -0.3103,0.8099 0,1.1202 0.3103,0.3103 0.81,0.3103 1.1203,0 l 2.8113,-2.8113 4.1454,-4.1454 c 0.3103,-0.3103 0.81,-0.3104 1.1203,-10e-5 z"
       inkscape:export-xdpi="415"
       inkscape:export-ydpi="415" />
    <path
       id="path6983"
       style="fill:#ff2555;fill-opacity:1;stroke:none;stroke-width:44.6;stroke-linecap:round;stroke-linejoin:round;stroke-dasharray:44.6, 267.599"
       d="m 153.7085,38.3438 c 2.1722,2.1722 2.1722,5.6696 0,7.8417 l -9.1475,9.1476 c -2.1721,2.1721 -5.6696,2.1721 -7.8417,0 -2.1722,-2.1722 -2.1722,-5.6696 0,-7.8418 l 9.1475,-9.1475 c 2.1721,-2.1721 5.6696,-2.1721 7.8417,0 z"
       inkscape:export-xdpi="415"
       inkscape:export-ydpi="415" />
    <path
       id="path6985"
       style="fill:#ff5225;fill-opacity:1;stroke:none;stroke-width:44.6;stroke-linecap:round;stroke-linejoin:round;stroke-dasharray:44.6, 267.599"
       d="m 152.4722,39.5705 c -0.1971,-0.1971 -0.5143,-0.1971 -0.7114,0 l -3.1518,3.1517 -4.5464,4.5465 c -0.197,0.197 -0.5144,0.197 -0.7114,-1e-4 -0.1972,-0.197 -0.1971,-0.5143 0,-0.7114 l 4.3841,-4.3841 2.1208,-2.1209 c 0.1971,-0.197 0.1971,-0.5144 1e-4,-0.7114 -0.1972,-0.1971 -0.5145,-0.1971 -0.7115,0 l -2.477,2.4769 -2.8466,2.8466 c -0.1971,0.1971 -0.5144,0.1972 -0.7115,1e-4 -0.197,-0.1971 -0.197,-0.5144 1e-4,-0.7115 l 2.1972,-2.1972 2.5497,-2.5497 c 0.197,-0.1971 0.1971,-0.5145 0,-0.7115 -0.197,-0.1971 -0.5144,-0.197 -0.7115,0 l -4.5683,4.5683 -4.1333,4.1333 -0.9242,0.9243 c -1.7763,1.7763 -1.7763,4.6364 0,6.4127 1.7763,1.7763 4.6364,1.7762 6.4126,-10e-5 l 5.0576,-5.0575 c 0.084,-0.084 0.165,-0.1715 0.2414,-0.2607 l 3.4974,-3.4974 c 0.1971,-0.197 0.1971,-0.5143 -1e-4,-0.7114 -0.197,-0.1971 -0.5143,-0.1971 -0.7114,0 l -1.718,1.718 -1.0801,1.0802 c -0.1971,0.197 -0.5144,0.197 -0.7115,0 -0.1971,-0.1971 -0.197,-0.5144 0,-0.7115 l 1.7241,-1.7241 1.9028,-1.9027 c 0.197,-0.1971 0.197,-0.5144 -1e-4,-0.7114 -0.1971,-0.1971 -0.5143,-0.1972 -0.7114,-1e-4 l -1.5496,1.5496 -3.5996,3.5997 c -0.1971,0.1971 -0.5144,0.1971 -0.7115,0 -0.1971,-0.1971 -0.1971,-0.5144 0,-0.7115 l 3.7596,-3.7596 3.1507,-3.1507 c 0.1971,-0.1971 0.197,-0.5143 0,-0.7114 z"
       inkscape:export-xdpi="415"
       inkscape:export-ydpi="415" />
    <path
       sodipodi:type="star"
       style="fill:#ff5225;fill-opacity:1;stroke:none;stroke-width:0.964999;stroke-linecap:round;stroke-linejoin:round;paint-order:stroke fill markers"
       id="path6987"
       sodipodi:sides="4"
       sodipodi:cx="116.95442"
       sodipodi:cy="29.152982"
       sodipodi:r1="2.8537261"
       sodipodi:r2="0.45195097"
       sodipodi:arg1="1.5707963"
       sodipodi:arg2="2.3561945"
       inkscape:flatsided="false"
       inkscape:rounded="0"
       inkscape:randomized="0"
       inkscape:transform-center-x="-0.00010936772"
       inkscape:transform-center-y="-8.6474614e-06"
       d="m 116.95442,32.006709 -0.31958,-2.534149 -2.53414,-0.319577 2.53414,-0.319578 0.31958,-2.534148 0.31958,2.534148 2.53415,0.319578 -2.53415,0.319577 z"
       inkscape:export-xdpi="415"
       inkscape:export-ydpi="415" />
    <path
       sodipodi:type="star"
       style="fill:#ff2555;fill-opacity:1;stroke:none;stroke-width:0.964999;stroke-linecap:round;stroke-linejoin:round;paint-order:stroke fill markers"
       id="path6989"
       sodipodi:sides="4"
       sodipodi:cx="124.76521"
       sodipodi:cy="48.189359"
       sodipodi:r1="4.5842967"
       sodipodi:r2="0.72602522"
       sodipodi:arg1="1.5707963"
       sodipodi:arg2="2.3561945"
       inkscape:flatsided="false"
       inkscape:rounded="0"
       inkscape:randomized="0"
       inkscape:transform-center-x="-0.00031839758"
       inkscape:transform-center-y="8.7542567e-05"
       d="m 124.76521,52.773654 -0.51337,-4.070919 -4.07092,-0.513377 4.07092,-0.513378 0.51337,-4.070919 0.51338,4.070919 4.07092,0.513378 -4.07092,0.513377 z"
       inkscape:export-xdpi="415"
       inkscape:export-ydpi="415" />
    <path
       sodipodi:type="star"
       style="fill:#ff2555;fill-opacity:1;stroke:none;stroke-width:0.964999;stroke-linecap:round;stroke-linejoin:round;paint-order:stroke fill markers"
       id="path6991"
       sodipodi:sides="4"
       sodipodi:cx="168.35701"
       sodipodi:cy="46.692654"
       sodipodi:r1="4.5842967"
       sodipodi:r2="0.72602522"
       sodipodi:arg1="1.5707963"
       sodipodi:arg2="2.3561945"
       inkscape:flatsided="false"
       inkscape:rounded="0"
       inkscape:randomized="0"
       inkscape:transform-center-x="-0.00031839758"
       inkscape:transform-center-y="8.7542567e-05"
       d="m 168.35701,51.27695 -0.51338,-4.070919 -4.07092,-0.513377 4.07092,-0.513378 0.51338,-4.070919 0.51338,4.070919 4.07092,0.513378 -4.07092,0.513377 z"
       inkscape:export-xdpi="415"
       inkscape:export-ydpi="415" />
    <path
       sodipodi:type="star"
       style="fill:#ff2555;fill-opacity:1;stroke:none;stroke-width:0.965;stroke-linecap:round;stroke-linejoin:round;paint-order:stroke fill markers"
       id="path6993"
       sodipodi:sides="4"
       sodipodi:cx="150.16292"
       sodipodi:cy="68.535184"
       sodipodi:r1="2.8537264"
       sodipodi:r2="0.451951"
       sodipodi:arg1="1.5707963"
       sodipodi:arg2="2.3561945"
       inkscape:flatsided="false"
       inkscape:rounded="0"
       inkscape:randomized="0"
       inkscape:transform-center-x="-0.00029963668"
       inkscape:transform-center-y="7.5131533e-05"
       d="m 150.16292,71.388913 -0.31958,-2.534149 -2.53415,-0.319577 2.53415,-0.319578 0.31958,-2.534149 0.31958,2.534149 2.53414,0.319578 -2.53414,0.319577 z"
       inkscape:export-xdpi="415"
       inkscape:export-ydpi="415" />
    <path
       sodipodi:type="star"
       style="fill:#ff5225;fill-opacity:1;stroke:none;stroke-width:0.964998;stroke-linecap:round;stroke-linejoin:round;paint-order:stroke fill markers"
       id="path6995"
       sodipodi:sides="4"
       sodipodi:cx="157.22542"
       sodipodi:cy="64.372464"
       sodipodi:r1="2.152144"
       sodipodi:r2="0.34083983"
       sodipodi:arg1="1.5707963"
       sodipodi:arg2="2.3561945"
       inkscape:flatsided="false"
       inkscape:rounded="0"
       inkscape:randomized="0"
       inkscape:transform-center-x="-0.00014832245"
       inkscape:transform-center-y="0.0001343098"
       d="m 157.22542,66.524611 -0.24101,-1.911134 -1.91114,-0.24101 1.91114,-0.24101 0.24101,-1.911134 0.24101,1.911134 1.91113,0.24101 -1.91113,0.24101 z"
       inkscape:export-xdpi="415"
       inkscape:export-ydpi="415" />
    <path
       sodipodi:type="star"
       style="fill:#ff5225;fill-opacity:1;stroke:none;stroke-width:0.964998;stroke-linecap:round;stroke-linejoin:round;paint-order:stroke fill markers"
       id="path6997"
       sodipodi:sides="4"
       sodipodi:cx="119.38631"
       sodipodi:cy="68.722196"
       sodipodi:r1="3.882714"
       sodipodi:r2="0.61491412"
       sodipodi:arg1="1.5707963"
       sodipodi:arg2="2.3561945"
       inkscape:flatsided="false"
       inkscape:rounded="0"
       inkscape:randomized="0"
       inkscape:transform-center-x="-0.00017502399"
       inkscape:transform-center-y="0.00022229959"
       d="m 119.38631,72.604913 -0.43481,-3.447905 -3.44791,-0.434809 3.44791,-0.43481 0.43481,-3.447905 0.43481,3.447905 3.4479,0.434809 -3.4479,0.43481 z"
       inkscape:export-xdpi="415"
       inkscape:export-ydpi="415" />
    <path
       sodipodi:type="star"
       style="fill:#ff5225;fill-opacity:1;stroke:none;stroke-width:0.964995;stroke-linecap:round;stroke-linejoin:round;paint-order:stroke fill markers"
       id="path6999"
       sodipodi:sides="4"
       sodipodi:cx="140.57381"
       sodipodi:cy="27.983792"
       sodipodi:r1="2.6198654"
       sodipodi:r2="0.41491398"
       sodipodi:arg1="1.5707963"
       sodipodi:arg2="2.3561945"
       inkscape:flatsided="false"
       inkscape:rounded="0"
       inkscape:randomized="0"
       inkscape:transform-center-x="3.5102566e-05"
       inkscape:transform-center-y="0.00011886701"
       d="m 140.57381,30.603657 -0.29339,-2.326477 -2.32648,-0.293389 2.32648,-0.293388 0.29339,-2.326477 0.29339,2.326477 2.32647,0.293388 -2.32647,0.293389 z"
       inkscape:export-xdpi="415"
       inkscape:export-ydpi="415" />
    <path
       id="path1053"
       style="font-style:normal;font-variant:normal;font-weight:300;font-stretch:normal;font-size:5.62381px;line-height:1.25;font-family:'Roboto Mono';-inkscape-font-specification:'Roboto Mono Light';letter-spacing:0px;word-spacing:0px;fill:#ffffff;stroke-width:0.140596"
       d="m 27.235318,152.70747 v 1.64745 c -0.09702,-0.1428 -0.221676,-0.25431 -0.373621,-0.33486 -0.151944,-0.0805 -0.321251,-0.12093 -0.507978,-0.12093 -0.203206,0 -0.378818,0.0431 -0.527101,0.12919 -0.148285,0.0842 -0.270912,0.19851 -0.367937,0.34313 -0.09336,0.13548 -0.164513,0.29419 -0.21394,0.47543 -0.0476,0.18123 -0.07183,0.36945 -0.07183,0.56534 v 0.0579 c 0,0.19222 0.02498,0.37893 0.07442,0.56017 0.04942,0.18123 0.121844,0.34145 0.217041,0.48059 0.09886,0.14096 0.221482,0.25451 0.367935,0.34055 0.148285,0.086 0.320368,0.12867 0.516247,0.12867 0.181237,0 0.350544,-0.0363 0.507981,-0.10955 0.157435,-0.0751 0.287123,-0.18305 0.389639,-0.32401 l 0.01138,0.37878 h 0.307475 v -4.21783 z m 9.438182,0.18139 c -0.0421,0 -0.07895,0.006 -0.110069,0.0191 -0.03112,0.0128 -0.05686,0.029 -0.077,0.0491 -0.02196,0.0238 -0.03736,0.0523 -0.04651,0.0853 -0.0092,0.0311 -0.01344,0.064 -0.01344,0.0987 v 5.3e-4 c 0,0.0659 0.01892,0.12244 0.05736,0.17001 0.03845,0.0476 0.101785,0.0713 0.189653,0.0713 0.08787,0 0.150694,-0.0237 0.189138,-0.0713 0.04027,-0.0476 0.06046,-0.1041 0.06046,-0.17001 0,-0.0366 -0.0056,-0.0707 -0.01654,-0.1018 -0.0092,-0.0311 -0.02455,-0.0589 -0.04651,-0.0827 -0.02013,-0.0201 -0.04588,-0.0363 -0.077,-0.0491 -0.03112,-0.0128 -0.06744,-0.0191 -0.109553,-0.0191 z m -16.948319,1.01027 c -0.21785,0 -0.407342,0.0411 -0.568441,0.12351 -0.161097,0.0824 -0.294831,0.19164 -0.401008,0.32711 -0.108011,0.13913 -0.188756,0.29808 -0.241845,0.47749 -0.05309,0.17757 -0.08033,0.36278 -0.08217,0.555 v 0.11524 c 0.0019,0.19222 0.02905,0.37819 0.08217,0.55759 0.05309,0.17758 0.133832,0.33375 0.241845,0.46922 0.108008,0.13913 0.242493,0.2499 0.403593,0.33228 0.161099,0.0824 0.350591,0.12351 0.568441,0.12351 0.150114,0 0.29368,-0.0245 0.43098,-0.0739 0.139131,-0.0494 0.261758,-0.11702 0.367938,-0.20309 0.104346,-0.086 0.189894,-0.18848 0.255799,-0.30747 0.06591,-0.11899 0.102232,-0.24919 0.109553,-0.39016 h -0.313161 c -0.0092,0.10618 -0.03715,0.20232 -0.08475,0.28836 -0.0476,0.086 -0.110183,0.15846 -0.187069,0.21704 -0.07872,0.0623 -0.168031,0.1097 -0.268716,0.14262 -0.09886,0.0311 -0.202568,0.047 -0.310576,0.047 v -5.3e-4 c -0.175744,0 -0.324863,-0.0348 -0.447519,-0.10438 -0.120824,-0.0696 -0.218982,-0.1609 -0.294039,-0.27441 -0.07872,-0.11349 -0.135231,-0.24167 -0.170016,-0.38447 -0.03478,-0.14278 -0.05294,-0.28913 -0.05478,-0.43925 v -0.11524 c 0.0019,-0.14828 0.01998,-0.29387 0.05478,-0.43666 0.03478,-0.1428 0.0913,-0.27172 0.170016,-0.38706 0.07689,-0.11167 0.1758,-0.20277 0.296624,-0.27233 0.120822,-0.0696 0.268436,-0.10387 0.442349,-0.10387 0.117163,0 0.225909,0.0189 0.326597,0.0574 0.102515,0.0385 0.192344,0.0915 0.269232,0.15916 0.07506,0.0696 0.13435,0.15234 0.178284,0.24753 0.04577,0.0934 0.07226,0.19581 0.07958,0.30748 h 0.313161 c -0.0055,-0.15194 -0.03826,-0.29325 -0.0987,-0.42323 -0.06041,-0.12998 -0.141912,-0.24151 -0.24443,-0.33487 -0.104346,-0.0934 -0.226975,-0.16578 -0.367935,-0.21704 -0.139131,-0.0531 -0.291025,-0.0796 -0.455787,-0.0796 z m 3.325379,0 c -0.208696,0 -0.394661,0.0404 -0.557588,0.12093 -0.162931,0.0805 -0.300945,0.18854 -0.414446,0.32401 -0.113501,0.1373 -0.200555,0.29676 -0.260967,0.478 -0.06041,0.18123 -0.09043,0.37224 -0.09043,0.57361 v 0.0879 c 0,0.20321 0.03002,0.39548 0.09043,0.57671 0.06041,0.18124 0.14822,0.33996 0.263552,0.47542 0.11167,0.1373 0.249684,0.24604 0.414443,0.3266 0.164761,0.0787 0.351478,0.11782 0.560173,0.11782 0.206867,0 0.392076,-0.0399 0.555006,-0.12041 0.164759,-0.0805 0.304043,-0.18853 0.417544,-0.32401 0.111673,-0.1373 0.197453,-0.29601 0.257866,-0.47542 0.06041,-0.18123 0.09043,-0.3735 0.09043,-0.57671 v -0.0879 c 0,-0.20321 -0.03002,-0.39548 -0.09043,-0.57671 -0.06041,-0.18123 -0.147466,-0.33943 -0.260967,-0.4749 -0.113501,-0.1373 -0.252267,-0.2453 -0.417028,-0.32401 -0.162928,-0.0805 -0.348893,-0.12093 -0.557588,-0.12093 z m 6.801651,0 c -0.186727,0 -0.360314,0.0383 -0.521414,0.11524 -0.159269,0.0769 -0.298553,0.18337 -0.417547,0.31884 -0.120822,0.13547 -0.216204,0.29443 -0.285768,0.47749 -0.06774,0.18307 -0.101288,0.38089 -0.101288,0.59325 v 0.11834 c 0,0.19954 0.03355,0.38777 0.101288,0.56534 0.06773,0.17575 0.163115,0.33041 0.285768,0.46405 0.120825,0.13181 0.266414,0.23627 0.436666,0.31316 0.170254,0.0769 0.357722,0.11524 0.562758,0.11524 0.247139,0 0.464394,-0.0482 0.651121,-0.14521 0.18673,-0.097 0.336603,-0.22445 0.450104,-0.38189 l -0.208775,-0.15916 c -0.106177,0.13181 -0.233087,0.23223 -0.38137,0.30179 -0.148286,0.0696 -0.314061,0.10438 -0.497129,0.10438 -0.159268,-0.002 -0.304104,-0.0341 -0.43408,-0.0961 -0.129979,-0.0623 -0.241501,-0.1473 -0.334865,-0.25529 -0.09153,-0.10251 -0.163952,-0.22161 -0.21704,-0.35708 -0.05126,-0.13547 -0.08053,-0.28181 -0.08785,-0.43925 v -0.0904 h 2.224154 v -0.20051 c 0,-0.18856 -0.02725,-0.36544 -0.08217,-0.5302 -0.05309,-0.16659 -0.131056,-0.31218 -0.233576,-0.43666 -0.104349,-0.12266 -0.233281,-0.21879 -0.387057,-0.28836 -0.151945,-0.0714 -0.326051,-0.10697 -0.521933,-0.10697 z m 4.133083,0 c -0.26911,-0.002 -0.503775,0.0538 -0.703318,0.16743 -0.197713,0.1135 -0.353888,0.27223 -0.469223,0.47543 l -0.0031,-0.13178 -0.01913,-0.4563 h -0.313158 v 2.97139 h 0.340553 l -0.0052,-1.90272 c 0.03662,-0.13547 0.08885,-0.25307 0.15658,-0.35192 0.06957,-0.10069 0.150551,-0.18369 0.243914,-0.2496 0.09703,-0.0677 0.206288,-0.11719 0.32711,-0.14831 0.122655,-0.0329 0.253611,-0.0496 0.392742,-0.0496 0.08055,0 0.159274,0.005 0.236162,0.0139 0.07689,0.009 0.152834,0.0218 0.227893,0.0383 l 0.04392,-0.31833 c -0.05675,-0.0183 -0.127148,-0.0322 -0.211357,-0.0413 -0.08238,-0.011 -0.163878,-0.0165 -0.244428,-0.0165 z m 5.98878,0 c -0.21785,0 -0.407342,0.0411 -0.568441,0.12351 -0.161097,0.0824 -0.294831,0.19164 -0.401008,0.32711 -0.108011,0.13913 -0.18824,0.29808 -0.241329,0.47749 -0.05309,0.17757 -0.08085,0.36278 -0.08268,0.555 v 0.11524 c 0.0019,0.19222 0.02956,0.37819 0.08268,0.55759 0.05309,0.17758 0.133316,0.33375 0.241329,0.46922 0.108008,0.13913 0.242493,0.2499 0.403593,0.33228 0.161099,0.0824 0.350591,0.12351 0.568441,0.12351 0.150114,0 0.294198,-0.0245 0.431499,-0.0739 0.139128,-0.0494 0.261755,-0.11702 0.367934,-0.20309 0.104349,-0.086 0.189379,-0.18848 0.255281,-0.30747 0.06591,-0.11899 0.102235,-0.24919 0.109556,-0.39016 h -0.312642 c -0.0092,0.10618 -0.03767,0.20232 -0.08527,0.28836 -0.0476,0.086 -0.109665,0.15846 -0.186553,0.21704 -0.07872,0.0623 -0.168547,0.1097 -0.269235,0.14262 -0.09885,0.0311 -0.202565,0.047 -0.310573,0.047 v -5.3e-4 c -0.175744,0 -0.324863,-0.0348 -0.447519,-0.10438 -0.120824,-0.0696 -0.218463,-0.1609 -0.29352,-0.27441 -0.07872,-0.11349 -0.13575,-0.24167 -0.170535,-0.38447 -0.03478,-0.14278 -0.05294,-0.28913 -0.05478,-0.43925 v -0.11524 c 0.0019,-0.14828 0.01998,-0.29387 0.05478,-0.43666 0.03478,-0.1428 0.09181,-0.27172 0.170535,-0.38706 0.07689,-0.11167 0.175281,-0.20277 0.296105,-0.27233 0.120822,-0.0696 0.268436,-0.10387 0.442349,-0.10387 0.117163,0 0.225909,0.0189 0.326597,0.0574 0.102515,0.0385 0.192344,0.0915 0.269232,0.15916 0.07506,0.0696 0.134866,0.15234 0.178802,0.24753 0.04577,0.0934 0.07226,0.19581 0.07958,0.30748 h 0.312642 c -0.0055,-0.15194 -0.03826,-0.29325 -0.0987,-0.42323 -0.06041,-0.12998 -0.141914,-0.24151 -0.24443,-0.33487 -0.104349,-0.0934 -0.226975,-0.16578 -0.367935,-0.21704 -0.139131,-0.0531 -0.291025,-0.0796 -0.455787,-0.0796 z m -4.5036,0.0548 v 0.29404 h 1.052132 v 2.38331 h -1.052132 v 0.29404 h 2.392101 v -0.29404 H 36.8492 v -2.67735 z m -12.419914,0.22841 c 0.161099,0 0.302643,0.0335 0.425296,0.10128 0.124487,0.0677 0.23022,0.15832 0.316262,0.27182 0.08238,0.11168 0.145198,0.24061 0.189135,0.38706 0.04394,0.14645 0.0669,0.2976 0.06873,0.4532 v 0.0879 c -0.0019,0.15744 -0.02477,0.30933 -0.06873,0.45579 -0.04211,0.14645 -0.104175,0.2759 -0.186553,0.38757 -0.08604,0.1135 -0.190505,0.20408 -0.313158,0.27182 -0.122655,0.0677 -0.264715,0.10128 -0.425815,0.10128 -0.162928,0 -0.306496,-0.0336 -0.43098,-0.10128 -0.124486,-0.0677 -0.227679,-0.15756 -0.31006,-0.26924 -0.08604,-0.1135 -0.151399,-0.2437 -0.195336,-0.39015 -0.04211,-0.14646 -0.0638,-0.29835 -0.06563,-0.45579 v -0.0879 c 0.0019,-0.1556 0.02349,-0.30675 0.06563,-0.4532 0.04393,-0.14645 0.109291,-0.27538 0.195336,-0.38706 0.08238,-0.1135 0.18482,-0.20408 0.307475,-0.27182 0.124487,-0.0677 0.267298,-0.10128 0.428398,-0.10128 z m 6.801651,0 c 0.140962,0 0.266364,0.0272 0.376206,0.0822 0.109839,0.0531 0.203198,0.12421 0.280085,0.21393 0.07506,0.0897 0.133594,0.19417 0.1757,0.31316 0.04394,0.119 0.06615,0.23809 0.06615,0.35709 v 0.03 h -1.88102 c 0.01831,-0.14279 0.05463,-0.2745 0.109553,-0.39533 0.05492,-0.12265 0.125833,-0.22862 0.211873,-0.31832 0.08421,-0.0879 0.181851,-0.15676 0.293524,-0.20619 0.11167,-0.0513 0.234296,-0.0765 0.367934,-0.0765 z m -3.434931,0.005 c 0.190388,0 0.35692,0.0522 0.49971,0.15658 0.144624,0.10252 0.250592,0.23775 0.318328,0.40617 v 1.42266 c -0.0714,0.1611 -0.181411,0.28725 -0.329697,0.37879 -0.148283,0.0915 -0.31279,0.13745 -0.494025,0.13745 -0.170254,0 -0.313065,-0.0356 -0.4284,-0.10697 -0.113501,-0.0732 -0.206105,-0.16861 -0.2775,-0.28577 -0.06957,-0.11533 -0.120528,-0.24502 -0.15348,-0.38964 -0.03295,-0.14462 -0.04961,-0.29021 -0.04961,-0.43666 v -0.0579 c 0,-0.14645 0.0154,-0.29204 0.04651,-0.43667 0.03295,-0.14462 0.08519,-0.27557 0.156581,-0.39274 0.07139,-0.11716 0.164753,-0.21202 0.280085,-0.28525 0.115332,-0.0732 0.259416,-0.11007 0.431499,-0.11007 z"
       inkscape:export-xdpi="415"
       inkscape:export-ydpi="415" />
    <path
       id="path7009"
       style="opacity:0.170213;fill:#709aff;fill-opacity:1;stroke:none;stroke-width:1.2403;stroke-linecap:round;stroke-linejoin:round;stroke-opacity:1;paint-order:stroke fill markers"
       d="m 156.4998,85.8867 a 20.860048,20.860048 0 0 0 20.8605,20.8597 V 85.8867 Z"
       inkscape:export-xdpi="415"
       inkscape:export-ydpi="415" />
    <path
       id="path7011"
       style="opacity:0.272727;fill:#709aff;fill-opacity:1;stroke:none;stroke-width:1.10265;stroke-linecap:round;stroke-linejoin:round;stroke-opacity:1;paint-order:stroke fill markers"
       d="m 158.815,85.8867 a 18.544917,18.544917 0 0 0 18.5453,18.5446 V 85.8867 Z"
       inkscape:export-xdpi="415"
       inkscape:export-ydpi="415" />
    <path
       id="path7013"
       style="fill:#709aff;fill-opacity:1;stroke:none;stroke-width:0.964999;stroke-linecap:round;stroke-linejoin:round;stroke-opacity:1;paint-order:stroke fill markers"
       d="m 161.1302,85.8868 a 16.229773,16.229773 0 0 0 16.2301,16.2295 V 85.8868 Z"
       inkscape:export-xdpi="415"
       inkscape:export-ydpi="415" />
    <path
       id="path7015"
       style="fill:#258fff;fill-opacity:1;stroke:none;stroke-width:0.0652031;stroke-linecap:round;stroke-linejoin:round;stroke-miterlimit:4;stroke-dasharray:none"
       d="m 129.2748,126.3085 h -3.1919 v 8.1572 c 0,0.8841 0.7117,1.5957 1.5957,1.5957 h 3.1922 c 0.884,0 1.5957,-0.7116 1.5957,-1.5957 0,-0.884 -0.7117,-1.5958 -1.5957,-1.5958 h -1.596 z"
       inkscape:export-xdpi="415"
       inkscape:export-ydpi="415" />
    <path
       id="path7017"
       style="fill:#25aeff;fill-opacity:1;stroke:none;stroke-width:0.0652031;stroke-linecap:round;stroke-linejoin:round;stroke-miterlimit:4;stroke-dasharray:none"
       d="m 138.0883,96.0618 c -2.351,0 -4.2436,1.8927 -4.2436,4.2437 v 17.5157 h -11.1358 c -2.3508,0 -4.2436,1.8928 -4.2436,4.2437 0,2.3509 1.8928,4.2436 4.2436,4.2436 h 1.1885 2.1855 3.1919 4.5699 3.193 1.0522 c 0.9552,0 1.8341,-0.3128 2.5419,-0.8412 0.109,-0.082 0.2138,-0.1678 0.3143,-0.259 0.5519,-0.5014 0.97,-1.1472 1.1967,-1.8789 0.1236,-0.399 0.1908,-0.8236 0.1908,-1.2645 v -14.1175 h 3.3785 c 1.1853,0 2.1394,-0.9541 2.1394,-2.1394 0,-1.1852 -0.9541,-2.1394 -2.1394,-2.1394 h -3.3785 v -3.3631 c 0,-2.3509 -1.8928,-4.2437 -4.2437,-4.2437 z"
       inkscape:export-xdpi="415"
       inkscape:export-ydpi="415" />
    <rect
       transform="rotate(-90)"
       style="fill:#ffffff;fill-opacity:1;stroke:none;stroke-width:0.0207656;stroke-linecap:round;stroke-linejoin:round"
       id="rect7019"
       width="3.1636422"
       height="1.515142"
       x="-103.29727"
       y="136.65901"
       ry="0.75757098"
       inkscape:export-xdpi="415"
       inkscape:export-ydpi="415" />
    <rect
       ry="0.75757098"
       y="139.65413"
       x="-103.29727"
       height="1.515142"
       width="3.1636422"
       id="rect7021"
       style="fill:#ffffff;fill-opacity:1;stroke:none;stroke-width:0.0207656;stroke-linecap:round;stroke-linejoin:round"
       transform="rotate(-90)"
       inkscape:export-xdpi="415"
       inkscape:export-ydpi="415" />
    <g
       style="fill:#2565ff;fill-opacity:1;stroke-width:0.836561"
       transform="matrix(1.1953713,0,0,1.1953713,1001.0102,-648.7658)"
       id="g7035"
       inkscape:export-xdpi="415"
       inkscape:export-ydpi="415">
      <path
         d="m -723.22525,621.46182 -2.96515,2.61079 1.1999,0.2413 0.11115,0.41481 a 0.78134762,2.4432616 75 0 0 2.56225,0.12236 0.78134762,2.4432616 75 0 0 2.15778,-1.38708 l -0.11128,-0.4153 0.91863,-0.80844 z"
         style="fill:#2565ff;fill-opacity:1;stroke:none;stroke-width:0.152139;stroke-linecap:round;stroke-linejoin:round;stroke-miterlimit:4;stroke-dasharray:none"
         id="path7023" />
      <g
         style="fill:#2565ff;fill-opacity:1;stroke-width:0.836561"
         transform="rotate(15,-726.19035,624.07267)"
         id="g7033">
        <rect
           style="fill:#2565ff;fill-opacity:1;stroke:none;stroke-width:0.209302;stroke-linecap:round;stroke-linejoin:round;stroke-miterlimit:4;stroke-dasharray:none"
           id="rect7025"
           width="0.12664801"
           height="1.6793683"
           x="-862.96796"
           y="414.85596"
           transform="rotate(-15)" />
        <rect
           y="792.07861"
           x="-539.12506"
           height="0.65845394"
           width="0.12664801"
           id="rect7027"
           style="fill:#2565ff;fill-opacity:1;stroke:none;stroke-width:0.131058;stroke-linecap:round;stroke-linejoin:round;stroke-miterlimit:4;stroke-dasharray:none"
           transform="rotate(15)"
           ry="0.063323997" />
        <rect
           transform="matrix(-0.70710678,0.70710678,0.70710678,0.70710678,0,0)"
           style="fill:#2565ff;fill-opacity:1;stroke:none;stroke-width:0.130992;stroke-linecap:round;stroke-linejoin:round;stroke-miterlimit:4;stroke-dasharray:none"
           id="rect7029"
           width="0.12664801"
           height="0.65845394"
           x="955.46948"
           y="-70.826065"
           ry="0.063323997" />
        <rect
           y="416.42926"
           x="862.84125"
           height="0.65845394"
           width="0.12664801"
           id="rect7031"
           style="fill:#2565ff;fill-opacity:1;stroke:none;stroke-width:0.131058;stroke-linecap:round;stroke-linejoin:round;stroke-miterlimit:4;stroke-dasharray:none"
           transform="matrix(-0.96592583,0.25881905,0.25881905,0.96592583,0,0)"
           ry="0.063323997" />
      </g>
    </g>
    <rect
       transform="rotate(-90)"
       style="fill:#000000;fill-opacity:1;stroke:none;stroke-width:0.0207656;stroke-linecap:round;stroke-linejoin:round"
       id="rect7037"
       width="1.4863824"
       height="0.71186316"
       x="-102.45865"
       y="140.24666"
       ry="0.35593158"
       inkscape:export-xdpi="415"
       inkscape:export-ydpi="415" />
    <rect
       ry="0.35593158"
       y="137.25179"
       x="-102.45865"
       height="0.71186316"
       width="1.4863824"
       id="rect7039"
       style="fill:#000000;fill-opacity:1;stroke:none;stroke-width:0.0207656;stroke-linecap:round;stroke-linejoin:round"
       transform="rotate(-90)"
       inkscape:export-xdpi="415"
       inkscape:export-ydpi="415" />
    <path
       id="path7041"
       style="fill:#258fff;fill-opacity:1;stroke:none;stroke-width:0.0652031;stroke-linecap:round;stroke-linejoin:round;stroke-miterlimit:4;stroke-dasharray:none"
       d="m 137.0377,126.3085 h -3.193 v 8.1572 c 0,0.055 0,0.11 0.011,0.1638 0.011,0.1075 0.032,0.2116 0.063,0.3116 0.1239,0.4003 0.4009,0.7325 0.7628,0.9286 0.045,0.025 0.092,0.047 0.1389,0.067 v 0 c 0.048,0.02 0.097,0.038 0.1469,0.053 0.15,0.047 0.3096,0.072 0.4754,0.072 h 3.1915 c 0.8842,0 1.5959,-0.7116 1.5959,-1.5957 0,-0.8841 -0.7117,-1.5958 -1.5959,-1.5958 h -1.5957 z"
       inkscape:export-xdpi="415"
       inkscape:export-ydpi="415" />
    <path
       id="path7043"
       style="fill:#25ff80;fill-opacity:1;stroke:none;stroke-width:0.0380128;stroke-linecap:round;stroke-linejoin:round;stroke-miterlimit:4;stroke-dasharray:none"
       d="m 161.1138,130.3756 h 1.8608 v 4.7555 c 0,0.5154 -0.4149,0.9303 -0.9303,0.9303 h -1.861 c -0.5153,0 -0.9303,-0.4149 -0.9303,-0.9303 0,-0.5154 0.415,-0.9303 0.9303,-0.9303 h 0.9305 z"
       inkscape:export-xdpi="415"
       inkscape:export-ydpi="415" />
    <path
       id="path7045"
       style="fill:#25ffa2;fill-opacity:1;stroke:none;stroke-width:0.0380128;stroke-linecap:round;stroke-linejoin:round;stroke-miterlimit:4;stroke-dasharray:none"
       d="m 155.9755,112.742 c 1.3707,0 2.474,1.1034 2.474,2.474 v 10.2115 h 6.4921 c 1.3705,0 2.474,1.1035 2.474,2.4741 0,1.3705 -1.1035,2.474 -2.474,2.474 h -0.6929 -1.2741 -1.8608 -2.6643 -1.8614 -0.6135 c -0.5568,0 -1.0692,-0.1824 -1.4819,-0.4905 -0.064,-0.048 -0.1246,-0.098 -0.1832,-0.1509 -0.3218,-0.2924 -0.5655,-0.6689 -0.6977,-1.0954 -0.072,-0.2327 -0.1112,-0.4802 -0.1112,-0.7372 v -8.2304 h -1.9696 c -0.6911,0 -1.2473,-0.5563 -1.2473,-1.2473 0,-0.6909 0.5562,-1.2472 1.2473,-1.2472 h 1.9696 v -1.9607 c 0,-1.3705 1.1035,-2.474 2.474,-2.474 z"
       inkscape:export-xdpi="415"
       inkscape:export-ydpi="415" />
    <rect
       transform="matrix(0,-1,-1,0,0,0)"
       style="fill:#ffffff;fill-opacity:1;stroke:none;stroke-width:0.0121062;stroke-linecap:round;stroke-linejoin:round"
       id="rect7047"
       width="1.8443757"
       height="0.88331449"
       x="-116.96024"
       y="-156.80867"
       ry="0.44165725"
       inkscape:export-xdpi="415"
       inkscape:export-ydpi="415" />
    <rect
       ry="0.44165725"
       y="-155.06258"
       x="-116.96024"
       height="0.88331449"
       width="1.8443757"
       id="rect7049"
       style="fill:#ffffff;fill-opacity:1;stroke:none;stroke-width:0.0121062;stroke-linecap:round;stroke-linejoin:round"
       transform="matrix(0,-1,-1,0,0,0)"
       inkscape:export-xdpi="415"
       inkscape:export-ydpi="415" />
    <g
       style="fill:#2565ff;fill-opacity:1;stroke-width:0.836561"
       transform="matrix(-0.696891,0,0,0.696891,-347.1004,-321.486)"
       id="g7063"
       inkscape:export-xdpi="415"
       inkscape:export-ydpi="415">
      <path
         d="m -723.22525,621.46182 -2.96515,2.61079 1.1999,0.2413 0.11115,0.41481 a 0.78134762,2.4432616 75 0 0 2.56225,0.12236 0.78134762,2.4432616 75 0 0 2.15778,-1.38708 l -0.11128,-0.4153 0.91863,-0.80844 z"
         style="fill:#2565ff;fill-opacity:1;stroke:none;stroke-width:0.152139;stroke-linecap:round;stroke-linejoin:round;stroke-miterlimit:4;stroke-dasharray:none"
         id="path7051" />
      <g
         style="fill:#2565ff;fill-opacity:1;stroke-width:0.836561"
         transform="rotate(15,-726.19035,624.07267)"
         id="g7061">
        <rect
           style="fill:#2565ff;fill-opacity:1;stroke:none;stroke-width:0.209302;stroke-linecap:round;stroke-linejoin:round;stroke-miterlimit:4;stroke-dasharray:none"
           id="rect7053"
           width="0.12664801"
           height="1.6793683"
           x="-862.96796"
           y="414.85596"
           transform="rotate(-15)" />
        <rect
           y="792.07861"
           x="-539.12506"
           height="0.65845394"
           width="0.12664801"
           id="rect7055"
           style="fill:#2565ff;fill-opacity:1;stroke:none;stroke-width:0.131058;stroke-linecap:round;stroke-linejoin:round;stroke-miterlimit:4;stroke-dasharray:none"
           transform="rotate(15)"
           ry="0.063323997" />
        <rect
           transform="matrix(-0.70710678,0.70710678,0.70710678,0.70710678,0,0)"
           style="fill:#2565ff;fill-opacity:1;stroke:none;stroke-width:0.130992;stroke-linecap:round;stroke-linejoin:round;stroke-miterlimit:4;stroke-dasharray:none"
           id="rect7057"
           width="0.12664801"
           height="0.65845394"
           x="955.46948"
           y="-70.826065"
           ry="0.063323997" />
        <rect
           y="416.42926"
           x="862.84125"
           height="0.65845394"
           width="0.12664801"
           id="rect7059"
           style="fill:#2565ff;fill-opacity:1;stroke:none;stroke-width:0.131058;stroke-linecap:round;stroke-linejoin:round;stroke-miterlimit:4;stroke-dasharray:none"
           transform="matrix(-0.96592583,0.25881905,0.25881905,0.96592583,0,0)"
           ry="0.063323997" />
      </g>
    </g>
    <rect
       transform="matrix(0,-1,-1,0,0,0)"
       style="fill:#000000;fill-opacity:1;stroke:none;stroke-width:0.0121062;stroke-linecap:round;stroke-linejoin:round"
       id="rect7065"
       width="0.86654788"
       height="0.41500998"
       x="-116.47134"
       y="-154.71712"
       ry="0.20750499"
       inkscape:export-xdpi="415"
       inkscape:export-ydpi="415" />
    <rect
       ry="0.20750499"
       y="-156.46297"
       x="-116.47134"
       height="0.41500998"
       width="0.86654788"
       id="rect7067"
       style="fill:#000000;fill-opacity:1;stroke:none;stroke-width:0.0121062;stroke-linecap:round;stroke-linejoin:round"
       transform="matrix(0,-1,-1,0,0,0)"
       inkscape:export-xdpi="415"
       inkscape:export-ydpi="415" />
    <path
       id="path7069"
       style="fill:#25ff80;fill-opacity:1;stroke:none;stroke-width:0.0380128;stroke-linecap:round;stroke-linejoin:round;stroke-miterlimit:4;stroke-dasharray:none"
       d="m 156.5881,130.3756 h 1.8614 v 4.7555 c 0,0.032 0,0.064 -0.01,0.096 -0.01,0.063 -0.019,0.1234 -0.037,0.1817 -0.072,0.2333 -0.2337,0.427 -0.4447,0.5414 -0.026,0.015 -0.053,0.027 -0.081,0.039 v 0 c -0.028,0.012 -0.057,0.022 -0.086,0.031 -0.088,0.027 -0.1805,0.042 -0.2772,0.042 h -1.8606 c -0.5155,0 -0.9304,-0.4149 -0.9304,-0.9303 0,-0.5154 0.4149,-0.9303 0.9304,-0.9303 h 0.9303 z"
       inkscape:export-xdpi="415"
       inkscape:export-ydpi="415" />
  </g>
  <g
     inkscape:groupmode="layer"
     id="layer2"
     inkscape:label="textlayer"
     style="display:inline">
    <text
       xml:space="preserve"
       style="font-weight:800;font-size:12.6989px;line-height:1.25;font-family:Montserrat;-inkscape-font-specification:'Montserrat Ultra-Bold';letter-spacing:0px;word-spacing:0px;fill:#ffffff;stroke-width:0.264583"
       x="29.460037"
       y="82.719147"
       id="text6953-5"
       inkscape:export-xdpi="415"
       inkscape:export-ydpi="415"><tspan
         sodipodi:role="line"
         id="tspan6951-8"
         x="29.460037"
         y="82.719147"
         style="font-style:normal;font-variant:normal;font-weight:normal;font-stretch:normal;font-family:Poppins;-inkscape-font-specification:Poppins;fill:#ffffff;stroke-width:0.264583">Inkscape</tspan></text>
    <text
       xml:space="preserve"
       style="font-weight:800;font-size:9.55101px;line-height:1.25;font-family:Montserrat;-inkscape-font-specification:'Montserrat Ultra-Bold';letter-spacing:0px;word-spacing:0px;fill:#ffffff;stroke-width:0.264583"
       x="29.673904"
       y="112.41226"
       id="text6957-1"
       inkscape:export-xdpi="415"
       inkscape:export-ydpi="415"><tspan
         sodipodi:role="line"
         id="tspan6955-6"
         x="29.673904"
         y="112.41226"
         style="font-style:normal;font-variant:normal;font-weight:500;font-stretch:normal;font-family:Poppins;-inkscape-font-specification:'Poppins Medium';fill:#ffffff;stroke-width:0.264583">Draw Freely.</tspan></text>
    <text
       xml:space="preserve"
       style="font-weight:800;font-size:5.725px;line-height:1.25;font-family:Montserrat;-inkscape-font-specification:'Montserrat Ultra-Bold';letter-spacing:0px;word-spacing:0px;fill:#ffffff;stroke-width:0.264583"
       x="30.071609"
       y="131.48111"
       id="text6961-4"
       inkscape:export-xdpi="415"
       inkscape:export-ydpi="415"><tspan
         sodipodi:role="line"
         id="tspan6959-0"
         x="30.071609"
         y="131.48111"
         style="font-style:normal;font-variant:normal;font-weight:300;font-stretch:normal;font-family:Poppins;-inkscape-font-specification:'Poppins Light';fill:#ffffff;stroke-width:0.264583">inkscape.org</tspan></text>
    <text
       xml:space="preserve"
       style="font-weight:800;font-size:11.9427px;line-height:1.25;font-family:Montserrat;-inkscape-font-specification:'Montserrat Ultra-Bold';letter-spacing:0px;word-spacing:0px;fill:#ffffff;stroke-width:0.264583"
       x="29.476395"
       y="95.400421"
       id="text6977-9"
       inkscape:export-xdpi="415"
       inkscape:export-ydpi="415"><tspan
         sodipodi:role="line"
         id="tspan6975-0"
         x="29.476395"
         y="95.400421"
         style="font-style:normal;font-variant:normal;font-weight:normal;font-stretch:normal;font-family:Poppins;-inkscape-font-specification:Poppins;fill:#ffffff;stroke-width:0.264583">Version 1.1</tspan></text>
  </g>
</svg>
