<?xml version="1.0" encoding="UTF-8" standalone="no"?>
<svg
   xmlns:dc="http://purl.org/dc/elements/1.1/"
   xmlns:cc="http://creativecommons.org/ns#"
   xmlns:rdf="http://www.w3.org/1999/02/22-rdf-syntax-ns#"
   xmlns:svg="http://www.w3.org/2000/svg"
   xmlns="http://www.w3.org/2000/svg"
   xmlns:xlink="http://www.w3.org/1999/xlink"
   xmlns:sodipodi="http://sodipodi.sourceforge.net/DTD/sodipodi-0.dtd"
   xmlns:inkscape="http://www.inkscape.org/namespaces/inkscape"
   width="750"
   height="625"
   viewBox="0 0 750 625"
   version="1.1"
   id="svg8"
   inkscape:version="1.0.2 (e86c870, 2021-01-15)"
   sodipodi:docname="infinity.svg">
  <defs
     id="defs2">
    <rect
       x="-68.100273"
       y="289.61325"
       width="398.87305"
       height="111.50485"
       id="rect2190" />
    <linearGradient
       inkscape:collect="always"
       xlink:href="#linearGradient31776"
       id="linearGradient31839"
       gradientUnits="userSpaceOnUse"
       x1="-523.11536"
       y1="1165.1675"
       x2="-658.08813"
       y2="1270.4495" />
    <linearGradient
       inkscape:collect="always"
       id="linearGradient31776">
      <stop
         style="stop-color:#2b1100;stop-opacity:1;"
         offset="0"
         id="stop31778" />
      <stop
         style="stop-color:#2b1100;stop-opacity:0;"
         offset="1"
         id="stop31780" />
    </linearGradient>
    <linearGradient
       inkscape:collect="always"
       xlink:href="#linearGradient31776"
       id="linearGradient31841"
       gradientUnits="userSpaceOnUse"
       gradientTransform="matrix(1.2023573,0,0,1.2023573,1454.5478,-235.3736)"
       x1="-1644.8215"
       y1="1164.8293"
       x2="-1530.4651"
       y2="1073.8451" />
    <meshgradient
       inkscape:collect="always"
       id="meshgradient10428"
       gradientUnits="userSpaceOnUse"
       x="-848.34259"
       y="1037.7599">
      <meshrow
         id="meshrow10790">
        <meshpatch
           id="meshpatch10792">
          <stop
             path="c 138.092,-95.2632  454.031,-32.1666  709.656,-32.1666"
             style="stop-color:#ff8e00;stop-opacity:1"
             id="stop10794" />
          <stop
             path="c 0,105.041  0,210.082  0,315.123"
             style="stop-color:#00ff00;stop-opacity:1"
             id="stop10796" />
          <stop
             path="c -255.625,0  -511.25,0  -766.875,0"
             style="stop-color:#ffff00;stop-opacity:1"
             id="stop10798" />
          <stop
             path="c 0,-105.041  -45.4666,-186.576  57.219,-282.956"
             style="stop-color:#ff00cc;stop-opacity:1"
             id="stop10800" />
        </meshpatch>
      </meshrow>
    </meshgradient>
    <meshgradient
       inkscape:collect="always"
       id="meshgradient10872"
       gradientUnits="userSpaceOnUse"
       x="-848.34259"
       y="1037.7599">
      <meshrow
         id="meshrow10884">
        <meshpatch
           id="meshpatch10882">
          <stop
             path="c 138.092,-95.2632  454.031,-32.1666  709.656,-32.1666"
             style="stop-color:#ff6600;stop-opacity:1"
             id="stop10874" />
          <stop
             path="c 0,105.041  0,210.082  0,315.123"
             style="stop-color:#00ffff;stop-opacity:1"
             id="stop10876" />
          <stop
             path="c -255.625,0  -511.25,0  -766.875,0"
             style="stop-color:#ffe6d5;stop-opacity:1"
             id="stop10878" />
          <stop
             path="c 0,-105.041  -45.4666,-186.576  57.219,-282.956"
             style="stop-color:#ff00cc;stop-opacity:1"
             id="stop10880" />
        </meshpatch>
      </meshrow>
    </meshgradient>
  </defs>
  <sodipodi:namedview
     id="base"
     pagecolor="#ffffff"
     bordercolor="#666666"
     borderopacity="1.0"
     inkscape:pageopacity="0.0"
     inkscape:pageshadow="2"
     inkscape:zoom="0.5"
     inkscape:cx="222.4306"
     inkscape:cy="427.23353"
     inkscape:document-units="px"
     inkscape:current-layer="layer2"
     inkscape:document-rotation="0"
     showgrid="false"
     fit-margin-top="0"
     fit-margin-left="0"
     fit-margin-right="0"
     fit-margin-bottom="0"
     inkscape:window-width="1600"
     inkscape:window-height="837"
     inkscape:window-x="-8"
     inkscape:window-y="-8"
     inkscape:window-maximized="1"
     inkscape:snap-bbox="true"
     inkscape:bbox-paths="true"
     inkscape:bbox-nodes="true"
     inkscape:snap-bbox-edge-midpoints="true"
     inkscape:snap-bbox-midpoints="true"
     inkscape:object-paths="true"
     inkscape:snap-intersection-paths="true"
     inkscape:snap-smooth-nodes="true"
     inkscape:snap-midpoints="true"
     inkscape:snap-object-midpoints="true"
     inkscape:snap-center="true"
     inkscape:snap-text-baseline="true"
     inkscape:snap-global="false"
     units="px" />
  <metadata
     id="metadata5">
    <rdf:RDF>
      <cc:Work
         rdf:about="">
        <dc:format>image/svg+xml</dc:format>
        <dc:type
           rdf:resource="http://purl.org/dc/dcmitype/StillImage" />
        <dc:title />
      </cc:Work>
    </rdf:RDF>
  </metadata>
  <g
     inkscape:groupmode="layer"
     id="layer2"
     inkscape:label="editable texts with font link"
     style="display:none">
    <text
       xml:space="preserve"
       style="font-style:normal;font-variant:normal;font-weight:normal;font-stretch:normal;font-size:21.3333px;line-height:1.25;font-family:Estedad;-inkscape-font-specification:'Estedad, Normal';font-variant-ligatures:normal;font-variant-caps:normal;font-variant-numeric:normal;font-variant-east-asian:normal;letter-spacing:0px;word-spacing:0px;fill:#141414;fill-opacity:1;stroke:none;stroke-width:0.264583"
       x="108.80763"
       y="820.17401"
       id="text1529"><tspan
         sodipodi:role="line"
         id="tspan1527"
         x="108.80763"
         y="820.17401"
         style="font-style:normal;font-variant:normal;font-weight:normal;font-stretch:normal;font-size:21.3333px;font-family:Estedad;-inkscape-font-specification:'Estedad, Normal';font-variant-ligatures:normal;font-variant-caps:normal;font-variant-numeric:normal;font-variant-east-asian:normal;fill:#141414;fill-opacity:1;stroke-width:0.264583">Inkscape</tspan></text>
    <text
       xml:space="preserve"
       style="font-style:normal;font-variant:normal;font-weight:normal;font-stretch:normal;font-size:21.3333px;line-height:1.25;font-family:Estedad;-inkscape-font-specification:'Estedad, Normal';font-variant-ligatures:normal;font-variant-caps:normal;font-variant-numeric:normal;font-variant-east-asian:normal;letter-spacing:0px;word-spacing:0px;fill:#141414;fill-opacity:1;stroke:none;stroke-width:0.264583"
       x="142.4341"
       y="845.4649"
       id="text1533"><tspan
         sodipodi:role="line"
         id="tspan1531"
         x="142.4341"
         y="845.4649"
         style="font-style:normal;font-variant:normal;font-weight:normal;font-stretch:normal;font-size:21.3333px;font-family:Estedad;-inkscape-font-specification:'Estedad, Normal';font-variant-ligatures:normal;font-variant-caps:normal;font-variant-numeric:normal;font-variant-east-asian:normal;fill:#141414;fill-opacity:1;stroke-width:0.264583">1.1</tspan></text>
    <text
       xml:space="preserve"
       style="font-style:normal;font-variant:normal;font-weight:normal;font-stretch:normal;font-size:53.3333px;line-height:1.25;font-family:Estedad;-inkscape-font-specification:'Estedad, Normal';font-variant-ligatures:normal;font-variant-caps:normal;font-variant-numeric:normal;font-variant-east-asian:normal;letter-spacing:0px;word-spacing:0px;fill:#2b1100;fill-opacity:1;stroke:none;stroke-width:0.264581"
       x="9.9124708"
       y="754.32031"
       id="text1537"><tspan
         sodipodi:role="line"
         id="tspan1535"
         x="9.9124708"
         y="754.32031"
         style="font-style:normal;font-variant:normal;font-weight:200;font-stretch:normal;font-size:53.3333px;font-family:Estedad;-inkscape-font-specification:'Estedad Ultra-Light';font-variant-ligatures:normal;font-variant-caps:normal;font-variant-numeric:normal;font-variant-east-asian:normal;fill:#2b1100;fill-opacity:1;stroke-width:0.264581">Draw Freely.</tspan></text>
    <text
       xml:space="preserve"
       style="font-style:normal;font-variant:normal;font-weight:normal;font-stretch:normal;font-size:20px;line-height:1.25;font-family:Estedad;-inkscape-font-specification:'Estedad, Normal';font-variant-ligatures:normal;font-variant-caps:normal;font-variant-numeric:normal;font-variant-east-asian:normal;letter-spacing:0px;word-spacing:0px;fill:#2b1100;fill-opacity:1;stroke:none;stroke-width:0.264582"
       x="69.690727"
       y="781.6601"
       id="text1541"><tspan
         sodipodi:role="line"
         id="tspan1539"
         x="69.690727"
         y="781.6601"
         style="font-style:normal;font-variant:normal;font-weight:normal;font-stretch:normal;font-size:20px;font-family:Estedad;-inkscape-font-specification:Estedad;font-variant-ligatures:normal;font-variant-caps:normal;font-variant-numeric:normal;font-variant-east-asian:normal;fill:#2b1100;fill-opacity:1;stroke-width:0.264582">inkscape.org</tspan></text>
    <text
       xml:space="preserve"
       style="font-style:normal;font-variant:normal;font-weight:normal;font-stretch:normal;font-size:21.3333px;line-height:1.25;font-family:Estedad;-inkscape-font-specification:'Estedad, Normal';font-variant-ligatures:normal;font-variant-caps:normal;font-variant-numeric:normal;font-variant-east-asian:normal;letter-spacing:0px;word-spacing:0px;fill:#141414;fill-opacity:1;stroke:none;stroke-width:0.264583"
       x="16.880249"
       y="893.39185"
       id="text1553"><tspan
         sodipodi:role="line"
         id="tspan1551"
         x="16.880249"
         y="893.39185"
         style="font-style:normal;font-variant:normal;font-weight:normal;font-stretch:normal;font-size:21.3333px;font-family:Estedad;-inkscape-font-specification:'Estedad, Normal';font-variant-ligatures:normal;font-variant-caps:normal;font-variant-numeric:normal;font-variant-east-asian:normal;fill:#141414;fill-opacity:1;stroke-width:0.264583">font name is &quot;Estedad&quot; and licenced under OFL 1.1</tspan><tspan
         sodipodi:role="line"
         x="16.880249"
         y="920.05847"
         style="font-style:normal;font-variant:normal;font-weight:normal;font-stretch:normal;font-size:21.3333px;font-family:Estedad;-inkscape-font-specification:'Estedad, Normal';font-variant-ligatures:normal;font-variant-caps:normal;font-variant-numeric:normal;font-variant-east-asian:normal;fill:#141414;fill-opacity:1;stroke-width:0.264583"
         id="tspan1555">you can download it from: https://github.com/aminabedi68/Estedad/releases/download/5.0/Estedad-v5.0.zip</tspan></text>
    <text
       xml:space="preserve"
       id="text2188"
       style="font-style:normal;font-weight:normal;font-size:10.5833px;line-height:1.25;font-family:sans-serif;letter-spacing:0px;word-spacing:0px;white-space:pre;shape-inside:url(#rect2190);fill:#000000;fill-opacity:1;stroke:none;" />
  </g>
  <g
     inkscape:label="Layer 1"
     inkscape:groupmode="layer"
     id="layer1">
    <rect
       inkscape:export-ydpi="96"
       inkscape:export-xdpi="96"
       inkscape:export-filename="C:\Users\AAR\Desktop\text31754.png"
       style="fill:#2b1100;fill-opacity:1;fill-rule:evenodd;stroke:none;stroke-width:0.264583"
       id="rect31744"
       width="750"
       height="624.99994"
       x="-1.0742064e-13"
       y="-1.0742064e-13" />
    <g
       inkscape:export-ydpi="96"
       inkscape:export-xdpi="96"
       inkscape:export-filename="C:\Users\AAR\Desktop\text31754.png"
       transform="matrix(0.62900289,0,0,0.62900289,703.41815,-494.12757)"
       id="g31784"
       style="stroke-width:0.480827">
      <path
         inkscape:connector-curvature="0"
         style="color:#000000;font-style:normal;font-variant:normal;font-weight:normal;font-stretch:normal;font-size:medium;line-height:normal;font-family:Sans;-inkscape-font-specification:Sans;text-indent:0;text-align:start;text-decoration:none;text-decoration-line:none;letter-spacing:normal;word-spacing:normal;text-transform:none;writing-mode:lr-tb;direction:ltr;baseline-shift:baseline;text-anchor:start;display:inline;overflow:visible;visibility:visible;fill:url(#meshgradient10872);fill-opacity:1;stroke:none;stroke-width:32.7758;marker:none;enable-background:accumulate"
         d="m -738.84375,1005.5938 c -2.19332,0.01 -4.39089,0.048 -6.59375,0.125 -35.4794,1.2499 -71.41405,12.375 -100.84375,35.5 -37.28106,29.2943 -59.28125,74.524 -59.28125,121.9374 0,47.4135 22.00023,92.6431 59.28125,121.9376 29.42976,23.125 65.36443,34.25 100.84375,35.5 35.24569,1.2418 69.1729,-7.0707 99.625,-20.5 49.35111,-21.7642 88.37731,-55.6399 123.6875,-89.5 35.31444,33.8652 74.36001,67.7325 123.71875,89.5 30.4521,13.4293 64.37931,21.7418 99.625,20.5 35.47932,-1.25 71.41399,-12.375 100.84375,-35.5 37.28102,-29.2945 59.25,-74.5241 59.25,-121.9376 0,-47.4133 -21.96894,-92.6431 -59.25,-121.9374 -29.4297,-23.125 -65.36435,-34.2501 -100.84375,-35.5 -35.24576,-1.2419 -69.17302,7.0706 -99.625,20.5 -49.35687,21.7665 -88.40535,55.6359 -123.71875,89.5 -35.30916,-33.8588 -74.33825,-67.7368 -123.6875,-89.5 -26.64548,-11.7508 -55.94743,-19.5899 -86.46875,-20.5313 -2.18009,-0.067 -4.36918,-0.099 -6.5625,-0.094 z m 0.125,68.1874 c 21.57116,-0.02 44.07773,5.4066 65.40625,14.8126 36.41613,16.0596 69.25409,43.5678 102.03125,74.5624 -32.77802,30.9959 -65.61404,58.5024 -102.03125,74.5626 -22.7503,10.0328 -46.85424,15.5554 -69.71875,14.75 -22.63088,-0.7973 -44.86581,-8.1683 -61.15625,-20.9688 -20.10138,-15.7951 -33.1875,-42.7789 -33.1875,-68.3438 0,-25.5644 13.08616,-52.5486 33.1875,-68.3437 16.2905,-12.8005 38.52545,-20.1716 61.15625,-20.9687 1.42903,-0.05 2.87442,-0.061 4.3125,-0.063 z m 433.21875,0 c 1.43754,-9e-4 2.88347,0.012 4.3125,0.063 22.6308,0.7971 44.8345,8.1682 61.125,20.9687 20.10134,15.7951 33.21875,42.7793 33.21875,68.3437 0,25.5649 -13.11737,52.5487 -33.21875,68.3438 -16.29044,12.8005 -38.49412,20.1714 -61.125,20.9688 -22.86451,0.8054 -46.96845,-4.7172 -69.71875,-14.75 -36.41831,-16.0607 -69.2835,-43.5654 -102.0625,-74.5626 32.77814,-30.9958 65.64527,-58.5024 102.0625,-74.5624 19.90662,-8.7789 40.85228,-14.0976 61.09375,-14.75 1.44582,-0.047 2.87496,-0.062 4.3125,-0.063 z"
         id="path31746"
         sodipodi:nodetypes="ccssssccssssssscsscccscssssscccscssssscscs" />
      <path
         inkscape:connector-curvature="0"
         style="color:#000000;font-style:normal;font-variant:normal;font-weight:normal;font-stretch:normal;font-size:medium;line-height:normal;font-family:Sans;-inkscape-font-specification:Sans;text-indent:0;text-align:start;text-decoration:none;text-decoration-line:none;letter-spacing:normal;word-spacing:normal;text-transform:none;writing-mode:lr-tb;direction:ltr;baseline-shift:baseline;text-anchor:start;display:inline;overflow:visible;visibility:visible;mix-blend-mode:overlay;fill:url(#meshgradient10428);fill-opacity:1;stroke:none;stroke-width:32.7758;marker:none;enable-background:accumulate"
         d="m -738.84375,1005.5938 c -2.19332,0.01 -4.39089,0.048 -6.59375,0.125 -35.4794,1.2499 -71.41405,12.375 -100.84375,35.5 -37.28106,29.2943 -59.28125,74.524 -59.28125,121.9374 0,47.4135 22.00023,92.6431 59.28125,121.9376 29.42976,23.125 65.36443,34.25 100.84375,35.5 35.24569,1.2418 69.1729,-7.0707 99.625,-20.5 49.35111,-21.7642 88.37731,-55.6399 123.6875,-89.5 35.31444,33.8652 74.36001,67.7325 123.71875,89.5 30.4521,13.4293 64.37931,21.7418 99.625,20.5 35.47932,-1.25 71.41399,-12.375 100.84375,-35.5 37.28102,-29.2945 59.25,-74.5241 59.25,-121.9376 0,-47.4133 -21.96894,-92.6431 -59.25,-121.9374 -29.4297,-23.125 -65.36435,-34.2501 -100.84375,-35.5 -35.24576,-1.2419 -69.17302,7.0706 -99.625,20.5 -49.35687,21.7665 -88.40535,55.6359 -123.71875,89.5 -35.30916,-33.8588 -74.33825,-67.7368 -123.6875,-89.5 -26.64548,-11.7508 -55.94743,-19.5899 -86.46875,-20.5313 -2.18009,-0.067 -4.36918,-0.099 -6.5625,-0.094 z m 0.125,68.1874 c 21.57116,-0.02 44.07773,5.4066 65.40625,14.8126 36.41613,16.0596 69.25409,43.5678 102.03125,74.5624 -32.77802,30.9959 -65.61404,58.5024 -102.03125,74.5626 -22.7503,10.0328 -46.85424,15.5554 -69.71875,14.75 -22.63088,-0.7973 -44.86581,-8.1683 -61.15625,-20.9688 -20.10138,-15.7951 -33.1875,-42.7789 -33.1875,-68.3438 0,-25.5644 13.08616,-52.5486 33.1875,-68.3437 16.2905,-12.8005 38.52545,-20.1716 61.15625,-20.9687 1.42903,-0.05 2.87442,-0.061 4.3125,-0.063 z m 433.21875,0 c 1.43754,-9e-4 2.88347,0.012 4.3125,0.063 22.6308,0.7971 44.8345,8.1682 61.125,20.9687 20.10134,15.7951 33.21875,42.7793 33.21875,68.3437 0,25.5649 -13.11737,52.5487 -33.21875,68.3438 -16.29044,12.8005 -38.49412,20.1714 -61.125,20.9688 -22.86451,0.8054 -46.96845,-4.7172 -69.71875,-14.75 -36.41831,-16.0607 -69.2835,-43.5654 -102.0625,-74.5626 32.77814,-30.9958 65.64527,-58.5024 102.0625,-74.5624 19.90662,-8.7789 40.85228,-14.0976 61.09375,-14.75 1.44582,-0.047 2.87496,-0.062 4.3125,-0.063 z"
         id="path10802"
         sodipodi:nodetypes="ccssssccssssssscsscccscssssscccscssssscscs" />
      <path
         style="color:#000000;font-style:normal;font-variant:normal;font-weight:normal;font-stretch:normal;font-size:medium;line-height:normal;font-family:Sans;-inkscape-font-specification:Sans;text-indent:0;text-align:start;text-decoration:none;text-decoration-line:none;letter-spacing:normal;word-spacing:normal;text-transform:none;writing-mode:lr-tb;direction:ltr;baseline-shift:baseline;text-anchor:start;display:inline;overflow:visible;visibility:visible;fill:url(#linearGradient31839);fill-opacity:1;stroke:none;stroke-width:27.2595;marker:none;enable-background:accumulate"
         d="m -645.82,1300.112 c 49.3123,-21.7468 87.87339,-53.1555 124.6544,-88.4201 -8.4547,-8.1048 -16.68968,-16.2171 -24.79021,-24.1636 l -26.31749,-25.3776 c -34.17057,32.3144 -64.6268,59.526 -101.0506,75.589 z"
         id="path31750"
         inkscape:connector-curvature="0"
         sodipodi:nodetypes="cccccc" />
      <path
         sodipodi:nodetypes="cccccc"
         inkscape:connector-curvature="0"
         id="path31752"
         d="m -398.3975,1026.1997 c -49.3188,21.7498 -88.17629,54.828 -123.95649,89.1343 8.22386,7.8856 16.234,15.7744 24.11325,23.5038 l 25.59893,24.6465 c 33.23648,-31.4303 65.32601,-58.8499 101.74821,-74.9123 z"
         style="color:#000000;font-style:normal;font-variant:normal;font-weight:normal;font-stretch:normal;font-size:medium;line-height:normal;font-family:Sans;-inkscape-font-specification:Sans;text-indent:0;text-align:start;text-decoration:none;text-decoration-line:none;letter-spacing:normal;word-spacing:normal;text-transform:none;writing-mode:lr-tb;direction:ltr;baseline-shift:baseline;text-anchor:start;display:inline;overflow:visible;visibility:visible;fill:url(#linearGradient31841);fill-opacity:1;stroke:none;stroke-width:27.2595;marker:none;enable-background:accumulate" />
    </g>
    <path
       style="fill:#ffd8a3;fill-opacity:1;stroke:none;stroke-width:0.264583px;stroke-linecap:butt;stroke-linejoin:miter;stroke-opacity:1"
       d="M 374.99999,452.28423 0,528.03298 v 96.967 h 749.99999 v -96.967 z"
       id="path1268"
       sodipodi:nodetypes="cccccc"
       inkscape:export-xdpi="96"
       inkscape:export-ydpi="96" />
    <g
       id="g10894"
       transform="matrix(0.23477975,0,0,0.23477975,328.81489,464.86889)"
       style="stroke-width:0.386802"
       inkscape:export-xdpi="96"
       inkscape:export-ydpi="96">
      <path
         d="M 163.15,27.83 28.81,165.3 C -16.58,221.51 59.7,214.97 92.4,231.16 104.13,243.15 47.44,252 59.17,264 c 11.73,11.99 70.93,23.1 82.68,35.09 11.73,11.99 -24.01,24.71 -12.28,36.7 11.73,11.99 38.86,0.63 43.94,28.31 3.62,19.78 48.89,8.5 71.03,-7.7 11.73,-12 -22.44,-10.87 -10.71,-22.86 29.17,-29.83 56.33,-10.84 66.31,-40.73 4.93,-14.77 -42.94,-22.77 -31.19,-34.76 33.75,-19.71 150.4,-32.54 95.05,-87.89 L 224.75,27.83 c -17.03,-16.35 -45.45,-16.53 -61.6,0 z m 154.31,264.98 c 0,6.82 50.25,11.29 50.25,-1.61 -7.16,-20.72 -44.31,-19.32 -50.25,1.61 z M 91.1,329.05 c 11.9,10.29 30.28,-2.56 35.79,-16.92 -11.53,-15.32 -54.69,0.55 -35.79,16.92 z m 220.06,-22.23 c -15.34,13.76 1.72,27.72 16.84,18.83 3.37,-3.42 -0.09,-15.41 -16.84,-18.83 z"
         id="path10888"
         inkscape:connector-curvature="0"
         style="fill:#2b1100;fill-opacity:1;stroke-width:0.386802" />
      <path
         d="m 131,238.6 c 3.59,2.23 57.89,13.26 71.16,15.46 4.6,0.97 1.34,5.71 -5,8.91 -14.3,3.8 -83.66,-24.37 -66.16,-24.37 z"
         id="path10890"
         style="fill:#ffffff;stroke-width:0.386802"
         inkscape:connector-curvature="0" />
      <path
         d="m 216.63,37.47 53.15,53.98 c 5.04,5.15 4.97,15.13 2.15,18 L 245.54,88.34 240.35,119.6 218.3,107.96 182.99,130.27 171.3,83.24 152.33,116.06 h -29 c -11.82,0 -13.21,-15 -2.47,-25.74 18.76,-20.25 40.29,-40.89 51.99,-52.85 11.76,-12.02 32.25,-11.68 43.78,0 z"
         id="path10892"
         style="fill:#ffffff;stroke-width:0.386802"
         inkscape:connector-curvature="0" />
    </g>
    <g
       aria-label="Inkscape"
       id="text1241"
       style="font-style:normal;font-variant:normal;font-weight:normal;font-stretch:normal;font-size:5.64444px;line-height:1.25;font-family:Estedad;-inkscape-font-specification:'Estedad, Normal';font-variant-ligatures:normal;font-variant-caps:normal;font-variant-numeric:normal;font-variant-east-asian:normal;letter-spacing:0px;word-spacing:0px;fill:#141414;fill-opacity:1;stroke:none;stroke-width:0.0700042"
       transform="scale(3.7795276)"
       inkscape:export-xdpi="96"
       inkscape:export-ydpi="96">
      <path
         d="m 88.687257,153.01901 h -0.507118 v -3.84748 h 0.507118 z"
         style="font-style:normal;font-variant:normal;font-weight:normal;font-stretch:normal;font-size:5.64444px;font-family:Estedad;-inkscape-font-specification:'Estedad, Normal';font-variant-ligatures:normal;font-variant-caps:normal;font-variant-numeric:normal;font-variant-east-asian:normal;fill:#141414;fill-opacity:1;stroke-width:0.0700042"
         id="path1146" />
      <path
         d="m 90.225146,153.01901 h -0.504361 v -2.87734 h 0.482313 l 0.02205,0.79099 z m 1.904447,-1.87413 v 1.87413 h -0.507117 v -1.79696 q 0,-0.2949 -0.15434,-0.45475 -0.151584,-0.16261 -0.424436,-0.16261 -0.322461,0 -0.537434,0.22876 -0.212218,0.22875 -0.28112,0.65319 l -0.09646,-0.23703 q 0.05788,-0.52641 0.341753,-0.82958 0.283875,-0.30592 0.711067,-0.30592 0.427191,0 0.686262,0.28388 0.261827,0.28112 0.261827,0.74689 z"
         style="font-style:normal;font-variant:normal;font-weight:normal;font-stretch:normal;font-size:5.64444px;font-family:Estedad;-inkscape-font-specification:'Estedad, Normal';font-variant-ligatures:normal;font-variant-caps:normal;font-variant-numeric:normal;font-variant-east-asian:normal;fill:#141414;fill-opacity:1;stroke-width:0.0700042"
         id="path1148" />
      <path
         d="m 94.695499,150.14167 h 0.642165 l -1.129991,1.35875 1.245746,1.51859 H 94.81401 l -1.041796,-1.31189 h -0.330729 v 1.31189 h -0.501606 v -4.01284 h 0.501606 v 2.34266 h 0.330729 z"
         style="font-style:normal;font-variant:normal;font-weight:normal;font-stretch:normal;font-size:5.64444px;font-family:Estedad;-inkscape-font-specification:'Estedad, Normal';font-variant-ligatures:normal;font-variant-caps:normal;font-variant-numeric:normal;font-variant-east-asian:normal;fill:#141414;fill-opacity:1;stroke-width:0.0700042"
         id="path1150" />
      <path
         d="m 96.908626,150.11411 q 0.518142,0 0.802018,0.24529 0.286631,0.24529 0.270095,0.67524 l -0.421679,-0.011 q 0,-0.23977 -0.170877,-0.37207 -0.170877,-0.13504 -0.476801,-0.13504 -0.283876,0 -0.44924,0.11851 -0.165365,0.11575 -0.165365,0.3197 0,0.16537 0.14056,0.25907 0.143316,0.0909 0.515386,0.17915 0.553971,0.12678 0.799262,0.32522 0.248046,0.19843 0.248046,0.50711 0,0.37207 -0.305924,0.59807 -0.303168,0.22324 -0.80753,0.22324 -0.531922,0 -0.832334,-0.24804 -0.300412,-0.25081 -0.28112,-0.67524 l 0.418924,0.0138 q 0,0.23978 0.184657,0.37482 0.187413,0.1323 0.523654,0.1323 0.300412,0 0.468532,-0.113 0.168121,-0.113 0.168121,-0.31144 0,-0.16261 -0.148828,-0.25631 -0.148828,-0.0965 -0.529166,-0.18466 -0.545703,-0.12402 -0.782725,-0.32246 -0.237023,-0.19844 -0.237023,-0.51814 0,-0.38034 0.286632,-0.60083 0.289388,-0.22324 0.782725,-0.22324 z"
         style="font-style:normal;font-variant:normal;font-weight:normal;font-stretch:normal;font-size:5.64444px;font-family:Estedad;-inkscape-font-specification:'Estedad, Normal';font-variant-ligatures:normal;font-variant-caps:normal;font-variant-numeric:normal;font-variant-east-asian:normal;fill:#141414;fill-opacity:1;stroke-width:0.0700042"
         id="path1152" />
      <path
         d="m 99.843845,150.11411 q 0.507115,0 0.824065,0.25356 0.31971,0.2508 0.40239,0.69453 l -0.48231,0.0386 q -0.0662,-0.27836 -0.26183,-0.42719 -0.19568,-0.15158 -0.482315,-0.15158 -0.380338,0 -0.600824,0.26183 -0.21773,0.26182 -0.21773,0.79099 0,0.53468 0.21773,0.79926 0.220486,0.26458 0.600824,0.26458 0.286635,0 0.482315,-0.14882 0.19568,-0.15159 0.26183,-0.42995 l 0.48231,0.0331 q -0.0827,0.44924 -0.40239,0.7028 -0.31695,0.2508 -0.824065,0.2508 -0.628385,0 -0.978406,-0.38309 -0.347265,-0.3831 -0.347265,-1.08314 0,-0.70004 0.347265,-1.08314 0.350021,-0.38309 0.978406,-0.38309 z"
         style="font-style:normal;font-variant:normal;font-weight:normal;font-stretch:normal;font-size:5.64444px;font-family:Estedad;-inkscape-font-specification:'Estedad, Normal';font-variant-ligatures:normal;font-variant-caps:normal;font-variant-numeric:normal;font-variant-east-asian:normal;fill:#141414;fill-opacity:1;stroke-width:0.0700042"
         id="path1154" />
      <path
         d="m 102.81214,150.11411 q 0.52641,0 0.82958,0.23978 0.30592,0.23978 0.30592,0.66697 v 1.30087 q 0,0.19016 0.0717,0.27836 0.0717,0.0882 0.25907,0.0882 l 0.003,0.33073 q -0.3886,0.0358 -0.6146,-0.13229 -0.226,-0.17088 -0.226,-0.56224 v -1.30362 q 0,-0.2508 -0.17363,-0.37758 -0.17363,-0.12678 -0.47129,-0.12678 -0.30041,0 -0.4768,0.12678 -0.17363,0.12402 -0.17363,0.37758 h -0.44097 q -0.0138,-0.43271 0.28111,-0.66973 0.29766,-0.23702 0.82683,-0.23702 z m 0.84611,2.12218 q -0.0551,0.14607 -0.14056,0.27836 -0.0854,0.12954 -0.22324,0.25632 -0.1378,0.12678 -0.35002,0.20395 -0.21222,0.0744 -0.47129,0.0744 -0.39687,0 -0.62012,-0.20671 -0.22324,-0.2067 -0.22324,-0.57326 0,-0.452 0.31695,-0.69729 0.3197,-0.24529 0.83233,-0.24529 0.45476,0 0.87368,0.12127 l -0.15985,0.28112 q -0.24805,-0.0662 -0.64768,-0.0662 -0.35278,0 -0.55673,0.14332 -0.20119,0.14332 -0.20119,0.39687 0,0.452 0.54019,0.452 0.50712,0 0.84887,-0.47404 z"
         style="font-style:normal;font-variant:normal;font-weight:normal;font-stretch:normal;font-size:5.64444px;font-family:Estedad;-inkscape-font-specification:'Estedad, Normal';font-variant-ligatures:normal;font-variant-caps:normal;font-variant-numeric:normal;font-variant-east-asian:normal;fill:#141414;fill-opacity:1;stroke-width:0.0700042"
         id="path1156" />
      <path
         d="m 104.75793,150.14167 h 0.50436 v 4.14238 h -0.50436 z m 2.4529,1.43867 q 0,0.65319 -0.2949,1.06109 -0.2949,0.40514 -0.80202,0.40514 -0.63389,0 -1.03077,-0.64492 l 0.15985,-0.15985 q 0.1323,0.19292 0.31971,0.2949 0.18741,0.10197 0.39136,0.10197 0.33349,0 0.54019,-0.28387 0.20946,-0.28388 0.20946,-0.77446 0,-0.49334 -0.20946,-0.77446 -0.2067,-0.28111 -0.54019,-0.28111 -0.20395,0 -0.39136,0.10197 -0.18741,0.0992 -0.31971,0.29214 l -0.15985,-0.15985 q 0.39688,-0.64492 1.03077,-0.64492 0.50712,0 0.80202,0.4079 0.2949,0.40514 0.2949,1.05833 z"
         style="font-style:normal;font-variant:normal;font-weight:normal;font-stretch:normal;font-size:5.64444px;font-family:Estedad;-inkscape-font-specification:'Estedad, Normal';font-variant-ligatures:normal;font-variant-caps:normal;font-variant-numeric:normal;font-variant-east-asian:normal;fill:#141414;fill-opacity:1;stroke-width:0.0700042"
         id="path1158" />
      <path
         d="m 108.15065,151.71815 q 0.0165,0.42167 0.226,0.66972 0.21222,0.24805 0.60083,0.24805 0.26733,0 0.45199,-0.12127 0.18741,-0.12402 0.26459,-0.33348 l 0.48231,0.0992 q -0.13505,0.36932 -0.44649,0.57051 -0.30868,0.19844 -0.76894,0.19844 -0.63114,0 -0.97565,-0.39136 -0.34175,-0.39137 -0.34175,-1.07763 0,-0.6835 0.34451,-1.07487 0.34726,-0.39136 0.95635,-0.39136 0.29766,0 0.52917,0.0827 0.23151,0.0799 0.38309,0.22324 0.15159,0.14056 0.24529,0.34451 0.0937,0.20395 0.12954,0.44098 0.0358,0.23426 0.0221,0.51263 z m 0.006,-0.34727 h 1.58474 q -0.0579,-0.84887 -0.79375,-0.84887 -0.34451,0 -0.55673,0.22875 -0.20946,0.226 -0.23426,0.62012 z"
         style="font-style:normal;font-variant:normal;font-weight:normal;font-stretch:normal;font-size:5.64444px;font-family:Estedad;-inkscape-font-specification:'Estedad, Normal';font-variant-ligatures:normal;font-variant-caps:normal;font-variant-numeric:normal;font-variant-east-asian:normal;fill:#141414;fill-opacity:1;stroke-width:0.0700042"
         id="path1160" />
    </g>
    <g
       aria-label="1.1"
       id="text1247"
       style="font-style:normal;font-variant:normal;font-weight:normal;font-stretch:normal;font-size:5.64444px;line-height:1.25;font-family:Estedad;-inkscape-font-specification:'Estedad, Normal';font-variant-ligatures:normal;font-variant-caps:normal;font-variant-numeric:normal;font-variant-east-asian:normal;letter-spacing:0px;word-spacing:0px;fill:#141414;fill-opacity:1;stroke:none;stroke-width:0.0700042"
       transform="scale(3.7795276)"
       inkscape:export-xdpi="96"
       inkscape:export-ydpi="96">
      <path
         d="m 97.599555,156.72274 q -0.212218,0.30041 -1.000455,0.30041 v -0.40514 q 0.292144,0 0.468532,-0.0276 0.176389,-0.0303 0.303169,-0.11025 0.126779,-0.0827 0.176388,-0.22875 0.05237,-0.14607 0.05237,-0.38309 h 0.501605 v 3.84748 h -0.501605 z"
         style="font-style:normal;font-variant:normal;font-weight:normal;font-stretch:normal;font-size:5.64444px;font-family:Estedad;-inkscape-font-specification:'Estedad, Normal';font-variant-ligatures:normal;font-variant-caps:normal;font-variant-numeric:normal;font-variant-east-asian:normal;fill:#141414;fill-opacity:1;stroke-width:0.0700042"
         id="path1163" />
      <path
         d="m 99.032713,159.39889 q 0,-0.14607 0.09922,-0.24254 0.09922,-0.0965 0.248047,-0.0965 0.148828,0 0.248047,0.0992 0.101974,0.0965 0.101974,0.23978 0,0.14607 -0.101974,0.24804 -0.09922,0.0992 -0.248047,0.0992 -0.148828,0 -0.248047,-0.0992 -0.09922,-0.10197 -0.09922,-0.24804 z"
         style="font-style:normal;font-variant:normal;font-weight:normal;font-stretch:normal;font-size:5.64444px;font-family:Estedad;-inkscape-font-specification:'Estedad, Normal';font-variant-ligatures:normal;font-variant-caps:normal;font-variant-numeric:normal;font-variant-east-asian:normal;fill:#141414;fill-opacity:1;stroke-width:0.0700042"
         id="path1165" />
      <path
         d="m 101.33679,156.72274 q -0.21222,0.30041 -1.00045,0.30041 v -0.40514 q 0.29214,0 0.46853,-0.0276 0.17639,-0.0303 0.30317,-0.11025 0.12678,-0.0827 0.17639,-0.22875 0.0524,-0.14607 0.0524,-0.38309 h 0.50161 v 3.84748 h -0.50161 z"
         style="font-style:normal;font-variant:normal;font-weight:normal;font-stretch:normal;font-size:5.64444px;font-family:Estedad;-inkscape-font-specification:'Estedad, Normal';font-variant-ligatures:normal;font-variant-caps:normal;font-variant-numeric:normal;font-variant-east-asian:normal;fill:#141414;fill-opacity:1;stroke-width:0.0700042"
         id="path1167" />
    </g>
    <g
       aria-label="Draw Freely."
       id="text1251"
       style="font-style:normal;font-variant:normal;font-weight:normal;font-stretch:normal;font-size:14.0792px;line-height:1.25;font-family:Estedad;-inkscape-font-specification:'Estedad, Normal';font-variant-ligatures:normal;font-variant-caps:normal;font-variant-numeric:normal;font-variant-east-asian:normal;letter-spacing:0px;word-spacing:0px;fill:#ffd8a3;fill-opacity:1;stroke:none;stroke-width:0.0700037"
       transform="scale(3.7795276)"
       inkscape:export-xdpi="96"
       inkscape:export-ydpi="96">
      <path
         d="m 69.606368,103.41756 q 0,1.36805 -0.453724,2.40611 -0.453724,1.0312 -1.395546,1.63616 -0.934946,0.60497 -2.254871,0.60497 h -2.660474 v -9.30135 h 2.660474 q 0.996818,0 1.780523,0.350605 0.783706,0.343731 1.285552,0.969325 0.508721,0.61871 0.769957,1.47116 0.268109,0.84558 0.268109,1.86302 z m -0.70121,0 q 0,-0.88682 -0.206238,-1.61553 -0.206238,-0.72871 -0.618715,-1.27868 -0.405602,-0.549969 -1.065564,-0.852451 -0.659963,-0.302483 -1.512414,-0.302483 h -1.973013 v 8.098294 h 1.973013 q 0.852451,0 1.512414,-0.30249 0.659962,-0.30935 1.065564,-0.85245 0.412477,-0.54997 0.618715,-1.27868 0.206238,-0.7287 0.206238,-1.61553 z"
         style="font-style:normal;font-variant:normal;font-weight:200;font-stretch:normal;font-size:14.0792px;font-family:Estedad;-inkscape-font-specification:'Estedad Ultra-Light';font-variant-ligatures:normal;font-variant-caps:normal;font-variant-numeric:normal;font-variant-east-asian:normal;fill:#ffd8a3;fill-opacity:1;stroke-width:0.0700037"
         id="path1090" />
      <path
         d="m 71.764996,101.13519 h 0.673712 l 0.02062,2.92171 v 4.0079 h -0.694336 z m 3.884154,0.63246 q -0.192489,-0.0825 -0.556843,-0.0825 -0.591217,0 -1.065565,0.25436 -0.474348,0.25436 -0.79058,0.70121 -0.309357,0.44685 -0.501846,0.98994 -0.192489,0.53622 -0.274984,1.17556 l -0.274985,-0.29561 q 0.06875,-0.54309 0.213113,-1.03119 0.151241,-0.4881 0.398727,-0.93494 0.254361,-0.44685 0.584342,-0.76996 0.329981,-0.32311 0.79058,-0.5156 0.467474,-0.19249 1.017442,-0.19249 0.26811,0 0.556844,0.0687 z"
         style="font-style:normal;font-variant:normal;font-weight:200;font-stretch:normal;font-size:14.0792px;font-family:Estedad;-inkscape-font-specification:'Estedad Ultra-Light';font-variant-ligatures:normal;font-variant-caps:normal;font-variant-numeric:normal;font-variant-east-asian:normal;fill:#ffd8a3;fill-opacity:1;stroke-width:0.0700037"
         id="path1092" />
      <path
         d="m 79.450809,101.07332 q 1.14806,0 1.856145,0.53622 0.708084,0.52934 0.708084,1.51929 v 3.36168 q 0,0.5431 0.206239,0.80433 0.213112,0.25436 0.742457,0.25436 l 0.0069,0.5156 q -0.797455,0.0344 -1.22368,-0.35061 -0.426226,-0.39185 -0.426226,-1.20306 v -3.3823 q 0,-0.73559 -0.522471,-1.10682 -0.52247,-0.3781 -1.361172,-0.3781 -0.838703,0 -1.368047,0.3781 -0.522471,0.37123 -0.522471,1.10682 h -0.639338 q -0.0069,-0.98995 0.694335,-1.51929 0.70121,-0.53622 1.84927,-0.53622 z m 2.289245,5.19033 q -0.09624,0.21999 -0.233737,0.43997 -0.137492,0.21999 -0.398727,0.49498 -0.254361,0.26811 -0.563718,0.46747 -0.309357,0.19936 -0.776831,0.33685 -0.467473,0.1375 -1.003693,0.1375 -0.976194,0 -1.512414,-0.4881 -0.536219,-0.4881 -0.536219,-1.36805 0,-1.08619 0.728708,-1.65678 0.735583,-0.57059 2.000511,-0.57059 1.258054,0 2.213625,0.26811 l -0.213113,0.4606 q -0.756207,-0.20624 -1.945515,-0.20624 -1.010567,0 -1.574285,0.4331 -0.556844,0.42623 -0.556844,1.19618 0,1.36117 1.601784,1.36117 1.533038,0 2.461111,-1.45054 z"
         style="font-style:normal;font-variant:normal;font-weight:200;font-stretch:normal;font-size:14.0792px;font-family:Estedad;-inkscape-font-specification:'Estedad Ultra-Light';font-variant-ligatures:normal;font-variant-caps:normal;font-variant-numeric:normal;font-variant-east-asian:normal;fill:#ffd8a3;fill-opacity:1;stroke-width:0.0700037"
         id="path1094" />
      <path
         d="m 83.692442,101.13519 h 0.659963 l 1.787398,6.1459 1.856145,-6.01528 h 0.694335 l 1.856145,6.01528 1.794273,-6.1459 h 0.639339 l -1.993637,6.92961 h -0.776831 l -1.869894,-6.02904 -1.863019,6.02904 h -0.776831 z"
         style="font-style:normal;font-variant:normal;font-weight:200;font-stretch:normal;font-size:14.0792px;font-family:Estedad;-inkscape-font-specification:'Estedad Ultra-Light';font-variant-ligatures:normal;font-variant-caps:normal;font-variant-numeric:normal;font-variant-east-asian:normal;fill:#ffd8a3;fill-opacity:1;stroke-width:0.0700037"
         id="path1096" />
      <path
         d="m 98.445355,108.0648 h -0.687461 v -9.30135 h 5.314076 v 0.604966 h -4.626615 v 4.090394 h 4.276005 v 0.58434 h -4.276005 z"
         style="font-style:normal;font-variant:normal;font-weight:200;font-stretch:normal;font-size:14.0792px;font-family:Estedad;-inkscape-font-specification:'Estedad Ultra-Light';font-variant-ligatures:normal;font-variant-caps:normal;font-variant-numeric:normal;font-variant-east-asian:normal;fill:#ffd8a3;fill-opacity:1;stroke-width:0.0700037"
         id="path1098" />
      <path
         d="m 104.6875,101.13519 h 0.67371 l 0.0206,2.92171 v 4.0079 h -0.69434 z m 3.88415,0.63246 q -0.19248,-0.0825 -0.55684,-0.0825 -0.59122,0 -1.06556,0.25436 -0.47435,0.25436 -0.79058,0.70121 -0.30936,0.44685 -0.50185,0.98994 -0.19249,0.53622 -0.27498,1.17556 l -0.27499,-0.29561 q 0.0688,-0.54309 0.21311,-1.03119 0.15125,-0.4881 0.39873,-0.93494 0.25436,-0.44685 0.58434,-0.76996 0.32998,-0.32311 0.79058,-0.5156 0.46748,-0.19249 1.01745,-0.19249 0.26811,0 0.55684,0.0687 z"
         style="font-style:normal;font-variant:normal;font-weight:200;font-stretch:normal;font-size:14.0792px;font-family:Estedad;-inkscape-font-specification:'Estedad Ultra-Light';font-variant-ligatures:normal;font-variant-caps:normal;font-variant-numeric:normal;font-variant-east-asian:normal;fill:#ffd8a3;fill-opacity:1;stroke-width:0.0700037"
         id="path1100" />
      <path
         d="m 110.18031,104.73749 q 0.0137,1.27867 0.64622,2.04863 0.63246,0.76996 1.80802,0.76996 0.81808,0 1.37492,-0.37811 0.56372,-0.38498 0.80433,-1.03806 l 0.65309,0.17874 q -0.32998,0.87307 -1.05869,1.34742 -0.72184,0.47435 -1.78053,0.47435 -1.47804,0 -2.30299,-0.93495 -0.81808,-0.93495 -0.81808,-2.60548 0,-1.66365 0.81808,-2.59172 0.82495,-0.93495 2.24112,-0.93495 0.83183,0 1.44367,0.27498 0.61184,0.27499 0.96932,0.77683 0.35748,0.50185 0.5156,1.15494 0.15811,0.64621 0.13749,1.45742 z m 0.0137,-0.52935 h 4.73661 q -0.0413,-0.57747 -0.18562,-1.01744 -0.13749,-0.44685 -0.4056,-0.80433 -0.26811,-0.35748 -0.71496,-0.54309 -0.44685,-0.19249 -1.05869,-0.19249 -1.05181,0 -1.6774,0.70121 -0.62559,0.69433 -0.69434,1.85614 z"
         style="font-style:normal;font-variant:normal;font-weight:200;font-stretch:normal;font-size:14.0792px;font-family:Estedad;-inkscape-font-specification:'Estedad Ultra-Light';font-variant-ligatures:normal;font-variant-caps:normal;font-variant-numeric:normal;font-variant-east-asian:normal;fill:#ffd8a3;fill-opacity:1;stroke-width:0.0700037"
         id="path1102" />
      <path
         d="m 117.48115,104.73749 q 0.0138,1.27867 0.64621,2.04863 0.63247,0.76996 1.80802,0.76996 0.81808,0 1.37493,-0.37811 0.56371,-0.38498 0.80432,-1.03806 l 0.65309,0.17874 q -0.32998,0.87307 -1.05869,1.34742 -0.72183,0.47435 -1.78052,0.47435 -1.47804,0 -2.303,-0.93495 -0.81807,-0.93495 -0.81807,-2.60548 0,-1.66365 0.81807,-2.59172 0.82496,-0.93495 2.24113,-0.93495 0.83182,0 1.44367,0.27498 0.61184,0.27499 0.96932,0.77683 0.35747,0.50185 0.51559,1.15494 0.15812,0.64621 0.13749,1.45742 z m 0.0138,-0.52935 h 4.7366 q -0.0412,-0.57747 -0.18561,-1.01744 -0.13749,-0.44685 -0.4056,-0.80433 -0.26811,-0.35748 -0.71496,-0.54309 -0.44685,-0.19249 -1.05869,-0.19249 -1.05182,0 -1.67741,0.70121 -0.62559,0.69433 -0.69433,1.85614 z"
         style="font-style:normal;font-variant:normal;font-weight:200;font-stretch:normal;font-size:14.0792px;font-family:Estedad;-inkscape-font-specification:'Estedad Ultra-Light';font-variant-ligatures:normal;font-variant-caps:normal;font-variant-numeric:normal;font-variant-east-asian:normal;fill:#ffd8a3;fill-opacity:1;stroke-width:0.0700037"
         id="path1104" />
      <path
         d="m 125.3457,108.0648 h -0.69434 v -9.727576 h 0.69434 z"
         style="font-style:normal;font-variant:normal;font-weight:200;font-stretch:normal;font-size:14.0792px;font-family:Estedad;-inkscape-font-specification:'Estedad Ultra-Light';font-variant-ligatures:normal;font-variant-caps:normal;font-variant-numeric:normal;font-variant-east-asian:normal;fill:#ffd8a3;fill-opacity:1;stroke-width:0.0700037"
         id="path1106" />
      <path
         d="m 132.09657,101.13519 h 0.72183 l -3.82915,10.19505 h -0.85933 l 1.25805,-3.00421 -2.79109,-7.19084 h 0.72871 l 2.41986,6.31089 z"
         style="font-style:normal;font-variant:normal;font-weight:200;font-stretch:normal;font-size:14.0792px;font-family:Estedad;-inkscape-font-specification:'Estedad Ultra-Light';font-variant-ligatures:normal;font-variant-caps:normal;font-variant-numeric:normal;font-variant-east-asian:normal;fill:#ffd8a3;fill-opacity:1;stroke-width:0.0700037"
         id="path1108" />
      <path
         d="m 134.20707,107.44608 q 0,-0.28873 0.19249,-0.48122 0.19937,-0.19936 0.50185,-0.19936 0.30248,0 0.49497,0.19936 0.19936,0.19249 0.19936,0.48122 0,0.29561 -0.19936,0.49497 -0.19249,0.19937 -0.49497,0.19937 -0.30248,0 -0.50185,-0.19937 -0.19249,-0.19936 -0.19249,-0.49497 z"
         style="font-style:normal;font-variant:normal;font-weight:200;font-stretch:normal;font-size:14.0792px;font-family:Estedad;-inkscape-font-specification:'Estedad Ultra-Light';font-variant-ligatures:normal;font-variant-caps:normal;font-variant-numeric:normal;font-variant-east-asian:normal;fill:#ffd8a3;fill-opacity:1;stroke-width:0.0700037"
         id="path1110" />
    </g>
    <g
       aria-label="www.inkscape.org"
       id="text1278"
       style="font-style:normal;font-variant:normal;font-weight:normal;font-stretch:normal;font-size:5.29167px;line-height:1.25;font-family:Estedad;-inkscape-font-specification:'Estedad, Normal';font-variant-ligatures:normal;font-variant-caps:normal;font-variant-numeric:normal;font-variant-east-asian:normal;letter-spacing:0px;word-spacing:0px;fill:#ffd8a3;fill-opacity:1;stroke:none;stroke-width:0.070004"
       transform="matrix(3.7795276,0,0,3.7795276,-26.123076,0)"
       inkscape:export-xdpi="96"
       inkscape:export-ydpi="96">
      <path
         d="m 91.188229,111.72556 q 0,-0.13694 0.09302,-0.22738 0.09302,-0.0904 0.232545,-0.0904 0.139526,0 0.232544,0.093 0.0956,0.0904 0.0956,0.22479 0,0.13694 -0.0956,0.23254 -0.09302,0.093 -0.232544,0.093 -0.139527,0 -0.232545,-0.093 -0.09302,-0.0956 -0.09302,-0.23254 z m 0.09043,0.88108 h 0.475423 v 2.69751 h -0.475423 z"
         style="font-style:normal;font-variant:normal;font-weight:normal;font-stretch:normal;font-size:5.29167px;font-family:Estedad;-inkscape-font-specification:Estedad;font-variant-ligatures:normal;font-variant-caps:normal;font-variant-numeric:normal;font-variant-east-asian:normal;fill:#ffd8a3;fill-opacity:1;stroke-width:0.070004"
         id="path1121" />
      <path
         d="m 93.030495,115.30415 h -0.47284 v -2.69751 h 0.452169 l 0.02067,0.74156 z m 1.785421,-1.757 v 1.757 h -0.475423 v -1.68465 q 0,-0.27647 -0.144694,-0.42633 -0.14211,-0.15245 -0.397909,-0.15245 -0.302307,0 -0.503845,0.21446 -0.198955,0.21446 -0.26355,0.61237 l -0.09043,-0.22221 q 0.05426,-0.49351 0.320394,-0.77773 0.266134,-0.28681 0.666626,-0.28681 0.400493,0 0.643372,0.26614 0.245463,0.26355 0.245463,0.70021 z"
         style="font-style:normal;font-variant:normal;font-weight:normal;font-stretch:normal;font-size:5.29167px;font-family:Estedad;-inkscape-font-specification:Estedad;font-variant-ligatures:normal;font-variant-caps:normal;font-variant-numeric:normal;font-variant-east-asian:normal;fill:#ffd8a3;fill-opacity:1;stroke-width:0.070004"
         id="path1123" />
      <path
         d="m 97.221455,112.60664 h 0.60203 l -1.059367,1.27383 1.167888,1.42368 h -0.599447 l -0.976685,-1.2299 h -0.310059 v 1.2299 h -0.470256 v -3.76204 h 0.470256 v 2.19625 h 0.310059 z"
         style="font-style:normal;font-variant:normal;font-weight:normal;font-stretch:normal;font-size:5.29167px;font-family:Estedad;-inkscape-font-specification:Estedad;font-variant-ligatures:normal;font-variant-caps:normal;font-variant-numeric:normal;font-variant-east-asian:normal;fill:#ffd8a3;fill-opacity:1;stroke-width:0.070004"
         id="path1125" />
      <path
         d="m 99.296266,112.5808 q 0.485759,0 0.751894,0.22996 0.26872,0.22996 0.25321,0.63304 l -0.395322,-0.0103 q 0,-0.2248 -0.160197,-0.34882 -0.160197,-0.12661 -0.447001,-0.12661 -0.266134,0 -0.421163,0.11111 -0.15503,0.10852 -0.15503,0.29972 0,0.15503 0.131775,0.24288 0.134359,0.0853 0.483175,0.16795 0.519349,0.11885 0.749313,0.30489 0.23254,0.18603 0.23254,0.47542 0,0.34882 -0.2868,0.56069 -0.284225,0.20929 -0.757065,0.20929 -0.498677,0 -0.780314,-0.23254 -0.281637,-0.23513 -0.26355,-0.63304 l 0.392741,0.0129 q 0,0.22479 0.173116,0.3514 0.1757,0.12402 0.490927,0.12402 0.281636,0 0.43925,-0.10593 0.157613,-0.10594 0.157613,-0.29198 0,-0.15244 -0.139527,-0.24029 -0.139526,-0.0904 -0.496094,-0.17312 -0.511597,-0.11627 -0.733806,-0.3023 -0.222208,-0.18604 -0.222208,-0.48576 0,-0.35657 0.268717,-0.56328 0.271302,-0.20929 0.733806,-0.20929 z"
         style="font-style:normal;font-variant:normal;font-weight:normal;font-stretch:normal;font-size:5.29167px;font-family:Estedad;-inkscape-font-specification:Estedad;font-variant-ligatures:normal;font-variant-caps:normal;font-variant-numeric:normal;font-variant-east-asian:normal;fill:#ffd8a3;fill-opacity:1;stroke-width:0.070004"
         id="path1127" />
      <path
         d="m 102.04804,112.5808 q 0.47542,0 0.77256,0.23772 0.29972,0.23512 0.37724,0.65112 l -0.45217,0.0362 q -0.062,-0.26096 -0.24546,-0.40049 -0.18346,-0.14211 -0.45217,-0.14211 -0.35657,0 -0.56328,0.24546 -0.20412,0.24547 -0.20412,0.74156 0,0.50126 0.20412,0.74931 0.20671,0.24805 0.56328,0.24805 0.26871,0 0.45217,-0.13953 0.18345,-0.14211 0.24546,-0.40308 l 0.45217,0.031 q -0.0775,0.42116 -0.37724,0.65887 -0.29714,0.23513 -0.77256,0.23513 -0.58911,0 -0.91726,-0.35915 -0.32556,-0.35915 -0.32556,-1.01544 0,-0.65629 0.32556,-1.01544 0.32815,-0.35916 0.91726,-0.35916 z"
         style="font-style:normal;font-variant:normal;font-weight:normal;font-stretch:normal;font-size:5.29167px;font-family:Estedad;-inkscape-font-specification:Estedad;font-variant-ligatures:normal;font-variant-caps:normal;font-variant-numeric:normal;font-variant-east-asian:normal;fill:#ffd8a3;fill-opacity:1;stroke-width:0.070004"
         id="path1129" />
      <path
         d="m 104.83081,112.5808 q 0.49351,0 0.77774,0.2248 0.2868,0.22479 0.2868,0.62528 v 1.21957 q 0,0.17828 0.0672,0.26096 0.0672,0.0827 0.24288,0.0827 l 0.003,0.31006 q -0.36432,0.0336 -0.57619,-0.12402 -0.21187,-0.1602 -0.21187,-0.5271 v -1.22215 q 0,-0.23513 -0.16278,-0.35398 -0.16279,-0.11886 -0.44184,-0.11886 -0.28164,0 -0.447,0.11886 -0.16278,0.11627 -0.16278,0.35398 h -0.41341 q -0.0129,-0.40566 0.26355,-0.62787 0.27905,-0.22221 0.77514,-0.22221 z m 0.79324,1.98955 q -0.0517,0.13694 -0.13178,0.26096 -0.0801,0.12144 -0.20929,0.2403 -0.12919,0.11886 -0.32814,0.1912 -0.19896,0.0698 -0.44184,0.0698 -0.37207,0 -0.58136,-0.19379 -0.20929,-0.19379 -0.20929,-0.53744 0,-0.42374 0.29714,-0.6537 0.29973,-0.22996 0.78032,-0.22996 0.42633,0 0.81907,0.11368 l -0.14986,0.26355 q -0.23255,-0.062 -0.6072,-0.062 -0.33073,0 -0.52193,0.13436 -0.18862,0.13436 -0.18862,0.37207 0,0.42375 0.50643,0.42375 0.47542,0 0.79582,-0.44442 z"
         style="font-style:normal;font-variant:normal;font-weight:normal;font-stretch:normal;font-size:5.29167px;font-family:Estedad;-inkscape-font-specification:Estedad;font-variant-ligatures:normal;font-variant-caps:normal;font-variant-numeric:normal;font-variant-east-asian:normal;fill:#ffd8a3;fill-opacity:1;stroke-width:0.070004"
         id="path1131" />
      <path
         d="m 106.65499,112.60664 h 0.47284 v 3.88349 h -0.47284 z m 2.29961,1.34876 q 0,0.61236 -0.27647,0.99477 -0.27647,0.37982 -0.75189,0.37982 -0.59428,0 -0.96635,-0.60461 l 0.14986,-0.14986 q 0.12402,0.18086 0.29972,0.27646 0.1757,0.0956 0.3669,0.0956 0.31265,0 0.50643,-0.26614 0.19637,-0.26613 0.19637,-0.72605 0,-0.46251 -0.19637,-0.72606 -0.19378,-0.26355 -0.50643,-0.26355 -0.1912,0 -0.3669,0.0956 -0.1757,0.093 -0.29972,0.27389 l -0.14986,-0.14986 q 0.37207,-0.60462 0.96635,-0.60462 0.47542,0 0.75189,0.38241 0.27647,0.37982 0.27647,0.99219 z"
         style="font-style:normal;font-variant:normal;font-weight:normal;font-stretch:normal;font-size:5.29167px;font-family:Estedad;-inkscape-font-specification:Estedad;font-variant-ligatures:normal;font-variant-caps:normal;font-variant-numeric:normal;font-variant-east-asian:normal;fill:#ffd8a3;fill-opacity:1;stroke-width:0.070004"
         id="path1133" />
      <path
         d="m 109.83568,114.08459 q 0.0155,0.39532 0.21187,0.62787 0.19896,0.23254 0.56328,0.23254 0.25063,0 0.42375,-0.11369 0.17569,-0.11627 0.24804,-0.31264 l 0.45217,0.093 q -0.12661,0.34623 -0.41858,0.53485 -0.28939,0.18604 -0.72088,0.18604 -0.5917,0 -0.91468,-0.36691 -0.32039,-0.3669 -0.32039,-1.01027 0,-0.64079 0.32298,-1.00769 0.32556,-0.36691 0.89658,-0.36691 0.27906,0 0.4961,0.0775 0.21704,0.0749 0.35915,0.20929 0.14211,0.13177 0.22996,0.32298 0.0879,0.1912 0.12144,0.41341 0.0336,0.21962 0.0207,0.48059 z m 0.005,-0.32556 h 1.4857 q -0.0543,-0.79582 -0.74414,-0.79582 -0.32298,0 -0.52194,0.21446 -0.19637,0.21187 -0.21962,0.58136 z"
         style="font-style:normal;font-variant:normal;font-weight:normal;font-stretch:normal;font-size:5.29167px;font-family:Estedad;-inkscape-font-specification:Estedad;font-variant-ligatures:normal;font-variant-caps:normal;font-variant-numeric:normal;font-variant-east-asian:normal;fill:#ffd8a3;fill-opacity:1;stroke-width:0.070004"
         id="path1135" />
      <path
         d="m 112.43501,115.00701 q 0,-0.13694 0.093,-0.22737 0.093,-0.0904 0.23254,-0.0904 0.13953,0 0.23254,0.093 0.0956,0.0904 0.0956,0.22479 0,0.13695 -0.0956,0.23255 -0.093,0.093 -0.23254,0.093 -0.13953,0 -0.23254,-0.093 -0.093,-0.0956 -0.093,-0.23255 z"
         style="font-style:normal;font-variant:normal;font-weight:normal;font-stretch:normal;font-size:5.29167px;font-family:Estedad;-inkscape-font-specification:Estedad;font-variant-ligatures:normal;font-variant-caps:normal;font-variant-numeric:normal;font-variant-east-asian:normal;fill:#ffd8a3;fill-opacity:1;stroke-width:0.070004"
         id="path1137" />
      <path
         d="m 114.98265,112.96321 q -0.35656,0 -0.56327,0.24805 -0.20412,0.24546 -0.20412,0.74414 0,0.50126 0.20412,0.74672 0.20412,0.24547 0.56327,0.24547 0.35916,0 0.56328,-0.24547 0.20412,-0.24546 0.20412,-0.74672 0,-0.49868 -0.20671,-0.74414 -0.20412,-0.24805 -0.56069,-0.24805 z m 0,-0.38241 q 0.58912,0 0.91468,0.35916 0.32814,0.35915 0.32814,1.01544 0,0.65629 -0.32814,1.01802 -0.32815,0.35916 -0.91468,0.35916 -0.58652,0 -0.91467,-0.35916 -0.32814,-0.36173 -0.32814,-1.01802 0,-0.65629 0.32556,-1.01544 0.32814,-0.35916 0.91725,-0.35916 z"
         style="font-style:normal;font-variant:normal;font-weight:normal;font-stretch:normal;font-size:5.29167px;font-family:Estedad;-inkscape-font-specification:Estedad;font-variant-ligatures:normal;font-variant-caps:normal;font-variant-numeric:normal;font-variant-east-asian:normal;fill:#ffd8a3;fill-opacity:1;stroke-width:0.070004"
         id="path1139" />
      <path
         d="m 116.83267,112.60664 h 0.45476 l 0.0181,0.96635 v 1.73116 h -0.47284 z m 1.62781,0.42375 q -0.0723,-0.0258 -0.20154,-0.0258 -0.21187,0 -0.38757,0.093 -0.17312,0.0904 -0.28939,0.25063 -0.11369,0.1602 -0.18603,0.36173 -0.0698,0.20154 -0.0904,0.43409 l -0.14469,-0.0801 q 0.0207,-0.22996 0.0672,-0.43667 0.0465,-0.2067 0.13694,-0.40049 0.093,-0.19637 0.21704,-0.3359 0.12661,-0.14211 0.31006,-0.22737 0.18604,-0.0853 0.41341,-0.0853 0.0672,0 0.18087,0.0207 z"
         style="font-style:normal;font-variant:normal;font-weight:normal;font-stretch:normal;font-size:5.29167px;font-family:Estedad;-inkscape-font-specification:Estedad;font-variant-ligatures:normal;font-variant-caps:normal;font-variant-numeric:normal;font-variant-east-asian:normal;fill:#ffd8a3;fill-opacity:1;stroke-width:0.070004"
         id="path1141" />
      <path
         d="m 119.9591,116.54697 q -0.5116,0 -0.80874,-0.23513 -0.29455,-0.23254 -0.28163,-0.64078 h 0.41599 q 0,0.24029 0.17829,0.36948 0.17828,0.13178 0.47542,0.13178 0.29972,0 0.47801,-0.13178 0.18086,-0.12919 0.18086,-0.36948 v -3.06442 h 0.47543 v 3.06442 q 0,0.40049 -0.30231,0.6382 -0.29972,0.23771 -0.81132,0.23771 z m -1.18856,-2.59157 q 0,-0.61237 0.27647,-0.99219 0.27647,-0.38241 0.75189,-0.38241 0.59428,0 0.96635,0.60462 l -0.14986,0.14986 q -0.12402,-0.18087 -0.29972,-0.27647 -0.1757,-0.0956 -0.36691,-0.0956 -0.31264,0 -0.50901,0.26613 -0.19379,0.26614 -0.19379,0.72606 0,0.4625 0.19379,0.72605 0.19637,0.26355 0.50901,0.26355 0.19121,0 0.36691,-0.093 0.1757,-0.0956 0.29972,-0.27646 l 0.14986,0.14986 q -0.37207,0.60461 -0.96635,0.60461 -0.47542,0 -0.75189,-0.37982 -0.27647,-0.38241 -0.27647,-0.99477 z"
         style="font-style:normal;font-variant:normal;font-weight:normal;font-stretch:normal;font-size:5.29167px;font-family:Estedad;-inkscape-font-specification:Estedad;font-variant-ligatures:normal;font-variant-caps:normal;font-variant-numeric:normal;font-variant-east-asian:normal;fill:#ffd8a3;fill-opacity:1;stroke-width:0.070004"
         id="path1143" />
    </g>
    <g
       aria-label="artwork by:aminabedi68"
       id="text1282"
       style="font-style:normal;font-variant:normal;font-weight:normal;font-stretch:normal;font-size:3.52778px;line-height:1.25;font-family:Estedad;-inkscape-font-specification:'Estedad, Normal';font-variant-ligatures:normal;font-variant-caps:normal;font-variant-numeric:normal;font-variant-east-asian:normal;letter-spacing:0px;word-spacing:0px;fill:#7a5c3f;fill-opacity:1;stroke:none;stroke-width:0.070004"
       transform="scale(3.7795276)"
       inkscape:export-xdpi="96"
       inkscape:export-ydpi="96">
      <path
         d="m 156.89292,4.3591414 q 0.34968,0 0.54433,0.1584745 0.19637,0.1584745 0.19637,0.4340823 v 0.7975401 q 0,0.1102431 0.0413,0.1619196 0.0431,0.049954 0.15158,0.049954 l 0.002,0.2463245 q -0.26528,0.031006 -0.42375,-0.08096 -0.15848,-0.1136882 -0.15848,-0.3772382 v -0.79754 q 0,-0.1446941 -0.0982,-0.2170412 -0.0982,-0.072347 -0.27216,-0.072347 -0.1757,0 -0.27389,0.072347 -0.0965,0.070625 -0.0965,0.2170412 h -0.3359 q -0.0121,-0.2807755 0.18087,-0.4358049 0.19292,-0.1567519 0.5426,-0.1567519 z m 0.50299,1.3384204 q -0.0276,0.08096 -0.0672,0.1515843 -0.0379,0.070625 -0.10163,0.141249 -0.0637,0.070625 -0.14125,0.122301 -0.0775,0.049954 -0.18948,0.08096 -0.11025,0.031006 -0.23944,0.031006 -0.24805,0 -0.38929,-0.1309137 -0.14125,-0.1326363 -0.14125,-0.3669029 0,-0.1929255 0.0982,-0.332452 0.0999,-0.1395264 0.26355,-0.2049833 0.16364,-0.067179 0.37207,-0.067179 0.26528,0 0.54088,0.077515 l -0.12402,0.2084284 q -0.14297,-0.037896 -0.36174,-0.037896 -0.2067,0 -0.32556,0.079237 -0.11885,0.079237 -0.11885,0.2222088 0,0.2532147 0.30489,0.2532147 0.29455,0 0.49092,-0.2618274 z"
         style="font-style:normal;font-variant:normal;font-weight:500;font-stretch:normal;font-size:3.52778px;font-family:Estedad;-inkscape-font-specification:'Estedad Medium';font-variant-ligatures:normal;font-variant-caps:normal;font-variant-numeric:normal;font-variant-east-asian:normal;fill:#7a5c3f;fill-opacity:1;stroke-width:0.070004"
         id="path1170" />
      <path
         d="m 158.10732,4.3746443 h 0.37035 l 0.0172,0.6028921 v 1.2281773 h -0.38757 z m 1.14377,0.3479549 q -0.0551,-0.015503 -0.13264,-0.015503 -0.18259,0 -0.32211,0.1050755 -0.13953,0.103353 -0.2136,0.2687176 -0.0724,0.1653647 -0.0879,0.3720706 l -0.11024,-0.043064 q 0.0103,-0.1636422 0.0396,-0.3083363 0.0293,-0.1446941 0.0879,-0.2842205 0.0586,-0.1395265 0.14297,-0.2394343 0.0844,-0.099908 0.21015,-0.1601971 0.12747,-0.062012 0.28594,-0.062012 0.05,0 0.11369,0.012058 z"
         style="font-style:normal;font-variant:normal;font-weight:500;font-stretch:normal;font-size:3.52778px;font-family:Estedad;-inkscape-font-specification:'Estedad Medium';font-variant-ligatures:normal;font-variant-caps:normal;font-variant-numeric:normal;font-variant-east-asian:normal;fill:#7a5c3f;fill-opacity:1;stroke-width:0.070004"
         id="path1172" />
      <path
         d="m 160.5275,5.9025452 0.0568,0.2601048 q -0.17053,0.062012 -0.3514,0.062012 -0.24115,0 -0.39446,-0.1188559 Q 159.6869,5.98695 159.6869,5.7406256 V 3.8785502 h 0.38757 v 1.8190116 q 0,0.229099 0.2601,0.229099 0.093,0 0.19293,-0.024116 z M 159.41301,4.6847031 V 4.4245982 h 1.1076 v 0.2601049 z"
         style="font-style:normal;font-variant:normal;font-weight:500;font-stretch:normal;font-size:3.52778px;font-family:Estedad;-inkscape-font-specification:'Estedad Medium';font-variant-ligatures:normal;font-variant-caps:normal;font-variant-numeric:normal;font-variant-east-asian:normal;fill:#7a5c3f;fill-opacity:1;stroke-width:0.070004"
         id="path1174" />
      <path
         d="m 160.73076,4.3746443 h 0.36346 l 0.37896,1.3573685 0.37896,-1.3366979 h 0.30834 l 0.38068,1.3366979 0.37896,-1.3573685 h 0.36001 l -0.50298,1.8310694 h -0.39619 l -0.37551,-1.2746861 -0.37552,1.2746861 h -0.39446 z"
         style="font-style:normal;font-variant:normal;font-weight:500;font-stretch:normal;font-size:3.52778px;font-family:Estedad;-inkscape-font-specification:'Estedad Medium';font-variant-ligatures:normal;font-variant-caps:normal;font-variant-numeric:normal;font-variant-east-asian:normal;fill:#7a5c3f;fill-opacity:1;stroke-width:0.070004"
         id="path1176" />
      <path
         d="m 164.35845,4.6692002 q -0.21532,0 -0.33934,0.1533068 -0.12403,0.1533069 -0.12403,0.4685333 0,0.3152264 0.1223,0.4702558 0.12403,0.1533069 0.34107,0.1533069 0.21704,0 0.33934,-0.1533069 0.1223,-0.1533068 0.1223,-0.4702558 0,-0.3152264 -0.12402,-0.4685333 -0.1223,-0.1533068 -0.33762,-0.1533068 z m 0,-0.3100588 q 0.40652,0 0.62701,0.2463245 0.2222,0.2446019 0.2222,0.6855744 0,0.4409725 -0.2222,0.687297 -0.22049,0.2463245 -0.62701,0.2463245 -0.40652,0 -0.62873,-0.2463245 -0.22221,-0.2463245 -0.22221,-0.687297 0,-0.4409725 0.22221,-0.6855744 0.22221,-0.2463245 0.62873,-0.2463245 z"
         style="font-style:normal;font-variant:normal;font-weight:500;font-stretch:normal;font-size:3.52778px;font-family:Estedad;-inkscape-font-specification:'Estedad Medium';font-variant-ligatures:normal;font-variant-caps:normal;font-variant-numeric:normal;font-variant-east-asian:normal;fill:#7a5c3f;fill-opacity:1;stroke-width:0.070004"
         id="path1178" />
      <path
         d="m 165.59179,4.3746443 h 0.37035 l 0.0172,0.6028921 v 1.2281773 h -0.38758 z m 1.14378,0.3479549 q -0.0551,-0.015503 -0.13264,-0.015503 -0.18259,0 -0.32212,0.1050755 -0.13952,0.103353 -0.21359,0.2687176 -0.0724,0.1653647 -0.0879,0.3720706 l -0.11025,-0.043064 q 0.0103,-0.1636422 0.0396,-0.3083363 0.0293,-0.1446941 0.0879,-0.2842205 0.0586,-0.1395265 0.14297,-0.2394343 0.0844,-0.099908 0.21015,-0.1601971 0.12747,-0.062012 0.28595,-0.062012 0.0499,0 0.11369,0.012058 z"
         style="font-style:normal;font-variant:normal;font-weight:500;font-stretch:normal;font-size:3.52778px;font-family:Estedad;-inkscape-font-specification:'Estedad Medium';font-variant-ligatures:normal;font-variant-caps:normal;font-variant-numeric:normal;font-variant-east-asian:normal;fill:#7a5c3f;fill-opacity:1;stroke-width:0.070004"
         id="path1180" />
      <path
         d="m 168.16184,4.3746443 h 0.4892 l -0.70452,0.8578293 0.77687,0.9732401 h -0.48921 L 167.6089,5.3823354 h -0.17226 v 0.8233783 h -0.38585 V 3.6615091 h 0.38585 v 1.4658891 h 0.17226 z"
         style="font-style:normal;font-variant:normal;font-weight:500;font-stretch:normal;font-size:3.52778px;font-family:Estedad;-inkscape-font-specification:'Estedad Medium';font-variant-ligatures:normal;font-variant-caps:normal;font-variant-numeric:normal;font-variant-east-asian:normal;fill:#7a5c3f;fill-opacity:1;stroke-width:0.070004"
         id="path1182" />
      <path
         d="M 170.08248,6.2057137 H 169.6949 V 3.6649542 h 0.38758 z m 1.19889,-0.9146734 q 0,0.4116892 -0.18259,0.6717941 -0.18087,0.2601048 -0.50126,0.2601048 -0.39963,0 -0.64596,-0.4185793 l 0.11369,-0.1171334 q 0.0741,0.1102432 0.17915,0.1670873 0.10507,0.056844 0.22048,0.056844 0.19121,0 0.31006,-0.1653647 0.11886,-0.1653647 0.11886,-0.4547529 0,-0.2911107 -0.11886,-0.4547529 -0.11885,-0.1653647 -0.31006,-0.1653647 -0.11541,0 -0.22048,0.056844 -0.10508,0.056844 -0.17915,0.1670873 l -0.11369,-0.1154108 q 0.24633,-0.4203019 0.64596,-0.4203019 0.32039,0 0.50126,0.2601049 0.18259,0.2601048 0.18259,0.6717942 z"
         style="font-style:normal;font-variant:normal;font-weight:500;font-stretch:normal;font-size:3.52778px;font-family:Estedad;-inkscape-font-specification:'Estedad Medium';font-variant-ligatures:normal;font-variant-caps:normal;font-variant-numeric:normal;font-variant-east-asian:normal;fill:#7a5c3f;fill-opacity:1;stroke-width:0.070004"
         id="path1184" />
      <path
         d="m 172.80927,4.3746443 h 0.41169 l -0.96118,2.6389449 h -0.44614 l 0.31867,-0.7699794 -0.7183,-1.8689655 h 0.41341 l 0.49782,1.4262705 z"
         style="font-style:normal;font-variant:normal;font-weight:500;font-stretch:normal;font-size:3.52778px;font-family:Estedad;-inkscape-font-specification:'Estedad Medium';font-variant-ligatures:normal;font-variant-caps:normal;font-variant-numeric:normal;font-variant-east-asian:normal;fill:#7a5c3f;fill-opacity:1;stroke-width:0.070004"
         id="path1186" />
      <path
         d="m 173.48279,4.7484374 q 0,-0.098185 0.0689,-0.1653647 0.0689,-0.067179 0.17053,-0.067179 0.10163,0 0.17054,0.067179 0.0706,0.067179 0.0706,0.1653647 0,0.098185 -0.0706,0.1688098 -0.0706,0.068902 -0.17054,0.068902 -0.0999,0 -0.17053,-0.068902 -0.0689,-0.070625 -0.0689,-0.1688098 z m 0,1.2385126 q 0,-0.098185 0.0689,-0.1653646 0.0689,-0.067179 0.17053,-0.067179 0.10163,0 0.17054,0.067179 0.0706,0.067179 0.0706,0.1653646 0,0.098185 -0.0706,0.1688098 -0.0706,0.068902 -0.17054,0.068902 -0.0999,0 -0.17053,-0.068902 -0.0689,-0.070625 -0.0689,-0.1688098 z"
         style="font-style:normal;font-variant:normal;font-weight:500;font-stretch:normal;font-size:3.52778px;font-family:Estedad;-inkscape-font-specification:'Estedad Medium';font-variant-ligatures:normal;font-variant-caps:normal;font-variant-numeric:normal;font-variant-east-asian:normal;fill:#7a5c3f;fill-opacity:1;stroke-width:0.070004"
         id="path1188" />
      <path
         d="m 175.14333,4.3591414 q 0.34967,0 0.54432,0.1584745 0.19637,0.1584745 0.19637,0.4340823 v 0.7975401 q 0,0.1102431 0.0413,0.1619196 0.0431,0.049954 0.15159,0.049954 l 0.002,0.2463245 q -0.26527,0.031006 -0.42375,-0.08096 -0.15847,-0.1136882 -0.15847,-0.3772382 v -0.79754 q 0,-0.1446941 -0.0982,-0.2170412 -0.0982,-0.072347 -0.27216,-0.072347 -0.1757,0 -0.27389,0.072347 -0.0965,0.070625 -0.0965,0.2170412 h -0.33589 q -0.0121,-0.2807755 0.18086,-0.4358049 0.19293,-0.1567519 0.54261,-0.1567519 z m 0.50298,1.3384204 q -0.0276,0.08096 -0.0672,0.1515843 -0.0379,0.070625 -0.10163,0.141249 -0.0637,0.070625 -0.14125,0.122301 -0.0775,0.049954 -0.18948,0.08096 -0.11024,0.031006 -0.23943,0.031006 -0.24805,0 -0.3893,-0.1309137 -0.14125,-0.1326363 -0.14125,-0.3669029 0,-0.1929255 0.0982,-0.332452 0.0999,-0.1395264 0.26355,-0.2049833 0.16364,-0.067179 0.37207,-0.067179 0.26527,0 0.54088,0.077515 l -0.12403,0.2084284 q -0.14297,-0.037896 -0.36173,-0.037896 -0.20671,0 -0.32556,0.079237 -0.11886,0.079237 -0.11886,0.2222088 0,0.2532147 0.30489,0.2532147 0.29456,0 0.49093,-0.2618274 z"
         style="font-style:normal;font-variant:normal;font-weight:500;font-stretch:normal;font-size:3.52778px;font-family:Estedad;-inkscape-font-specification:'Estedad Medium';font-variant-ligatures:normal;font-variant-caps:normal;font-variant-numeric:normal;font-variant-east-asian:normal;fill:#7a5c3f;fill-opacity:1;stroke-width:0.070004"
         id="path1190" />
      <path
         d="m 176.3405,4.3746443 h 0.36862 l 0.0172,0.4823137 v 1.3487557 h -0.38585 z m 1.5124,0.6287303 v 1.2006166 h -0.38585 V 5.067109 q 0,-0.1584745 -0.0758,-0.244602 -0.0741,-0.086127 -0.21704,-0.086127 -0.18776,0 -0.29972,0.1274686 -0.11024,0.1274686 -0.14814,0.3531225 l -0.0689,-0.1670872 q 0.0258,-0.3100588 0.1912,-0.5012618 0.16709,-0.1912029 0.43581,-0.1912029 0.25321,0 0.40996,0.1808677 0.15848,0.179145 0.15848,0.4650877 z m 1.12999,0 v 1.2006166 h -0.38585 V 5.067109 q 0,-0.1584745 -0.0758,-0.244602 -0.0741,-0.086127 -0.21705,-0.086127 -0.18775,0 -0.29972,0.1274686 -0.11024,0.1274686 -0.14814,0.3531225 l -0.0689,-0.1670872 q 0.0258,-0.3100588 0.1912,-0.5012618 0.16709,-0.1912029 0.43581,-0.1912029 0.25321,0 0.40996,0.1808677 0.15848,0.179145 0.15848,0.4650881 z"
         style="font-style:normal;font-variant:normal;font-weight:500;font-stretch:normal;font-size:3.52778px;font-family:Estedad;-inkscape-font-specification:'Estedad Medium';font-variant-ligatures:normal;font-variant-caps:normal;font-variant-numeric:normal;font-variant-east-asian:normal;fill:#7a5c3f;fill-opacity:1;stroke-width:0.070004"
         id="path1192" />
      <path
         d="m 179.40836,3.7889777 q 0,-0.098185 0.0689,-0.1653647 0.0689,-0.067179 0.17053,-0.067179 0.10163,0 0.17053,0.067179 0.0706,0.067179 0.0706,0.1653647 0,0.098185 -0.0706,0.1688098 -0.0706,0.068902 -0.17053,0.068902 -0.0999,0 -0.17053,-0.068902 -0.0689,-0.070624 -0.0689,-0.1688098 z m 0.0465,0.5856666 h 0.38929 v 1.8310694 h -0.38929 z"
         style="font-style:normal;font-variant:normal;font-weight:500;font-stretch:normal;font-size:3.52778px;font-family:Estedad;-inkscape-font-specification:'Estedad Medium';font-variant-ligatures:normal;font-variant-caps:normal;font-variant-numeric:normal;font-variant-east-asian:normal;fill:#7a5c3f;fill-opacity:1;stroke-width:0.070004"
         id="path1194" />
      <path
         d="m 180.72783,6.2057137 h -0.38757 V 4.3746443 h 0.37034 l 0.0172,0.4823137 z m 1.18339,-1.1971714 v 1.1971714 h -0.38757 V 5.0722766 q 0,-0.1619196 -0.0861,-0.248047 -0.0844,-0.086127 -0.23943,-0.086127 -0.18604,0 -0.30834,0.1240235 -0.1223,0.1240236 -0.16192,0.3565677 l -0.0655,-0.1670873 q 0.0293,-0.3186715 0.20326,-0.5047068 0.17398,-0.1877578 0.43925,-0.1877578 0.26872,0 0.43753,0.1808676 0.16881,0.1791451 0.16881,0.4685333 z"
         style="font-style:normal;font-variant:normal;font-weight:500;font-stretch:normal;font-size:3.52778px;font-family:Estedad;-inkscape-font-specification:'Estedad Medium';font-variant-ligatures:normal;font-variant-caps:normal;font-variant-numeric:normal;font-variant-east-asian:normal;fill:#7a5c3f;fill-opacity:1;stroke-width:0.070004"
         id="path1196" />
      <path
         d="m 183.06533,4.3591414 q 0.34968,0 0.54432,0.1584745 0.19637,0.1584745 0.19637,0.4340823 v 0.7975401 q 0,0.1102431 0.0414,0.1619196 0.0431,0.049954 0.15158,0.049954 l 0.002,0.2463245 q -0.26527,0.031006 -0.42374,-0.08096 -0.15848,-0.1136882 -0.15848,-0.3772382 v -0.79754 q 0,-0.1446941 -0.0982,-0.2170412 -0.0982,-0.072347 -0.27217,-0.072347 -0.1757,0 -0.27388,0.072347 -0.0965,0.070625 -0.0965,0.2170412 h -0.33589 q -0.0121,-0.2807755 0.18087,-0.4358049 0.19292,-0.1567519 0.5426,-0.1567519 z m 0.50298,1.3384204 q -0.0276,0.08096 -0.0672,0.1515843 -0.0379,0.070625 -0.10163,0.141249 -0.0637,0.070625 -0.14125,0.122301 -0.0775,0.049954 -0.18948,0.08096 -0.11024,0.031006 -0.23943,0.031006 -0.24805,0 -0.3893,-0.1309137 -0.14125,-0.1326363 -0.14125,-0.3669029 0,-0.1929255 0.0982,-0.332452 0.0999,-0.1395264 0.26355,-0.2049833 0.16364,-0.067179 0.37207,-0.067179 0.26527,0 0.54088,0.077515 l -0.12402,0.2084284 q -0.14297,-0.037896 -0.36174,-0.037896 -0.2067,0 -0.32556,0.079237 -0.11886,0.079237 -0.11886,0.2222088 0,0.2532147 0.3049,0.2532147 0.29455,0 0.49092,-0.2618274 z"
         style="font-style:normal;font-variant:normal;font-weight:500;font-stretch:normal;font-size:3.52778px;font-family:Estedad;-inkscape-font-specification:'Estedad Medium';font-variant-ligatures:normal;font-variant-caps:normal;font-variant-numeric:normal;font-variant-east-asian:normal;fill:#7a5c3f;fill-opacity:1;stroke-width:0.070004"
         id="path1198" />
      <path
         d="m 184.6673,6.2057137 h -0.38758 V 3.6649542 h 0.38758 z m 1.19889,-0.9146734 q 0,0.4116892 -0.18259,0.6717941 -0.18087,0.2601048 -0.50126,0.2601048 -0.39963,0 -0.64596,-0.4185793 l 0.11369,-0.1171334 q 0.0741,0.1102432 0.17915,0.1670873 0.10507,0.056844 0.22048,0.056844 0.19121,0 0.31006,-0.1653647 0.11886,-0.1653647 0.11886,-0.4547529 0,-0.2911107 -0.11886,-0.4547529 -0.11885,-0.1653647 -0.31006,-0.1653647 -0.11541,0 -0.22048,0.056844 -0.10508,0.056844 -0.17915,0.1670873 l -0.11369,-0.1154108 q 0.24633,-0.4203019 0.64596,-0.4203019 0.32039,0 0.50126,0.2601049 0.18259,0.2601048 0.18259,0.6717942 z"
         style="font-style:normal;font-variant:normal;font-weight:500;font-stretch:normal;font-size:3.52778px;font-family:Estedad;-inkscape-font-specification:'Estedad Medium';font-variant-ligatures:normal;font-variant-caps:normal;font-variant-numeric:normal;font-variant-east-asian:normal;fill:#7a5c3f;fill-opacity:1;stroke-width:0.070004"
         id="path1200" />
      <path
         d="m 186.51732,5.4047285 q 0.0138,0.2342667 0.13091,0.370348 0.11886,0.1360814 0.3359,0.1360814 0.14814,0 0.25321,-0.067179 0.10508,-0.068902 0.14814,-0.1808676 l 0.37035,0.067179 q -0.0861,0.2377117 -0.28594,0.3669029 -0.1981,0.1274686 -0.49782,0.1274686 -0.40652,0 -0.62529,-0.248047 -0.21876,-0.2497696 -0.21876,-0.6855745 0,-0.4323598 0.21876,-0.6821293 0.21877,-0.2497696 0.61495,-0.2497696 0.24116,0 0.41514,0.08096 0.17398,0.079237 0.26872,0.2256539 0.0965,0.1446941 0.13436,0.3290068 0.0396,0.1825902 0.0276,0.4099666 z m 0.003,-0.2601048 h 0.894 q -0.0327,-0.4754235 -0.44958,-0.4754235 -0.1912,0 -0.31178,0.1274686 -0.11886,0.1257461 -0.13264,0.3479549 z"
         style="font-style:normal;font-variant:normal;font-weight:500;font-stretch:normal;font-size:3.52778px;font-family:Estedad;-inkscape-font-specification:'Estedad Medium';font-variant-ligatures:normal;font-variant-caps:normal;font-variant-numeric:normal;font-variant-east-asian:normal;fill:#7a5c3f;fill-opacity:1;stroke-width:0.070004"
         id="path1202" />
      <path
         d="m 189.63513,6.2057137 h -0.3893 V 3.7149081 h 0.3893 z m -1.58819,-0.9163959 q 0,-0.4116892 0.18087,-0.6717941 0.18259,-0.2601049 0.50298,-0.2601049 0.39963,0 0.64596,0.4185794 l -0.11369,0.1171333 q -0.0741,-0.1102431 -0.17915,-0.1670872 -0.10507,-0.056844 -0.22048,-0.056844 -0.19121,0 -0.31006,0.1653647 -0.11886,0.1653647 -0.11886,0.4547529 0,0.2911107 0.11886,0.4564754 0.11885,0.1636421 0.31006,0.1636421 0.11541,0 0.22048,-0.056844 0.10508,-0.056844 0.17915,-0.1670872 l 0.11369,0.1154108 q -0.24633,0.4203019 -0.64596,0.4203019 -0.32039,0 -0.50298,-0.2601049 -0.18087,-0.2601049 -0.18087,-0.6717942 z"
         style="font-style:normal;font-variant:normal;font-weight:500;font-stretch:normal;font-size:3.52778px;font-family:Estedad;-inkscape-font-specification:'Estedad Medium';font-variant-ligatures:normal;font-variant-caps:normal;font-variant-numeric:normal;font-variant-east-asian:normal;fill:#7a5c3f;fill-opacity:1;stroke-width:0.070004"
         id="path1204" />
      <path
         d="m 190.09677,3.7889777 q 0,-0.098185 0.0689,-0.1653647 0.0689,-0.067179 0.17053,-0.067179 0.10163,0 0.17053,0.067179 0.0706,0.067179 0.0706,0.1653647 0,0.098185 -0.0706,0.1688098 -0.0706,0.068902 -0.17053,0.068902 -0.0999,0 -0.17053,-0.068902 -0.0689,-0.070624 -0.0689,-0.1688098 z m 0.0465,0.5856666 h 0.3893 v 1.8310694 h -0.3893 z"
         style="font-style:normal;font-variant:normal;font-weight:500;font-stretch:normal;font-size:3.52778px;font-family:Estedad;-inkscape-font-specification:'Estedad Medium';font-variant-ligatures:normal;font-variant-caps:normal;font-variant-numeric:normal;font-variant-east-asian:normal;fill:#7a5c3f;fill-opacity:1;stroke-width:0.070004"
         id="path1206" />
      <path
         d="m 191.82449,4.9413629 q -0.14297,0 -0.26699,0.077515 -0.1223,0.075792 -0.19637,0.2101509 0.005,0.3445098 0.11368,0.5047069 0.11025,0.160197 0.33935,0.160197 0.19464,0 0.30144,-0.1240235 0.10852,-0.1257461 0.10852,-0.3600127 0,-0.2204863 -0.10507,-0.3445098 -0.10508,-0.1240235 -0.29456,-0.1240238 z m 0.0396,-1.1971715 q 0.31178,0 0.5116,0.1808677 0.19981,0.1808676 0.19981,0.4702558 h -0.32384 q 0,-0.1395265 -0.10163,-0.2325441 -0.10163,-0.09474 -0.298,-0.09474 -0.13952,0 -0.24115,0.063734 -0.10163,0.063734 -0.15848,0.1791451 -0.0568,0.1154108 -0.0827,0.2618274 -0.0258,0.1446941 -0.0224,0.3238392 0.1912,-0.2945558 0.55293,-0.2945558 0.31868,0 0.51332,0.2153186 0.19465,0.2153186 0.19465,0.5615509 0,0.3910186 -0.20843,0.618395 -0.2067,0.2273765 -0.57705,0.2273765 -0.43236,0 -0.6339,-0.282498 -0.20154,-0.282498 -0.20154,-0.8612745 0,-0.6562911 0.21877,-0.9956332 0.21876,-0.3410647 0.65801,-0.3410647 z"
         style="font-style:normal;font-variant:normal;font-weight:500;font-stretch:normal;font-size:3.52778px;font-family:Estedad;-inkscape-font-specification:'Estedad Medium';font-variant-ligatures:normal;font-variant-caps:normal;font-variant-numeric:normal;font-variant-east-asian:normal;fill:#7a5c3f;fill-opacity:1;stroke-width:0.070004"
         id="path1208" />
      <path
         d="m 193.80025,3.7441914 q 0.33245,0 0.53572,0.1860353 0.20326,0.1843127 0.20326,0.4547529 0,0.1653647 -0.081,0.3100588 -0.081,0.1446941 -0.2291,0.2342666 0.19292,0.1102432 0.29628,0.2773304 0.10507,0.1653647 0.10507,0.3514 0,0.2859431 -0.22565,0.477146 -0.22566,0.1894804 -0.60462,0.1894804 -0.37896,0 -0.60633,-0.1912029 -0.22566,-0.191203 -0.22566,-0.4788686 0,-0.1860353 0.10335,-0.3514 0.10336,-0.1653647 0.29456,-0.2738853 -0.14642,-0.089573 -0.22738,-0.232544 -0.081,-0.1446942 -0.081,-0.3100588 0,-0.2704402 0.20326,-0.4564755 0.20499,-0.1860353 0.53916,-0.1860353 z m 0,0.3083363 q -0.16536,0 -0.26355,0.099908 -0.0965,0.098185 -0.0965,0.2687176 0,0.1739775 0.0965,0.2756079 0.0982,0.1016303 0.26355,0.1016303 0.16364,0 0.25838,-0.1016303 0.0948,-0.1016304 0.0948,-0.2756079 0,-0.1722549 -0.0948,-0.2704401 -0.0947,-0.098185 -0.25838,-0.098186 z m -0.007,1.0404195 q -0.1912,0 -0.31006,0.1154108 -0.11885,0.1154107 -0.11885,0.3031686 0,0.1825901 0.11541,0.2876656 0.11713,0.103353 0.32039,0.103353 0.20326,0 0.31695,-0.103353 0.11541,-0.1033529 0.11541,-0.282498 0,-0.1877578 -0.1223,-0.3048911 -0.1223,-0.1188559 -0.31695,-0.1188559 z"
         style="font-style:normal;font-variant:normal;font-weight:500;font-stretch:normal;font-size:3.52778px;font-family:Estedad;-inkscape-font-specification:'Estedad Medium';font-variant-ligatures:normal;font-variant-caps:normal;font-variant-numeric:normal;font-variant-east-asian:normal;fill:#7a5c3f;fill-opacity:1;stroke-width:0.070004"
         id="path1210" />
    </g>
  </g>
  <style
     type="text/css"
     id="style26">
	.specularity {opacity:0.5;}
	.low-specularity {opacity:0.25;}
	.full-specularity {opacity:1;}
	.black {fill:#000000;}
	.white {fill:#ffffff;}
	.outline-big {stroke-width:16;stroke:none;opacity:0.1;fill:none;}
	.outline-small {stroke-width:8;stroke:none;opacity:0.2;fill:none;}
	.stroke-highlight {fill:none;stroke:none;opacity:0.2;}
       	.base-shadow 	{fill:black;opacity:75;}
	</style>
  <style
     type="text/css"
     id="style26-7">
	.specularity {opacity:0.5;}
	.low-specularity {opacity:0.25;}
	.full-specularity {opacity:1;}
	.black {fill:#000000;}
	.white {fill:#ffffff;}
	.outline-big {stroke-width:16;stroke:none;opacity:0.1;fill:none;}
	.outline-small {stroke-width:8;stroke:none;opacity:0.2;fill:none;}
	.stroke-highlight {fill:none;stroke:none;opacity:0.2;}
       	.base-shadow 	{fill:black;opacity:75;}
	</style>
  <script
     id="mesh_polyfill"
     type="text/javascript">
!function(){const t=&quot;http://www.w3.org/2000/svg&quot;,e=&quot;http://www.w3.org/1999/xlink&quot;,s=&quot;http://www.w3.org/1999/xhtml&quot;,r=2;if(document.createElementNS(t,&quot;meshgradient&quot;).x)return;const n=(t,e,s,r)=&gt;{let n=new x(.5*(e.x+s.x),.5*(e.y+s.y)),o=new x(.5*(t.x+e.x),.5*(t.y+e.y)),i=new x(.5*(s.x+r.x),.5*(s.y+r.y)),a=new x(.5*(n.x+o.x),.5*(n.y+o.y)),h=new x(.5*(n.x+i.x),.5*(n.y+i.y)),l=new x(.5*(a.x+h.x),.5*(a.y+h.y));return[[t,o,a,l],[l,h,i,r]]},o=t=&gt;{let e=t[0].distSquared(t[1]),s=t[2].distSquared(t[3]),r=.25*t[0].distSquared(t[2]),n=.25*t[1].distSquared(t[3]),o=e&gt;s?e:s,i=r&gt;n?r:n;return 18*(o&gt;i?o:i)},i=(t,e)=&gt;Math.sqrt(t.distSquared(e)),a=(t,e)=&gt;t.scale(2/3).add(e.scale(1/3)),h=t=&gt;{let e,s,r,n,o,i,a,h=new g;return t.match(/(\w+\(\s*[^)]+\))+/g).forEach(t=&gt;{let l=t.match(/[\w.-]+/g),d=l.shift();switch(d){case&quot;translate&quot;:2===l.length?e=new g(1,0,0,1,l[0],l[1]):(console.error(&quot;mesh.js: translate does not have 2 arguments!&quot;),e=new g(1,0,0,1,0,0)),h=h.append(e);break;case&quot;scale&quot;:1===l.length?s=new g(l[0],0,0,l[0],0,0):2===l.length?s=new g(l[0],0,0,l[1],0,0):(console.error(&quot;mesh.js: scale does not have 1 or 2 arguments!&quot;),s=new g(1,0,0,1,0,0)),h=h.append(s);break;case&quot;rotate&quot;:if(3===l.length&amp;&amp;(e=new g(1,0,0,1,l[1],l[2]),h=h.append(e)),l[0]){r=l[0]*Math.PI/180;let t=Math.cos(r),e=Math.sin(r);Math.abs(t)&lt;1e-16&amp;&amp;(t=0),Math.abs(e)&lt;1e-16&amp;&amp;(e=0),a=new g(t,e,-e,t,0,0),h=h.append(a)}else console.error(&quot;math.js: No argument to rotate transform!&quot;);3===l.length&amp;&amp;(e=new g(1,0,0,1,-l[1],-l[2]),h=h.append(e));break;case&quot;skewX&quot;:l[0]?(r=l[0]*Math.PI/180,n=Math.tan(r),o=new g(1,0,n,1,0,0),h=h.append(o)):console.error(&quot;math.js: No argument to skewX transform!&quot;);break;case&quot;skewY&quot;:l[0]?(r=l[0]*Math.PI/180,n=Math.tan(r),i=new g(1,n,0,1,0,0),h=h.append(i)):console.error(&quot;math.js: No argument to skewY transform!&quot;);break;case&quot;matrix&quot;:6===l.length?h=h.append(new g(...l)):console.error(&quot;math.js: Incorrect number of arguments for matrix!&quot;);break;default:console.error(&quot;mesh.js: Unhandled transform type: &quot;+d)}}),h},l=t=&gt;{let e=[],s=t.split(/[ ,]+/);for(let t=0,r=s.length-1;t&lt;r;t+=2)e.push(new x(parseFloat(s[t]),parseFloat(s[t+1])));return e},d=(t,e)=&gt;{for(let s in e)t.setAttribute(s,e[s])},c=(t,e,s,r,n)=&gt;{let o,i,a=[0,0,0,0];for(let h=0;h&lt;3;++h)e[h]&lt;t[h]&amp;&amp;e[h]&lt;s[h]||t[h]&lt;e[h]&amp;&amp;s[h]&lt;e[h]?a[h]=0:(a[h]=.5*((e[h]-t[h])/r+(s[h]-e[h])/n),o=Math.abs(3*(e[h]-t[h])/r),i=Math.abs(3*(s[h]-e[h])/n),a[h]&gt;o?a[h]=o:a[h]&gt;i&amp;&amp;(a[h]=i));return a},u=[[1,0,0,0,0,0,0,0,0,0,0,0,0,0,0,0],[0,0,0,0,1,0,0,0,0,0,0,0,0,0,0,0],[-3,3,0,0,-2,-1,0,0,0,0,0,0,0,0,0,0],[2,-2,0,0,1,1,0,0,0,0,0,0,0,0,0,0],[0,0,0,0,0,0,0,0,1,0,0,0,0,0,0,0],[0,0,0,0,0,0,0,0,0,0,0,0,1,0,0,0],[0,0,0,0,0,0,0,0,-3,3,0,0,-2,-1,0,0],[0,0,0,0,0,0,0,0,2,-2,0,0,1,1,0,0],[-3,0,3,0,0,0,0,0,-2,0,-1,0,0,0,0,0],[0,0,0,0,-3,0,3,0,0,0,0,0,-2,0,-1,0],[9,-9,-9,9,6,3,-6,-3,6,-6,3,-3,4,2,2,1],[-6,6,6,-6,-3,-3,3,3,-4,4,-2,2,-2,-2,-1,-1],[2,0,-2,0,0,0,0,0,1,0,1,0,0,0,0,0],[0,0,0,0,2,0,-2,0,0,0,0,0,1,0,1,0],[-6,6,6,-6,-4,-2,4,2,-3,3,-3,3,-2,-1,-2,-1],[4,-4,-4,4,2,2,-2,-2,2,-2,2,-2,1,1,1,1]],f=t=&gt;{let e=[];for(let s=0;s&lt;16;++s){e[s]=0;for(let r=0;r&lt;16;++r)e[s]+=u[s][r]*t[r]}return e},p=(t,e,s)=&gt;{const r=e*e,n=s*s,o=e*e*e,i=s*s*s;return t[0]+t[1]*e+t[2]*r+t[3]*o+t[4]*s+t[5]*s*e+t[6]*s*r+t[7]*s*o+t[8]*n+t[9]*n*e+t[10]*n*r+t[11]*n*o+t[12]*i+t[13]*i*e+t[14]*i*r+t[15]*i*o},y=t=&gt;{let e=[],s=[],r=[];for(let s=0;s&lt;4;++s)e[s]=[],e[s][0]=n(t[0][s],t[1][s],t[2][s],t[3][s]),e[s][1]=[],e[s][1].push(...n(...e[s][0][0])),e[s][1].push(...n(...e[s][0][1])),e[s][2]=[],e[s][2].push(...n(...e[s][1][0])),e[s][2].push(...n(...e[s][1][1])),e[s][2].push(...n(...e[s][1][2])),e[s][2].push(...n(...e[s][1][3]));for(let t=0;t&lt;8;++t){s[t]=[];for(let r=0;r&lt;4;++r)s[t][r]=[],s[t][r][0]=n(e[0][2][t][r],e[1][2][t][r],e[2][2][t][r],e[3][2][t][r]),s[t][r][1]=[],s[t][r][1].push(...n(...s[t][r][0][0])),s[t][r][1].push(...n(...s[t][r][0][1])),s[t][r][2]=[],s[t][r][2].push(...n(...s[t][r][1][0])),s[t][r][2].push(...n(...s[t][r][1][1])),s[t][r][2].push(...n(...s[t][r][1][2])),s[t][r][2].push(...n(...s[t][r][1][3]))}for(let t=0;t&lt;8;++t){r[t]=[];for(let e=0;e&lt;8;++e)r[t][e]=[],r[t][e][0]=s[t][0][2][e],r[t][e][1]=s[t][1][2][e],r[t][e][2]=s[t][2][2][e],r[t][e][3]=s[t][3][2][e]}return r};class x{constructor(t,e){this.x=t||0,this.y=e||0}toString(){return`(x=${this.x}, y=${this.y})`}clone(){return new x(this.x,this.y)}add(t){return new x(this.x+t.x,this.y+t.y)}scale(t){return void 0===t.x?new x(this.x*t,this.y*t):new x(this.x*t.x,this.y*t.y)}distSquared(t){let e=this.x-t.x,s=this.y-t.y;return e*e+s*s}transform(t){let e=this.x*t.a+this.y*t.c+t.e,s=this.x*t.b+this.y*t.d+t.f;return new x(e,s)}}class g{constructor(t,e,s,r,n,o){void 0===t?(this.a=1,this.b=0,this.c=0,this.d=1,this.e=0,this.f=0):(this.a=t,this.b=e,this.c=s,this.d=r,this.e=n,this.f=o)}toString(){return`affine: ${this.a} ${this.c} ${this.e} \n       ${this.b} ${this.d} ${this.f}`}append(t){t instanceof g||console.error(&quot;mesh.js: argument to Affine.append is not affine!&quot;);let e=this.a*t.a+this.c*t.b,s=this.b*t.a+this.d*t.b,r=this.a*t.c+this.c*t.d,n=this.b*t.c+this.d*t.d,o=this.a*t.e+this.c*t.f+this.e,i=this.b*t.e+this.d*t.f+this.f;return new g(e,s,r,n,o,i)}}class w{constructor(t,e){this.nodes=t,this.colors=e}paintCurve(t,e){if(o(this.nodes)&gt;r){const s=n(...this.nodes);let r=[[],[]],o=[[],[]];for(let t=0;t&lt;4;++t)r[0][t]=this.colors[0][t],r[1][t]=(this.colors[0][t]+this.colors[1][t])/2,o[0][t]=r[1][t],o[1][t]=this.colors[1][t];let i=new w(s[0],r),a=new w(s[1],o);i.paintCurve(t,e),a.paintCurve(t,e)}else{let s=Math.round(this.nodes[0].x);if(s&gt;=0&amp;&amp;s&lt;e){let r=4*(~~this.nodes[0].y*e+s);t[r]=Math.round(this.colors[0][0]),t[r+1]=Math.round(this.colors[0][1]),t[r+2]=Math.round(this.colors[0][2]),t[r+3]=Math.round(this.colors[0][3])}}}}class m{constructor(t,e){this.nodes=t,this.colors=e}split(){let t=[[],[],[],[]],e=[[],[],[],[]],s=[[[],[]],[[],[]]],r=[[[],[]],[[],[]]];for(let s=0;s&lt;4;++s){const r=n(this.nodes[0][s],this.nodes[1][s],this.nodes[2][s],this.nodes[3][s]);t[0][s]=r[0][0],t[1][s]=r[0][1],t[2][s]=r[0][2],t[3][s]=r[0][3],e[0][s]=r[1][0],e[1][s]=r[1][1],e[2][s]=r[1][2],e[3][s]=r[1][3]}for(let t=0;t&lt;4;++t)s[0][0][t]=this.colors[0][0][t],s[0][1][t]=this.colors[0][1][t],s[1][0][t]=(this.colors[0][0][t]+this.colors[1][0][t])/2,s[1][1][t]=(this.colors[0][1][t]+this.colors[1][1][t])/2,r[0][0][t]=s[1][0][t],r[0][1][t]=s[1][1][t],r[1][0][t]=this.colors[1][0][t],r[1][1][t]=this.colors[1][1][t];return[new m(t,s),new m(e,r)]}paint(t,e){let s,n=!1;for(let t=0;t&lt;4;++t)if((s=o([this.nodes[0][t],this.nodes[1][t],this.nodes[2][t],this.nodes[3][t]]))&gt;r){n=!0;break}if(n){let s=this.split();s[0].paint(t,e),s[1].paint(t,e)}else{new w([...this.nodes[0]],[...this.colors[0]]).paintCurve(t,e)}}}class b{constructor(t){this.readMesh(t),this.type=t.getAttribute(&quot;type&quot;)||&quot;bilinear&quot;}readMesh(t){let e=[[]],s=[[]],r=Number(t.getAttribute(&quot;x&quot;)),n=Number(t.getAttribute(&quot;y&quot;));e[0][0]=new x(r,n);let o=t.children;for(let t=0,r=o.length;t&lt;r;++t){e[3*t+1]=[],e[3*t+2]=[],e[3*t+3]=[],s[t+1]=[];let r=o[t].children;for(let n=0,o=r.length;n&lt;o;++n){let o=r[n].children;for(let r=0,i=o.length;r&lt;i;++r){let i=r;0!==t&amp;&amp;++i;let h,d=o[r].getAttribute(&quot;path&quot;),c=&quot;l&quot;;null!=d&amp;&amp;(c=(h=d.match(/\s*([lLcC])\s*(.*)/))[1]);let u=l(h[2]);switch(c){case&quot;l&quot;:0===i?(e[3*t][3*n+3]=u[0].add(e[3*t][3*n]),e[3*t][3*n+1]=a(e[3*t][3*n],e[3*t][3*n+3]),e[3*t][3*n+2]=a(e[3*t][3*n+3],e[3*t][3*n])):1===i?(e[3*t+3][3*n+3]=u[0].add(e[3*t][3*n+3]),e[3*t+1][3*n+3]=a(e[3*t][3*n+3],e[3*t+3][3*n+3]),e[3*t+2][3*n+3]=a(e[3*t+3][3*n+3],e[3*t][3*n+3])):2===i?(0===n&amp;&amp;(e[3*t+3][3*n+0]=u[0].add(e[3*t+3][3*n+3])),e[3*t+3][3*n+1]=a(e[3*t+3][3*n],e[3*t+3][3*n+3]),e[3*t+3][3*n+2]=a(e[3*t+3][3*n+3],e[3*t+3][3*n])):(e[3*t+1][3*n]=a(e[3*t][3*n],e[3*t+3][3*n]),e[3*t+2][3*n]=a(e[3*t+3][3*n],e[3*t][3*n]));break;case&quot;L&quot;:0===i?(e[3*t][3*n+3]=u[0],e[3*t][3*n+1]=a(e[3*t][3*n],e[3*t][3*n+3]),e[3*t][3*n+2]=a(e[3*t][3*n+3],e[3*t][3*n])):1===i?(e[3*t+3][3*n+3]=u[0],e[3*t+1][3*n+3]=a(e[3*t][3*n+3],e[3*t+3][3*n+3]),e[3*t+2][3*n+3]=a(e[3*t+3][3*n+3],e[3*t][3*n+3])):2===i?(0===n&amp;&amp;(e[3*t+3][3*n+0]=u[0]),e[3*t+3][3*n+1]=a(e[3*t+3][3*n],e[3*t+3][3*n+3]),e[3*t+3][3*n+2]=a(e[3*t+3][3*n+3],e[3*t+3][3*n])):(e[3*t+1][3*n]=a(e[3*t][3*n],e[3*t+3][3*n]),e[3*t+2][3*n]=a(e[3*t+3][3*n],e[3*t][3*n]));break;case&quot;c&quot;:0===i?(e[3*t][3*n+1]=u[0].add(e[3*t][3*n]),e[3*t][3*n+2]=u[1].add(e[3*t][3*n]),e[3*t][3*n+3]=u[2].add(e[3*t][3*n])):1===i?(e[3*t+1][3*n+3]=u[0].add(e[3*t][3*n+3]),e[3*t+2][3*n+3]=u[1].add(e[3*t][3*n+3]),e[3*t+3][3*n+3]=u[2].add(e[3*t][3*n+3])):2===i?(e[3*t+3][3*n+2]=u[0].add(e[3*t+3][3*n+3]),e[3*t+3][3*n+1]=u[1].add(e[3*t+3][3*n+3]),0===n&amp;&amp;(e[3*t+3][3*n+0]=u[2].add(e[3*t+3][3*n+3]))):(e[3*t+2][3*n]=u[0].add(e[3*t+3][3*n]),e[3*t+1][3*n]=u[1].add(e[3*t+3][3*n]));break;case&quot;C&quot;:0===i?(e[3*t][3*n+1]=u[0],e[3*t][3*n+2]=u[1],e[3*t][3*n+3]=u[2]):1===i?(e[3*t+1][3*n+3]=u[0],e[3*t+2][3*n+3]=u[1],e[3*t+3][3*n+3]=u[2]):2===i?(e[3*t+3][3*n+2]=u[0],e[3*t+3][3*n+1]=u[1],0===n&amp;&amp;(e[3*t+3][3*n+0]=u[2])):(e[3*t+2][3*n]=u[0],e[3*t+1][3*n]=u[1]);break;default:console.error(&quot;mesh.js: &quot;+c+&quot; invalid path type.&quot;)}if(0===t&amp;&amp;0===n||r&gt;0){let e=window.getComputedStyle(o[r]).stopColor.match(/^rgb\s*\(\s*(\d+)\s*,\s*(\d+)\s*,\s*(\d+)\s*\)$/i),a=window.getComputedStyle(o[r]).stopOpacity,h=255;a&amp;&amp;(h=Math.floor(255*a)),e&amp;&amp;(0===i?(s[t][n]=[],s[t][n][0]=Math.floor(e[1]),s[t][n][1]=Math.floor(e[2]),s[t][n][2]=Math.floor(e[3]),s[t][n][3]=h):1===i?(s[t][n+1]=[],s[t][n+1][0]=Math.floor(e[1]),s[t][n+1][1]=Math.floor(e[2]),s[t][n+1][2]=Math.floor(e[3]),s[t][n+1][3]=h):2===i?(s[t+1][n+1]=[],s[t+1][n+1][0]=Math.floor(e[1]),s[t+1][n+1][1]=Math.floor(e[2]),s[t+1][n+1][2]=Math.floor(e[3]),s[t+1][n+1][3]=h):3===i&amp;&amp;(s[t+1][n]=[],s[t+1][n][0]=Math.floor(e[1]),s[t+1][n][1]=Math.floor(e[2]),s[t+1][n][2]=Math.floor(e[3]),s[t+1][n][3]=h))}}e[3*t+1][3*n+1]=new x,e[3*t+1][3*n+2]=new x,e[3*t+2][3*n+1]=new x,e[3*t+2][3*n+2]=new x,e[3*t+1][3*n+1].x=(-4*e[3*t][3*n].x+6*(e[3*t][3*n+1].x+e[3*t+1][3*n].x)+-2*(e[3*t][3*n+3].x+e[3*t+3][3*n].x)+3*(e[3*t+3][3*n+1].x+e[3*t+1][3*n+3].x)+-1*e[3*t+3][3*n+3].x)/9,e[3*t+1][3*n+2].x=(-4*e[3*t][3*n+3].x+6*(e[3*t][3*n+2].x+e[3*t+1][3*n+3].x)+-2*(e[3*t][3*n].x+e[3*t+3][3*n+3].x)+3*(e[3*t+3][3*n+2].x+e[3*t+1][3*n].x)+-1*e[3*t+3][3*n].x)/9,e[3*t+2][3*n+1].x=(-4*e[3*t+3][3*n].x+6*(e[3*t+3][3*n+1].x+e[3*t+2][3*n].x)+-2*(e[3*t+3][3*n+3].x+e[3*t][3*n].x)+3*(e[3*t][3*n+1].x+e[3*t+2][3*n+3].x)+-1*e[3*t][3*n+3].x)/9,e[3*t+2][3*n+2].x=(-4*e[3*t+3][3*n+3].x+6*(e[3*t+3][3*n+2].x+e[3*t+2][3*n+3].x)+-2*(e[3*t+3][3*n].x+e[3*t][3*n+3].x)+3*(e[3*t][3*n+2].x+e[3*t+2][3*n].x)+-1*e[3*t][3*n].x)/9,e[3*t+1][3*n+1].y=(-4*e[3*t][3*n].y+6*(e[3*t][3*n+1].y+e[3*t+1][3*n].y)+-2*(e[3*t][3*n+3].y+e[3*t+3][3*n].y)+3*(e[3*t+3][3*n+1].y+e[3*t+1][3*n+3].y)+-1*e[3*t+3][3*n+3].y)/9,e[3*t+1][3*n+2].y=(-4*e[3*t][3*n+3].y+6*(e[3*t][3*n+2].y+e[3*t+1][3*n+3].y)+-2*(e[3*t][3*n].y+e[3*t+3][3*n+3].y)+3*(e[3*t+3][3*n+2].y+e[3*t+1][3*n].y)+-1*e[3*t+3][3*n].y)/9,e[3*t+2][3*n+1].y=(-4*e[3*t+3][3*n].y+6*(e[3*t+3][3*n+1].y+e[3*t+2][3*n].y)+-2*(e[3*t+3][3*n+3].y+e[3*t][3*n].y)+3*(e[3*t][3*n+1].y+e[3*t+2][3*n+3].y)+-1*e[3*t][3*n+3].y)/9,e[3*t+2][3*n+2].y=(-4*e[3*t+3][3*n+3].y+6*(e[3*t+3][3*n+2].y+e[3*t+2][3*n+3].y)+-2*(e[3*t+3][3*n].y+e[3*t][3*n+3].y)+3*(e[3*t][3*n+2].y+e[3*t+2][3*n].y)+-1*e[3*t][3*n].y)/9}}this.nodes=e,this.colors=s}paintMesh(t,e){let s=(this.nodes.length-1)/3,r=(this.nodes[0].length-1)/3;if(&quot;bilinear&quot;===this.type||s&lt;2||r&lt;2){let n;for(let o=0;o&lt;s;++o)for(let s=0;s&lt;r;++s){let r=[];for(let t=3*o,e=3*o+4;t&lt;e;++t)r.push(this.nodes[t].slice(3*s,3*s+4));let i=[];i.push(this.colors[o].slice(s,s+2)),i.push(this.colors[o+1].slice(s,s+2)),(n=new m(r,i)).paint(t,e)}}else{let n,o,a,h,l,d,u;const x=s,g=r;s++,r++;let w=new Array(s);for(let t=0;t&lt;s;++t){w[t]=new Array(r);for(let e=0;e&lt;r;++e)w[t][e]=[],w[t][e][0]=this.nodes[3*t][3*e],w[t][e][1]=this.colors[t][e]}for(let t=0;t&lt;s;++t)for(let e=0;e&lt;r;++e)0!==t&amp;&amp;t!==x&amp;&amp;(n=i(w[t-1][e][0],w[t][e][0]),o=i(w[t+1][e][0],w[t][e][0]),w[t][e][2]=c(w[t-1][e][1],w[t][e][1],w[t+1][e][1],n,o)),0!==e&amp;&amp;e!==g&amp;&amp;(n=i(w[t][e-1][0],w[t][e][0]),o=i(w[t][e+1][0],w[t][e][0]),w[t][e][3]=c(w[t][e-1][1],w[t][e][1],w[t][e+1][1],n,o));for(let t=0;t&lt;r;++t){w[0][t][2]=[],w[x][t][2]=[];for(let e=0;e&lt;4;++e)n=i(w[1][t][0],w[0][t][0]),o=i(w[x][t][0],w[x-1][t][0]),w[0][t][2][e]=n&gt;0?2*(w[1][t][1][e]-w[0][t][1][e])/n-w[1][t][2][e]:0,w[x][t][2][e]=o&gt;0?2*(w[x][t][1][e]-w[x-1][t][1][e])/o-w[x-1][t][2][e]:0}for(let t=0;t&lt;s;++t){w[t][0][3]=[],w[t][g][3]=[];for(let e=0;e&lt;4;++e)n=i(w[t][1][0],w[t][0][0]),o=i(w[t][g][0],w[t][g-1][0]),w[t][0][3][e]=n&gt;0?2*(w[t][1][1][e]-w[t][0][1][e])/n-w[t][1][3][e]:0,w[t][g][3][e]=o&gt;0?2*(w[t][g][1][e]-w[t][g-1][1][e])/o-w[t][g-1][3][e]:0}for(let s=0;s&lt;x;++s)for(let r=0;r&lt;g;++r){let n=i(w[s][r][0],w[s+1][r][0]),o=i(w[s][r+1][0],w[s+1][r+1][0]),c=i(w[s][r][0],w[s][r+1][0]),x=i(w[s+1][r][0],w[s+1][r+1][0]),g=[[],[],[],[]];for(let t=0;t&lt;4;++t){(d=[])[0]=w[s][r][1][t],d[1]=w[s+1][r][1][t],d[2]=w[s][r+1][1][t],d[3]=w[s+1][r+1][1][t],d[4]=w[s][r][2][t]*n,d[5]=w[s+1][r][2][t]*n,d[6]=w[s][r+1][2][t]*o,d[7]=w[s+1][r+1][2][t]*o,d[8]=w[s][r][3][t]*c,d[9]=w[s+1][r][3][t]*x,d[10]=w[s][r+1][3][t]*c,d[11]=w[s+1][r+1][3][t]*x,d[12]=0,d[13]=0,d[14]=0,d[15]=0,u=f(d);for(let e=0;e&lt;9;++e){g[t][e]=[];for(let s=0;s&lt;9;++s)g[t][e][s]=p(u,e/8,s/8),g[t][e][s]&gt;255?g[t][e][s]=255:g[t][e][s]&lt;0&amp;&amp;(g[t][e][s]=0)}}h=[];for(let t=3*s,e=3*s+4;t&lt;e;++t)h.push(this.nodes[t].slice(3*r,3*r+4));l=y(h);for(let s=0;s&lt;8;++s)for(let r=0;r&lt;8;++r)(a=new m(l[s][r],[[[g[0][s][r],g[1][s][r],g[2][s][r],g[3][s][r]],[g[0][s][r+1],g[1][s][r+1],g[2][s][r+1],g[3][s][r+1]]],[[g[0][s+1][r],g[1][s+1][r],g[2][s+1][r],g[3][s+1][r]],[g[0][s+1][r+1],g[1][s+1][r+1],g[2][s+1][r+1],g[3][s+1][r+1]]]])).paint(t,e)}}}transform(t){if(t instanceof x)for(let e=0,s=this.nodes.length;e&lt;s;++e)for(let s=0,r=this.nodes[0].length;s&lt;r;++s)this.nodes[e][s]=this.nodes[e][s].add(t);else if(t instanceof g)for(let e=0,s=this.nodes.length;e&lt;s;++e)for(let s=0,r=this.nodes[0].length;s&lt;r;++s)this.nodes[e][s]=this.nodes[e][s].transform(t)}scale(t){for(let e=0,s=this.nodes.length;e&lt;s;++e)for(let s=0,r=this.nodes[0].length;s&lt;r;++s)this.nodes[e][s]=this.nodes[e][s].scale(t)}}document.querySelectorAll(&quot;rect,circle,ellipse,path,text&quot;).forEach((r,n)=&gt;{let o=r.getAttribute(&quot;id&quot;);o||(o=&quot;patchjs_shape&quot;+n,r.setAttribute(&quot;id&quot;,o));const i=r.style.fill.match(/^url\(\s*&quot;?\s*#([^\s&quot;]+)&quot;?\s*\)/),a=r.style.stroke.match(/^url\(\s*&quot;?\s*#([^\s&quot;]+)&quot;?\s*\)/);if(i&amp;&amp;i[1]){const a=document.getElementById(i[1]);if(a&amp;&amp;&quot;meshgradient&quot;===a.nodeName){const i=r.getBBox();let l=document.createElementNS(s,&quot;canvas&quot;);d(l,{width:i.width,height:i.height});const c=l.getContext(&quot;2d&quot;);let u=c.createImageData(i.width,i.height);const f=new b(a);&quot;objectBoundingBox&quot;===a.getAttribute(&quot;gradientUnits&quot;)&amp;&amp;f.scale(new x(i.width,i.height));const p=a.getAttribute(&quot;gradientTransform&quot;);null!=p&amp;&amp;f.transform(h(p)),&quot;userSpaceOnUse&quot;===a.getAttribute(&quot;gradientUnits&quot;)&amp;&amp;f.transform(new x(-i.x,-i.y)),f.paintMesh(u.data,l.width),c.putImageData(u,0,0);const y=document.createElementNS(t,&quot;image&quot;);d(y,{width:i.width,height:i.height,x:i.x,y:i.y});let g=l.toDataURL();y.setAttributeNS(e,&quot;xlink:href&quot;,g),r.parentNode.insertBefore(y,r),r.style.fill=&quot;none&quot;;const w=document.createElementNS(t,&quot;use&quot;);w.setAttributeNS(e,&quot;xlink:href&quot;,&quot;#&quot;+o);const m=&quot;patchjs_clip&quot;+n,M=document.createElementNS(t,&quot;clipPath&quot;);M.setAttribute(&quot;id&quot;,m),M.appendChild(w),r.parentElement.insertBefore(M,r),y.setAttribute(&quot;clip-path&quot;,&quot;url(#&quot;+m+&quot;)&quot;),u=null,l=null,g=null}}if(a&amp;&amp;a[1]){const o=document.getElementById(a[1]);if(o&amp;&amp;&quot;meshgradient&quot;===o.nodeName){const i=parseFloat(r.style.strokeWidth.slice(0,-2))*(parseFloat(r.style.strokeMiterlimit)||parseFloat(r.getAttribute(&quot;stroke-miterlimit&quot;))||1),a=r.getBBox(),l=Math.trunc(a.width+i),c=Math.trunc(a.height+i),u=Math.trunc(a.x-i/2),f=Math.trunc(a.y-i/2);let p=document.createElementNS(s,&quot;canvas&quot;);d(p,{width:l,height:c});const y=p.getContext(&quot;2d&quot;);let g=y.createImageData(l,c);const w=new b(o);&quot;objectBoundingBox&quot;===o.getAttribute(&quot;gradientUnits&quot;)&amp;&amp;w.scale(new x(l,c));const m=o.getAttribute(&quot;gradientTransform&quot;);null!=m&amp;&amp;w.transform(h(m)),&quot;userSpaceOnUse&quot;===o.getAttribute(&quot;gradientUnits&quot;)&amp;&amp;w.transform(new x(-u,-f)),w.paintMesh(g.data,p.width),y.putImageData(g,0,0);const M=document.createElementNS(t,&quot;image&quot;);d(M,{width:l,height:c,x:0,y:0});let S=p.toDataURL();M.setAttributeNS(e,&quot;xlink:href&quot;,S);const k=&quot;pattern_clip&quot;+n,A=document.createElementNS(t,&quot;pattern&quot;);d(A,{id:k,patternUnits:&quot;userSpaceOnUse&quot;,width:l,height:c,x:u,y:f}),A.appendChild(M),o.parentNode.appendChild(A),r.style.stroke=&quot;url(#&quot;+k+&quot;)&quot;,g=null,p=null,S=null}}})}();
</script>
</svg>
