<?xml version="1.0" encoding="UTF-8" standalone="no"?>
<!-- Created with Inkscape (http://www.inkscape.org/) -->
<svg
   xmlns:dc="http://purl.org/dc/elements/1.1/"
   xmlns:cc="http://creativecommons.org/ns#"
   xmlns:rdf="http://www.w3.org/1999/02/22-rdf-syntax-ns#"
   xmlns:svg="http://www.w3.org/2000/svg"
   xmlns="http://www.w3.org/2000/svg"
   xmlns:xlink="http://www.w3.org/1999/xlink"
   xmlns:sodipodi="http://sodipodi.sourceforge.net/DTD/sodipodi-0.dtd"
   xmlns:inkscape="http://www.inkscape.org/namespaces/inkscape"
   width="750"
   height="625"
   id="svg2"
   sodipodi:version="0.32"
   inkscape:version="0.46"
   version="1.0"
   sodipodi:docname="mikaelka_inkscape047_aboutscreen_contest2.1.svg"
   inkscape:output_extension="org.inkscape.output.svg.inkscape"
   inkscape:export-filename="E:\mikabertrand\2009\Concours_inkscape047\mikaelka_inkscape047_aboutscreen_contest2.1.png"
   inkscape:export-xdpi="90"
   inkscape:export-ydpi="90">
  <defs
     id="defs4">
    <inkscape:perspective
       sodipodi:type="inkscape:persp3d"
       inkscape:vp_x="0 : 312.5 : 1"
       inkscape:vp_y="0 : 1000 : 0"
       inkscape:vp_z="750 : 312.5 : 1"
       inkscape:persp3d-origin="375 : 208.33333 : 1"
       id="perspective90" />
    <pattern
       inkscape:collect="always"
       xlink:href="#pattern2485"
       id="pattern4336"
       patternTransform="translate(-110.07154,491.58073)" />
    <pattern
       inkscape:collect="always"
       xlink:href="#pattern4253"
       id="pattern4325"
       patternTransform="matrix(1.4781911,0,0,1.4781911,6.8408203e-6,-1.1982422e-6)" />
    <pattern
       inkscape:collect="always"
       xlink:href="#pattern4216"
       id="pattern4256"
       patternTransform="translate(4.0283203e-6,3.5439453e-6)" />
    <pattern
       inkscape:collect="always"
       xlink:href="#pattern3983"
       id="pattern4015"
       patternTransform="matrix(0.9744696,0,0,0.9841858,-139.36893,208.16848)" />
    <pattern
       patternUnits="userSpaceOnUse"
       width="51.284988"
       height="49.676589"
       patternTransform="translate(-110.07154,491.58073)"
       id="pattern2485">
      <g
         style="opacity:0.1"
         transform="matrix(0.1529506,0,0,0.1529506,-33.599584,-30.422536)"
         id="g4000">
        <g
           id="g4002"
           transform="matrix(0.8449699,0,0,0.8449699,176.44834,160.34465)">
          <path
             id="path4004"
             style="fill:#000000;fill-opacity:1;fill-rule:evenodd"
             d="M 249.515,45.634377 C 238.20163,45.634377 226.9094,49.954935 218.24026,58.62407 L 64.14857,212.6865 C 55.65167,221.18324 51.3863,232.22997 51.21739,243.31761 L 51.15888,243.31761 C 51.15888,243.35708 51.21546,243.39506 51.21739,243.43463 C 51.21503,243.62072 51.15888,243.8044 51.15888,243.99049 L 51.42218,243.99049 C 54.3713,255.21101 130.57169,269.51382 139.07336,278.0153 C 151.91241,290.85447 89.8399,300.28335 102.6788,313.12258 C 115.51786,325.96163 180.26903,337.96514 193.1093,350.80438 C 205.94838,363.64345 166.8708,377.31473 179.71002,390.1538 C 192.54909,402.99302 235.67671,386.94441 227.8655,420.43382 C 245.20379,437.7721 281.37772,429.49264 305.59887,412.15436 C 318.43793,399.31529 280.9695,400.44761 293.80867,387.60852 C 306.64774,374.76929 339.05598,374.70004 366.36372,343.98773 C 355.37209,326.893 319.38271,319.6132 332.22189,306.77401 C 345.06095,293.93495 370.02178,300.45607 423.88114,275.99663 C 450.17307,264.05582 448.00106,254.98643 447.90037,243.99049 C 447.89826,243.75911 447.90037,243.55076 447.90037,243.31761 L 447.84186,243.31761 C 447.673,232.22996 443.37815,221.18324 434.88143,212.6865 L 280.81898,58.62407 C 272.14985,49.954935 260.82836,45.634377 249.515,45.634377 z" />
          <path
             id="path4006"
             style="fill:#ffffff;fill-opacity:1;fill-rule:evenodd"
             d="M 248.19848,65.674779 C 253.22797,65.805803 257.29011,69.639858 265.25476,74.802672 L 338.04385,128.78011 C 343.52618,132.3473 347.53364,137.45289 347.61896,143.7007 L 304.48715,122.87039 L 300.1865,155.43239 L 276.45982,144.31508 L 239.83124,168.77315 L 225.81758,120.44214 L 207.7666,162.71714 L 157.35839,167.74919 L 157.91426,145.30979 C 157.91426,139.92007 186.97155,102.18774 204.66545,93.204742 L 237.05191,69.946167 C 241.83064,66.848474 245.18078,65.596167 248.19848,65.674779 z M 181.20208,285.88517 C 204.14619,291.83549 229.67769,299.64222 250.15863,299.78181 L 251.03631,308.99747 C 233.4982,307.18969 196.38816,298.72196 187.63842,294.25241 L 181.20208,285.88517 z" />
          <path
             id="path4008"
             style="fill:#000000;fill-opacity:1;fill-rule:evenodd"
             d="M 367.23262,363.44352 C 386.05667,367.20791 389.82312,380.38545 386.05667,384.14986 C 382.29326,387.91524 372.8812,391.67965 365.35133,386.03198 C 357.81948,380.38545 357.81948,367.20791 367.23262,363.44352 z" />
          <path
             id="path4010"
             style="fill:#000000;fill-opacity:1;fill-rule:evenodd"
             d="M 176.73664,364.70098 C 174.9024,365.19019 159.57875,351.98521 147.44379,358.10564 C 135.31192,364.2252 127.16746,377.9285 138.50146,383.55166 C 149.83654,389.17482 157.93903,382.69051 167.87583,375.71303 C 177.81373,368.73661 177.45516,367.39244 176.73664,364.70098 z" />
          <path
             id="path4012"
             style="fill:#000000;fill-opacity:1;fill-rule:evenodd"
             d="M 400.63226,331.2004 C 410.86964,328.64063 434.51803,331.2004 430.75158,346.25818 C 426.98824,361.3199 394.98767,355.67011 374.27841,348.1434 C 372.39611,333.08267 395.80707,332.40607 400.63226,331.2004 z" />
        </g>
      </g>
    </pattern>
    <pattern
       inkscape:collect="always"
       xlink:href="#pattern2485"
       id="pattern3983"
       patternTransform="translate(-110.07154,491.58073)" />
    <linearGradient
       inkscape:collect="always"
       id="linearGradient3497">
      <stop
         style="stop-color:#ffffff;stop-opacity:0.4"
         offset="0"
         id="stop3499" />
      <stop
         style="stop-color:#ffffff;stop-opacity:0;"
         offset="1"
         id="stop3501" />
    </linearGradient>
    <filter
       inkscape:collect="always"
       id="filter3575">
      <feGaussianBlur
         inkscape:collect="always"
         stdDeviation="1.9889657"
         id="feGaussianBlur3577" />
    </filter>
    <linearGradient
       inkscape:collect="always"
       xlink:href="#linearGradient3497"
       id="linearGradient3581"
       gradientUnits="userSpaceOnUse"
       x1="473.30899"
       y1="592.12189"
       x2="473.30899"
       y2="439.06796" />
    <pattern
       patternUnits="userSpaceOnUse"
       width="52.582616"
       height="50.93352"
       patternTransform="matrix(7.5466751,0,0,7.5466751,51.15888,45.634377)"
       id="pattern4207">
      <path
         id="path4197"
         style="fill:#000000;fill-opacity:1;fill-rule:evenodd"
         d="M 26.283909,-1.7842498e-14 C 24.784789,-1.7842498e-14 23.288471,0.57251147 22.139734,1.7212472 L 1.7212468,22.135857 C 0.5953337,23.261749 0.030135126,24.725537 0.0077530833,26.194746 L -1.5781647e-15,26.194746 C -1.5781647e-15,26.199976 0.0074973415,26.205008 0.0077530833,26.210252 C 0.0074403628,26.23491 -1.5781647e-15,26.259249 -1.5781647e-15,26.283908 L 0.034889537,26.283908 C 0.42567356,27.770724 10.522887,29.665971 11.649432,30.792491 C 13.350718,32.493792 5.1255712,33.743201 6.8268369,35.44451 C 8.5281239,37.145796 17.108216,38.736365 18.809664,40.437676 C 20.510953,42.138965 15.332835,43.950528 17.034143,45.651816 C 18.735431,47.353124 24.450215,45.226544 23.415162,49.664182 C 25.712636,51.961655 30.505996,50.864554 33.715509,48.567082 C 35.416796,46.865793 30.451903,47.015836 32.153205,45.314545 C 33.854493,43.613235 38.148867,43.604059 41.767379,39.534411 C 40.310893,37.269211 35.541987,36.304574 37.24329,34.60327 C 38.944577,32.901983 42.252104,33.766088 49.388937,30.525 C 52.872846,28.942739 52.585036,27.740966 52.571694,26.283908 C 52.571414,26.253248 52.571694,26.22564 52.571694,26.194746 L 52.563941,26.194746 C 52.541565,24.725536 51.97246,23.261749 50.846571,22.135857 L 30.431958,1.7212472 C 29.283223,0.57251147 27.783027,-1.7842498e-14 26.283909,-1.7842498e-14 z" />
      <path
         id="path4199"
         style="fill:#ffffff;fill-opacity:1;fill-rule:evenodd"
         d="M 26.109459,2.6555273 C 26.77591,2.6728892 27.314179,3.1809348 28.369564,3.8650525 L 38.014751,11.017532 C 38.741207,11.490216 39.27223,12.166751 39.283536,12.99464 L 33.568196,10.234443 L 32.998323,14.549191 L 29.854332,13.07605 L 25.000727,16.316957 L 23.143795,9.9126784 L 20.751883,15.514483 L 14.072358,16.181273 L 14.146015,13.207858 C 14.146015,12.493673 17.996359,7.4938119 20.340954,6.3034866 L 24.632441,3.2215234 C 25.265665,2.8110521 25.709587,2.6451106 26.109459,2.6555273 z M 17.231854,31.835317 C 20.272148,32.623786 23.655293,33.658246 26.369196,33.676743 L 26.485496,34.897898 C 24.161544,34.658351 19.244141,33.536303 18.084725,32.944049 L 17.231854,31.835317 z" />
      <path
         id="path4201"
         style="fill:#000000;fill-opacity:1;fill-rule:evenodd"
         d="M 41.882516,42.112472 C 44.376866,42.611287 44.875954,44.357425 44.376866,44.856242 C 43.878182,45.355188 42.631002,45.854005 41.633229,45.105639 C 40.635193,44.357425 40.635193,42.611287 41.882516,42.112472 z" />
      <path
         id="path4203"
         style="fill:#000000;fill-opacity:1;fill-rule:evenodd"
         d="M 16.640144,42.279097 C 16.397091,42.343921 14.366575,40.594147 12.758587,41.405157 C 11.151009,42.216052 10.071797,44.031858 11.573651,44.776975 C 13.075647,45.522093 14.149297,44.662866 15.46601,43.738289 C 16.782868,42.813853 16.735354,42.635738 16.640144,42.279097 z" />
      <path
         id="path4205"
         style="fill:#000000;fill-opacity:1;fill-rule:evenodd"
         d="M 46.308259,37.839979 C 47.6648,37.500787 50.798418,37.839979 50.29933,39.835265 C 49.800655,41.831074 45.560301,41.082428 42.816145,40.085073 C 42.566723,38.089396 45.668879,37.99974 46.308259,37.839979 z" />
    </pattern>
    <pattern
       patternUnits="userSpaceOnUse"
       width="52.582616"
       height="50.93352"
       patternTransform="translate(246.049,-93.363354)"
       id="pattern4216">
      <g
         style="fill:#000000"
         transform="matrix(0.1568206,0,0,0.1568206,-34.44973,-31.192296)"
         id="g4193">
        <g
           style="fill:#000000"
           id="g4195"
           transform="matrix(0.8449699,0,0,0.8449699,176.44834,160.34465)">
          <rect
             id="rect4214"
             y="45.634377"
             x="51.158878"
             height="384.37872"
             width="396.82391"
             style="fill:url(#pattern4207);stroke:none" />
        </g>
      </g>
    </pattern>
    <pattern
       patternUnits="userSpaceOnUse"
       width="52.582615"
       height="50.933521"
       patternTransform="matrix(1.4781911,0,0,1.4781911,239.76287,-99.452348)"
       id="pattern4253">
      <rect
         id="rect4221"
         y="0"
         x="0"
         height="50.933521"
         width="52.582615"
         style="opacity:0.2;fill:url(#pattern4256);stroke:none" />
    </pattern>
    <pattern
       patternUnits="userSpaceOnUse"
       width="77.72715"
       height="75.289482"
       patternTransform="translate(-111.89325,21.588705)"
       id="pattern4322">
      <rect
         id="rect4258"
         y="0"
         x="0"
         height="75.289482"
         width="77.72715"
         style="fill:url(#pattern4325);stroke:none" />
    </pattern>
    <filter
       inkscape:collect="always"
       id="filter4377">
      <feGaussianBlur
         inkscape:collect="always"
         stdDeviation="3.4375"
         id="feGaussianBlur4379" />
    </filter>
  </defs>
  <sodipodi:namedview
     id="base"
     pagecolor="#ffffff"
     bordercolor="#666666"
     borderopacity="1.0"
     inkscape:pageopacity="0.0"
     inkscape:pageshadow="2"
     inkscape:zoom="0.54167821"
     inkscape:cx="144.02809"
     inkscape:cy="271.27002"
     inkscape:document-units="px"
     inkscape:current-layer="g4442"
     showgrid="false"
     borderlayer="true"
     inkscape:window-width="1276"
     inkscape:window-height="750"
     inkscape:window-x="0"
     inkscape:window-y="14"
     showguides="true"
     inkscape:guide-bbox="true" />
  <metadata
     id="metadata7">
    <rdf:RDF>
      <cc:Work
         rdf:about="">
        <dc:format>image/svg+xml</dc:format>
        <dc:type
           rdf:resource="http://purl.org/dc/dcmitype/StillImage" />
      </cc:Work>
    </rdf:RDF>
  </metadata>
  <g
     inkscape:label="Calque 1"
     inkscape:groupmode="layer"
     id="layer1">
    <rect
       style="opacity:1;fill:#fff9e1;fill-opacity:1;stroke:none;stroke-width:0.20000000000000001;stroke-linecap:round;stroke-linejoin:round;stroke-miterlimit:4;stroke-dasharray:none;stroke-dashoffset:0;stroke-opacity:1"
       id="rect3311"
       width="750.64008"
       height="626.0119"
       x="-0.13063519"
       y="-0.30290362" />
    <path
       sodipodi:type="arc"
       style="opacity:0;fill:url(#linearGradient3581);fill-opacity:1;stroke:none;stroke-width:0.20000000000000001;stroke-linecap:round;stroke-linejoin:round;stroke-miterlimit:4;stroke-dasharray:none;stroke-dashoffset:0;stroke-opacity:1;filter:url(#filter3575)"
       id="path3579"
       sodipodi:cx="469.74161"
       sodipodi:cy="361.7153"
       sodipodi:rx="198.63657"
       sodipodi:ry="198.63657"
       d="M 668.37817,361.7153 A 198.63657,198.63657 0 1 1 271.10504,361.7153 A 198.63657,198.63657 0 1 1 668.37817,361.7153 z"
       transform="matrix(1.26686,0,0,0.6945441,-228.4072,136.40933)" />
    <g
       id="g3282"
       transform="translate(-254.79388,70.313791)"
       style="fill:#ffffff" />
    <rect
       style="opacity:1;fill:url(#pattern4336);fill-opacity:1;stroke:none;stroke-width:0.2;stroke-linecap:round;stroke-linejoin:round;stroke-miterlimit:4;stroke-dasharray:none;stroke-dashoffset:0;stroke-opacity:1"
       id="rect4026"
       width="750"
       height="625"
       x="0"
       y="0" />
    <rect
       style="opacity:0.2;fill:none;fill-opacity:1;stroke:none;stroke-width:2;stroke-linecap:round;stroke-linejoin:round;stroke-miterlimit:4;stroke-dasharray:none;stroke-dashoffset:0;stroke-opacity:1"
       id="rect3336"
       width="771.18909"
       height="166.50674"
       x="-20.789785"
       y="-250.02698" />
    <text
       xml:space="preserve"
       style="font-size:26.05671883px;font-style:normal;font-variant:normal;font-weight:normal;font-stretch:normal;text-align:start;line-height:100%;writing-mode:lr-tb;text-anchor:start;opacity:0.4;fill:#ffffff;fill-opacity:1;stroke:none;stroke-width:1px;stroke-linecap:butt;stroke-linejoin:miter;stroke-opacity:1;font-family:Verdana;-inkscape-font-specification:Verdana"
       x="532.26208"
       y="-222.15855"
       id="text2395"
       sodipodi:linespacing="100%"><tspan
         sodipodi:role="line"
         id="tspan2397"
         x="532.26208"
         y="-222.15855"
         style="font-size:26.05671883px;font-style:normal;font-variant:normal;font-weight:normal;font-stretch:normal;text-align:start;line-height:100%;writing-mode:lr-tb;text-anchor:start;fill:#ffffff;font-family:OldSansBlack;-inkscape-font-specification:OldSansBlack">www.inkscape.org</tspan></text>
    <text
       xml:space="preserve"
       style="font-size:10px;font-style:normal;font-variant:normal;font-weight:normal;font-stretch:normal;text-align:start;line-height:125%;writing-mode:lr-tb;text-anchor:start;fill:#000000;fill-opacity:1;stroke:none;stroke-width:1px;stroke-linecap:butt;stroke-linejoin:miter;stroke-opacity:1;font-family:Verdana;-inkscape-font-specification:Verdana"
       x="1025.049"
       y="238.37299"
       id="text4147"
       sodipodi:linespacing="125%"><tspan
         sodipodi:role="line"
         id="tspan4149"
         x="1025.049"
         y="238.37299">z</tspan></text>
    <flowRoot
       xml:space="preserve"
       id="flowRoot4151"
       style="fill:black;stroke:none;stroke-opacity:1;stroke-width:1px;stroke-linejoin:miter;stroke-linecap:butt;fill-opacity:1;font-family:Verdana;font-style:normal;font-weight:normal;font-size:10px;-inkscape-font-specification:Verdana;font-stretch:normal;font-variant:normal;text-anchor:start;text-align:start;writing-mode:lr;line-height:125%"><flowRegion
         id="flowRegion4153"><rect
           id="rect4155"
           width="794.37231"
           height="415.86771"
           x="-37.363113"
           y="152.27538" /></flowRegion><flowPara
         id="flowPara4157" /></flowRoot>    <rect
       style="fill:url(#pattern4322);stroke:none"
       width="77.72715"
       height="75.289482"
       x="-111.89325"
       y="21.588705"
       id="rect4327" />
    <g
       id="g4442">
      <g
         id="g4381"
         transform="matrix(0.830878,0,0,0.830878,122.94481,100.74224)">
        <rect
           style="opacity:0.1;fill:#000000;fill-opacity:1;stroke:none;stroke-width:3;stroke-linecap:round;stroke-linejoin:round;stroke-miterlimit:4;stroke-dasharray:none;stroke-dashoffset:0;stroke-opacity:1"
           id="rect4291"
           width="199.00146"
           height="23.411938"
           x="527.95782"
           y="583.31238" />
        <rect
           style="opacity:1;fill:#ffffff;fill-opacity:1;stroke:none;stroke-width:3;stroke-linecap:round;stroke-linejoin:round;stroke-miterlimit:4;stroke-dasharray:none;stroke-dashoffset:0;stroke-opacity:1"
           id="rect4283"
           width="199.00146"
           height="23.411938"
           x="526.27338"
           y="584.63147" />
        <text
           xml:space="preserve"
           style="font-size:14.71626759px;font-style:normal;font-variant:normal;font-weight:normal;font-stretch:normal;text-align:start;line-height:100%;writing-mode:lr-tb;text-anchor:start;fill:#a4dd46;fill-opacity:1;stroke:none;stroke-width:1px;stroke-linecap:butt;stroke-linejoin:miter;stroke-opacity:1;font-family:Verdana;-inkscape-font-specification:Verdana"
           x="539.22125"
           y="600.32568"
           id="text4285"
           sodipodi:linespacing="100%"><tspan
             sodipodi:role="line"
             id="tspan4287"
             x="539.22125"
             y="600.32568"
             style="font-size:14.71626759px;font-style:normal;font-variant:normal;font-weight:normal;font-stretch:normal;text-align:start;line-height:100%;writing-mode:lr-tb;text-anchor:start;fill:#a4dd46;fill-opacity:1;font-family:OldSansBlack;-inkscape-font-specification:OldSansBlack">mickaelbertrand.imagika.fr</tspan></text>
      </g>
      <g
         id="g4414">
        <g
           id="g3484"
           transform="matrix(0.1568206,0,0,0.1568206,213.93836,111.42232)">
          <g
             transform="matrix(0.8449699,0,0,0.8449699,176.44834,160.34465)"
             id="g3217">
            <path
               d="M 249.515,45.634377 C 238.20163,45.634377 226.9094,49.954935 218.24026,58.62407 L 64.14857,212.6865 C 55.65167,221.18324 51.3863,232.22997 51.21739,243.31761 L 51.15888,243.31761 C 51.15888,243.35708 51.21546,243.39506 51.21739,243.43463 C 51.21503,243.62072 51.15888,243.8044 51.15888,243.99049 L 51.42218,243.99049 C 54.3713,255.21101 130.57169,269.51382 139.07336,278.0153 C 151.91241,290.85447 89.8399,300.28335 102.6788,313.12258 C 115.51786,325.96163 180.26903,337.96514 193.1093,350.80438 C 205.94838,363.64345 166.8708,377.31473 179.71002,390.1538 C 192.54909,402.99302 235.67671,386.94441 227.8655,420.43382 C 245.20379,437.7721 281.37772,429.49264 305.59887,412.15436 C 318.43793,399.31529 280.9695,400.44761 293.80867,387.60852 C 306.64774,374.76929 339.05598,374.70004 366.36372,343.98773 C 355.37209,326.893 319.38271,319.6132 332.22189,306.77401 C 345.06095,293.93495 370.02178,300.45607 423.88114,275.99663 C 450.17307,264.05582 448.00106,254.98643 447.90037,243.99049 C 447.89826,243.75911 447.90037,243.55076 447.90037,243.31761 L 447.84186,243.31761 C 447.673,232.22996 443.37815,221.18324 434.88143,212.6865 L 280.81898,58.62407 C 272.14985,49.954935 260.82836,45.634377 249.515,45.634377 z"
               style="fill:#9fdc3d;fill-opacity:1;fill-rule:evenodd"
               id="path2165" />
            <path
               d="M 248.19848,65.674779 C 253.22797,65.805803 257.29011,69.639858 265.25476,74.802672 L 338.04385,128.78011 C 343.52618,132.3473 347.53364,137.45289 347.61896,143.7007 L 304.48715,122.87039 L 300.1865,155.43239 L 276.45982,144.31508 L 239.83124,168.77315 L 225.81758,120.44214 L 207.7666,162.71714 L 157.35839,167.74919 L 157.91426,145.30979 C 157.91426,139.92007 186.97155,102.18774 204.66545,93.204742 L 237.05191,69.946167 C 241.83064,66.848474 245.18078,65.596167 248.19848,65.674779 z M 181.20208,285.88517 C 204.14619,291.83549 229.67769,299.64222 250.15863,299.78181 L 251.03631,308.99747 C 233.4982,307.18969 196.38816,298.72196 187.63842,294.25241 L 181.20208,285.88517 z"
               style="fill:#ffffff;fill-opacity:1;fill-rule:evenodd"
               id="path2162" />
            <path
               d="M 367.23262,363.44352 C 386.05667,367.20791 389.82312,380.38545 386.05667,384.14986 C 382.29326,387.91524 372.8812,391.67965 365.35133,386.03198 C 357.81948,380.38545 357.81948,367.20791 367.23262,363.44352 z"
               style="fill:#9fdc3d;fill-opacity:1;fill-rule:evenodd"
               id="droplet01" />
            <path
               d="M 176.73664,364.70098 C 174.9024,365.19019 159.57875,351.98521 147.44379,358.10564 C 135.31192,364.2252 127.16746,377.9285 138.50146,383.55166 C 149.83654,389.17482 157.93903,382.69051 167.87583,375.71303 C 177.81373,368.73661 177.45516,367.39244 176.73664,364.70098 z"
               style="fill:#9fdc3d;fill-opacity:1;fill-rule:evenodd"
               id="droplet02" />
            <path
               d="M 400.63226,331.2004 C 410.86964,328.64063 434.51803,331.2004 430.75158,346.25818 C 426.98824,361.3199 394.98767,355.67011 374.27841,348.1434 C 372.39611,333.08267 395.80707,332.40607 400.63226,331.2004 z"
               style="fill:#9fdc3d;fill-opacity:1;fill-rule:evenodd"
               id="droplet03" />
          </g>
        </g>
        <g
           id="g4402">
          <path
             sodipodi:nodetypes="cccccccc"
             id="path4245"
             d="M 262.83149,192.15267 L 224.10925,216.56239 L 212.70498,216.56239 L 212.70498,351.69793 L 506.47118,351.69793 L 506.47118,216.56239 L 262.83149,216.56239 L 262.83149,192.15267 z"
             style="opacity:0.1;fill:#000000;fill-opacity:1;stroke:none;stroke-width:3;stroke-linecap:round;stroke-linejoin:round;stroke-miterlimit:4;stroke-dasharray:none;stroke-dashoffset:0;stroke-opacity:1" />
          <path
             sodipodi:nodetypes="cccccccc"
             id="rect4223"
             d="M 261.23389,194.04569 L 222.51165,218.45541 L 211.10738,218.45541 L 211.10738,354.49611 L 504.87358,354.49611 L 504.87358,218.45541 L 261.23389,218.45541 L 261.23389,194.04569 z"
             style="opacity:1;fill:#ffffff;fill-opacity:1;stroke:none;stroke-width:3;stroke-linecap:round;stroke-linejoin:round;stroke-miterlimit:4;stroke-dasharray:none;stroke-dashoffset:0;stroke-opacity:1" />
          <g
             transform="matrix(1.0456639,0,0,1.0456639,-118.85396,-32.610575)"
             id="g4225">
            <path
               id="text2391"
               d="M 344.54131,354.22198 C 345.74209,352.94053 346.62294,351.38555 347.18385,349.55705 C 347.74472,347.72856 348.02516,345.62655 348.02519,343.251 C 348.02516,340.98138 347.75816,338.93232 347.22418,337.10381 C 346.69015,335.27533 345.86246,333.70712 344.74111,332.39917 C 343.61971,331.09126 342.19814,330.08353 340.47638,329.37598 C 338.75459,328.66848 336.70593,328.31471 334.33041,328.31468 L 324.55942,328.31468 L 324.55942,358.10544 L 334.40984,358.10544 C 338.84155,358.10544 342.21871,356.81095 344.54131,354.22198 L 344.54131,354.22198 z M 339.77557,336.16349 C 340.36292,336.93743 340.81017,337.90504 341.11731,339.06631 C 341.42442,340.22762 341.57798,341.59563 341.578,343.17035 C 341.57798,344.45182 341.47126,345.65975 341.25784,346.79414 C 341.04438,347.92856 340.66394,348.92957 340.11651,349.79717 C 339.56904,350.66479 338.82159,351.34543 337.87416,351.83911 C 336.9267,352.33279 335.71857,352.57963 334.24976,352.57963 L 330.96629,352.57963 L 330.96629,333.8405 L 334.33041,333.8405 C 336.78658,333.84052 338.60164,334.61485 339.77557,336.16349 L 339.77557,336.16349 z M 367.1248,358.10544 L 374.25264,358.10544 L 367.76635,345.01188 C 369.42089,344.42453 370.69542,343.4836 371.58994,342.1891 C 372.4844,340.89462 372.93165,339.36633 372.93167,337.60421 C 372.93165,336.08245 372.69805,334.74112 372.23087,333.58021 C 371.76364,332.41936 371.10947,331.45175 370.26836,330.67739 C 369.42721,329.90309 368.40603,329.31572 367.20484,328.91529 C 366.00362,328.51492 364.66901,328.31471 363.20101,328.31468 L 351.22801,328.31468 L 351.22801,358.10544 L 357.59577,358.10544 L 357.59577,346.33407 L 361.67964,346.33407 L 367.1248,358.10544 z M 365.40303,334.60179 C 365.75005,334.89509 366.01706,335.28205 366.20404,335.76268 C 366.39098,336.24335 366.48447,336.83071 366.48448,337.52478 C 366.48447,338.29872 366.33762,338.91257 366.04396,339.36631 C 365.75026,339.82009 365.3633,340.16714 364.88307,340.40744 C 364.40282,340.64778 363.85557,340.80134 363.24134,340.86813 C 362.62707,340.93495 362.01323,340.96835 361.39981,340.96833 L 357.59577,340.96833 L 357.59577,333.68042 L 362.04013,333.68042 C 363.58796,333.68044 364.70892,333.98757 365.40303,334.60179 L 365.40303,334.60179 z M 393.31315,358.10544 L 399.76034,358.10544 L 391.27122,328.27436 L 383.74379,328.27436 L 375.13369,358.10544 L 381.54055,358.10544 L 383.26233,351.85988 L 391.71113,351.85988 L 393.31315,358.10544 z M 387.58693,335.84211 L 390.31074,346.4135 L 384.70427,346.4135 L 387.58693,335.84211 z M 426.5609,358.10544 L 432.72826,328.31468 L 426.68188,328.31468 L 423.03792,346.21309 L 419.55404,328.31468 L 413.14718,328.31468 L 409.38347,346.21309 L 406.01934,328.31468 L 399.93386,328.31468 L 406.17942,358.10544 L 412.50686,358.10544 L 416.35,339.12558 L 420.23469,358.10544 L 426.5609,358.10544 z M 454.25963,333.8405 L 467.19311,333.8405 L 467.19311,328.31468 L 447.89187,328.31468 L 447.89187,358.10544 L 454.25963,358.10544 L 454.25963,345.33204 L 463.94874,345.29294 L 463.90964,339.84655 L 454.25963,339.84655 L 454.25963,333.8405 z M 486.07765,358.10544 L 493.20548,358.10544 L 486.71919,345.01188 C 488.37373,344.42453 489.64826,343.4836 490.54278,342.1891 C 491.43725,340.89462 491.88449,339.36633 491.88452,337.60421 C 491.88449,336.08245 491.65089,334.74112 491.18371,333.58021 C 490.71648,332.41936 490.06231,331.45175 489.2212,330.67739 C 488.38005,329.90309 487.35888,329.31572 486.15769,328.91529 C 484.95646,328.51492 483.62185,328.31471 482.15386,328.31468 L 470.18085,328.31468 L 470.18085,358.10544 L 476.54861,358.10544 L 476.54861,346.33407 L 480.63248,346.33407 L 486.07765,358.10544 z M 484.35587,334.60179 C 484.7029,334.89509 484.9699,335.28205 485.15688,335.76268 C 485.34383,336.24335 485.43731,336.83071 485.43733,337.52478 C 485.43731,338.29872 485.29047,338.91257 484.9968,339.36631 C 484.7031,339.82009 484.31614,340.16714 483.83592,340.40744 C 483.35566,340.64778 482.80842,340.80134 482.19418,340.86813 C 481.57992,340.93495 480.96607,340.96835 480.35265,340.96833 L 476.54861,340.96833 L 476.54861,333.68042 L 480.99297,333.68042 C 482.5408,333.68044 483.66177,333.98757 484.35587,334.60179 L 484.35587,334.60179 z M 497.09018,358.10544 L 517.55231,358.10544 L 517.55231,352.57963 L 503.45672,352.57963 L 503.45672,345.33204 L 513.38778,345.29294 L 513.38778,339.84655 L 503.45672,339.84655 L 503.45672,333.8405 L 517.07084,333.8405 L 517.07084,328.31468 L 497.09018,328.31468 L 497.09018,358.10544 z M 521.56897,358.10544 L 542.0311,358.10544 L 542.0311,352.57963 L 527.93551,352.57963 L 527.93551,345.33204 L 537.86657,345.29294 L 537.86657,339.84655 L 527.93551,339.84655 L 527.93551,333.8405 L 541.54963,333.8405 L 541.54963,328.31468 L 521.56897,328.31468 L 521.56897,358.10544 z M 545.80703,358.10544 L 564.74778,358.10544 L 564.74778,352.57963 L 552.17479,352.57963 L 552.17479,328.31468 L 545.80703,328.31468 L 545.80703,358.10544 z M 579.74887,346.17399 L 587.95694,328.31468 L 581.22992,328.31468 L 576.54605,339.08648 L 571.86096,328.31468 L 565.13394,328.31468 L 573.38233,346.29374 L 573.38233,358.10544 L 579.74887,358.10544 L 579.74887,346.17399 z"
               style="font-size:40.04198456px;font-style:normal;font-variant:normal;font-weight:normal;font-stretch:normal;text-align:start;line-height:100%;writing-mode:lr-tb;text-anchor:start;fill:#adf042;fill-opacity:1;stroke:none;stroke-width:1px;stroke-linecap:butt;stroke-linejoin:miter;stroke-opacity:1;font-family:OldSansBlack;-inkscape-font-specification:OldSansBlack" />
            <path
               id="text2387"
               d="M 324.68862,302.72311 L 335.84753,302.72311 L 335.84753,250.83622 L 324.68862,250.83622 L 324.68862,302.72311 z M 366.67446,302.72311 L 376.85858,302.72311 L 376.85858,277.26812 C 376.85855,275.4548 376.63756,273.7461 376.1956,272.14201 C 375.75358,270.53797 375.07925,269.15491 374.17261,267.9928 C 373.26591,266.83076 372.10348,265.91273 370.68532,265.23872 C 369.26711,264.56478 367.5584,264.2278 365.55921,264.22776 C 363.60678,264.2278 361.74697,264.58784 359.97975,265.30789 C 358.2125,266.02802 356.56197,266.9464 355.02816,268.06303 L 355.02816,264.92373 L 345.54426,264.92373 L 345.54426,302.72311 L 355.72626,302.72311 L 355.72626,276.08263 C 356.70244,275.05964 357.8067,274.2459 359.03903,273.64142 C 360.27132,273.037 361.60756,272.73478 363.04776,272.73475 C 364.39711,272.73478 365.32719,273.15335 365.83802,273.99047 C 366.07069,274.5013 366.26828,275.15222 366.43076,275.94323 C 366.5932,276.73429 366.67443,277.71084 366.67446,278.87289 L 366.67446,302.72311 z M 405.70616,302.72311 L 416.65436,302.72311 L 404.86759,279.29005 L 416.2372,264.92373 L 404.3802,264.92373 L 394.54725,277.75764 L 394.54725,250.83622 L 384.36525,250.83622 L 384.36525,302.72311 L 394.54725,302.72311 L 394.54725,291.07682 L 397.96324,287.10107 L 405.70616,302.72311 z M 440.9941,300.42237 C 443.64457,298.33092 444.96982,295.63432 444.96985,292.33254 C 444.96982,289.12443 444.10997,286.45123 442.39029,284.31294 C 441.5063,283.28993 440.49462,282.45279 439.35528,281.80149 C 438.21588,281.15024 437.03039,280.60397 435.79881,280.16267 C 434.56719,279.72141 433.32353,279.29149 432.06783,278.87289 C 430.81209,278.45434 429.60319,277.91942 428.44113,277.26812 C 427.32586,276.61687 426.76824,275.84996 426.76825,274.96738 C 426.76824,273.80533 427.20987,273.04977 428.09314,272.7007 C 428.97639,272.35168 429.90612,272.17715 430.88234,272.17712 C 432.23027,272.17715 433.47393,272.63049 434.61333,273.53713 C 435.75268,274.44384 436.74094,275.38527 437.57811,276.36145 L 444.20364,270.57235 C 442.20439,268.34188 440.13529,266.72682 437.99633,265.72718 C 435.85732,264.7276 433.30012,264.2278 430.32471,264.22776 C 428.6504,264.2278 427.03464,264.47185 425.47741,264.95991 C 423.92016,265.44805 422.56015,266.16849 421.39737,267.12124 C 420.23458,268.07406 419.3045,269.24784 418.60712,270.64259 C 417.90973,272.03739 417.56103,273.64145 417.56103,275.45477 C 417.56103,279.08149 418.70041,281.75469 420.97916,283.47437 C 423.21107,285.10186 425.65228,286.4037 428.30279,287.37988 C 429.74295,287.93894 430.96285,288.42775 431.96247,288.84631 C 432.96207,289.2649 433.7414,289.63665 434.30046,289.96156 C 435.22982,290.47238 435.6945,291.21588 435.69452,292.19207 C 435.6945,292.79653 435.5551,293.30804 435.2763,293.7266 C 434.99747,294.14519 434.63707,294.48253 434.19511,294.73863 C 433.7531,294.99475 433.26465,295.18098 432.72974,295.29732 C 432.1948,295.41368 431.67194,295.47185 431.16115,295.47185 C 430.27716,295.47185 429.44002,295.30903 428.64971,294.98339 C 427.85937,294.65776 427.12722,294.22748 426.45326,293.69255 C 425.77927,293.15764 425.15176,292.56489 424.57074,291.91432 C 423.98969,291.26377 423.48988,290.58944 423.07132,289.89133 L 416.0265,295.19303 C 417.2354,296.86592 418.40953,298.22557 419.54891,299.272 C 420.68828,300.31844 421.90853,301.14388 423.20966,301.74833 C 425.72109,302.86358 428.32477,303.42121 431.02068,303.42121 C 435.11276,303.42121 438.43723,302.4216 440.9941,300.42237 L 440.9941,300.42237 z M 472.75325,301.25881 C 473.91529,300.51531 475.0309,299.51606 476.10007,298.26104 C 477.16917,297.00603 478.28478,295.3555 479.44689,293.30945 L 471.56563,288.84631 C 471.10163,289.63665 470.63694,290.39186 470.17156,291.11193 C 469.70614,291.83203 469.18293,292.47125 468.60191,293.02957 C 468.02085,293.58792 467.36993,294.04125 466.64916,294.38958 C 465.92834,294.73793 465.07984,294.9121 464.10366,294.91209 C 461.77949,294.9121 460.12932,294.02884 459.15313,292.2623 C 458.08327,290.35674 457.54835,287.54378 457.54836,283.82342 C 457.54835,280.05769 458.08327,277.24473 459.15313,275.38454 C 460.08249,273.61804 461.68655,272.73478 463.96531,272.73475 C 464.9415,272.73478 465.76658,272.88589 466.44058,273.18809 C 467.11453,273.49034 467.70728,273.89721 468.21881,274.40869 C 468.7303,274.92023 469.17193,275.52468 469.5437,276.22204 C 469.91543,276.91945 470.26448,277.66331 470.59085,278.45361 L 479.16807,275.10572 C 478.37772,272.96748 477.47104,271.21266 476.44805,269.84127 C 475.425,268.46994 474.1934,267.38909 472.75325,266.59873 C 470.00908,265.01812 467.05636,264.2278 463.89508,264.22776 C 458.82677,264.2278 454.80491,265.99432 451.8295,269.52733 C 448.85407,273.06041 447.36636,277.84918 447.36636,283.89366 C 447.36636,286.54417 447.69164,289.0432 448.34221,291.39075 C 448.99277,293.73832 449.99238,295.80742 451.34104,297.59806 C 452.6897,299.38871 454.42181,300.8069 456.53739,301.85262 C 458.65296,302.89835 461.15234,303.42121 464.03555,303.42121 C 467.56858,303.42121 470.47447,302.70041 472.75325,301.25881 L 472.75325,301.25881 z M 503.64829,302.72311 L 512.71503,302.72311 L 512.71503,301.19071 C 512.715,301.19071 512.79623,301.13253 512.95873,301.01618 C 513.12116,300.89983 513.15557,300.7019 513.06195,300.42237 C 512.87605,299.63205 512.78311,298.60903 512.78314,297.3533 L 512.78314,279.50075 C 512.78311,274.29343 511.6558,270.4461 509.4012,267.95875 C 507.14655,265.47146 503.36874,264.2278 498.06777,264.22776 C 495.04551,264.2278 492.26767,264.8436 489.73424,266.07516 C 487.2008,267.3068 485.12034,269.22443 483.49287,271.82807 L 490.32698,276.98931 C 491.30317,275.50091 492.36096,274.32678 493.50034,273.4669 C 494.6397,272.60708 496.16218,272.17715 498.06777,272.17712 C 499.32348,272.17715 500.39297,272.47938 501.27625,273.0838 C 502.15949,273.68828 502.60112,274.66447 502.60114,276.0124 L 502.60114,278.1748 C 501.43905,278.26847 500.41602,278.40823 499.53207,278.59408 C 497.11568,279.05808 494.75641,279.63876 492.45426,280.33613 C 490.1521,281.03354 488.00141,282.17326 486.00219,283.75531 C 483.21264,286.07948 481.81787,289.17125 481.81787,293.03064 C 481.81787,294.56447 482.07362,295.95924 482.58513,297.21496 C 483.09664,298.47069 483.81744,299.56323 484.74753,300.49261 C 485.67761,301.42199 486.78187,302.14243 488.0603,302.65394 C 489.33872,303.16545 490.74555,303.42121 492.2808,303.42121 C 494.37224,303.42121 496.26647,303.15375 497.96348,302.61882 C 499.66046,302.0839 501.39222,301.25881 503.15877,300.14356 L 503.64829,302.72311 z M 502.60114,285.49843 L 502.60114,292.05373 C 501.67175,292.79724 500.54443,293.5528 499.2192,294.32041 C 497.89394,295.08804 496.60345,295.47185 495.34775,295.47185 C 494.27931,295.47185 493.45457,295.15792 492.87355,294.53005 C 492.2925,293.9022 492.00198,293.07676 492.00199,292.05373 C 492.00198,290.84484 492.38544,289.85693 493.15236,289.09001 C 493.91926,288.32311 494.84899,287.70695 495.94156,287.24154 C 497.03409,286.77616 498.18481,286.41576 499.39373,286.16034 C 500.60261,285.90496 501.67175,285.68432 502.60114,285.49843 L 502.60114,285.49843 z M 549.25868,297.98116 C 552.14184,294.4013 553.58344,289.96158 553.58348,284.66199 C 553.58344,278.57069 552.23478,273.66486 549.5375,269.94449 C 546.84156,266.13337 543.07582,264.2278 538.24025,264.22776 C 536.61275,264.2278 535.10163,264.50661 533.70688,265.0642 C 532.31209,265.62186 530.98684,266.38877 529.73113,267.36494 L 529.73113,264.92373 L 519.89818,264.92373 L 519.89818,315.97418 L 530.08018,315.97418 L 530.08018,300.28403 C 531.19542,301.26023 532.47384,302.02714 533.91545,302.58477 C 535.35703,303.1424 536.82133,303.42121 538.30836,303.42121 C 542.67995,303.42121 546.33005,301.60786 549.25868,297.98116 L 549.25868,297.98116 z M 541.37743,275.52501 C 542.02867,276.50123 542.51713,277.67501 542.84279,279.04635 C 543.1684,280.41774 543.33122,282.01009 543.33125,283.82342 C 543.33122,285.03234 543.22658,286.2877 543.01732,287.58952 C 542.808,288.89137 542.4359,290.08857 541.901,291.1811 C 541.36605,292.27366 540.6222,293.16863 539.66943,293.86601 C 538.71662,294.5634 537.4726,294.9121 535.93738,294.91209 C 534.82211,294.9121 533.76468,294.64499 532.76508,294.11077 C 531.76546,293.57656 530.87049,292.96041 530.08018,292.2623 L 530.08018,275.52501 C 531.00954,274.64106 531.90451,273.95503 532.76508,273.4669 C 533.62563,272.97883 534.72988,272.73478 536.07785,272.73475 C 538.4488,272.73478 540.21533,273.66486 541.37743,275.52501 L 541.37743,275.52501 z M 581.24557,301.60786 C 582.54667,301.00341 583.76692,300.17832 584.90632,299.1326 C 586.04566,298.08687 587.17298,296.72686 588.28826,295.05256 L 580.75605,290.31061 C 579.733,291.65857 578.62875,292.76247 577.44329,293.62231 C 576.25778,294.48217 574.78177,294.9121 573.01527,294.91209 C 571.62047,294.9121 570.50451,294.6567 569.66738,294.14589 C 568.83022,293.63509 568.16759,292.96112 567.67951,292.12396 C 567.1914,291.28682 566.8427,290.33368 566.63343,289.26453 C 566.42413,288.19541 566.24996,287.1025 566.11092,285.98582 L 588.00945,285.98582 L 588.00945,281.1034 C 588.00941,278.64022 587.57949,276.40901 586.71967,274.40976 C 585.85979,272.41056 584.73248,270.62063 583.33773,269.03994 C 580.45451,265.83186 576.80441,264.2278 572.3874,264.22776 C 569.50561,264.2278 567.03,264.76236 564.96055,265.83147 C 562.89108,266.90064 561.18238,268.33017 559.83443,270.12008 C 558.48648,271.91005 557.49857,273.9905 556.87071,276.36145 C 556.24285,278.73244 555.92892,281.21977 555.92892,283.82342 C 555.92892,286.3817 556.24285,288.83462 556.87071,291.18217 C 557.49857,293.52974 558.46342,295.61019 559.76526,297.42354 C 561.06709,299.23689 562.74068,300.68984 564.78602,301.78238 C 566.83135,302.87493 569.2722,303.42121 572.10859,303.42121 C 575.73527,303.42121 578.78093,302.81676 581.24557,301.60786 L 581.24557,301.60786 z M 576.7122,273.99047 C 577.7352,275.15257 578.31624,276.68711 578.45531,278.59408 L 566.18115,278.59408 C 566.32019,277.71013 566.51778,276.87298 566.7739,276.08263 C 567.03,275.29234 567.3904,274.60665 567.8551,274.02559 C 568.31977,273.44458 568.91251,272.99124 569.63333,272.66558 C 570.35411,272.33997 571.24872,272.17715 572.31717,272.17712 C 574.17732,272.17715 575.64233,272.7816 576.7122,273.99047 L 576.7122,273.99047 z"
               style="font-size:69.74156952px;font-style:normal;font-variant:normal;font-weight:normal;font-stretch:normal;text-align:start;line-height:100%;writing-mode:lr-tb;text-anchor:start;fill:#a4dd46;fill-opacity:1;stroke:none;stroke-width:1px;stroke-linecap:butt;stroke-linejoin:miter;stroke-opacity:1;font-family:Verdana;-inkscape-font-specification:Verdana" />
          </g>
        </g>
        <g
           id="g4387">
          <g
             style="fill:#000000;fill-opacity:1;stroke:none"
             transform="matrix(1.0456639,0,0,1.0456639,-7.0867017,-46.258448)"
             id="g4312">
            <path
               style="opacity:0.1;fill:#000000;fill-opacity:1;stroke:none;stroke-width:3;stroke-linecap:round;stroke-linejoin:round;stroke-miterlimit:4;stroke-dasharray:none;stroke-dashoffset:0;stroke-opacity:1"
               d="M 519.51037,257.03329 L 519.51037,284.25204 L 500.88537,295.00204 L 519.51037,305.75204 L 519.51037,334.72079 L 632.51037,334.72079 L 632.51037,257.03329 L 519.51037,257.03329 z"
               id="path4314" />
            <g
               style="fill:#000000;fill-opacity:1;stroke:none"
               id="g4316"
               transform="matrix(1.2039867,0,0,1.2039867,132.71445,-92.233755)" />
          </g>
          <g
             transform="matrix(1.0456639,0,0,1.0456639,-8.3516373,-45.187674)"
             id="g4293">
            <path
               style="opacity:1;fill:#ffffff;fill-opacity:1;stroke:none;stroke-width:3;stroke-linecap:round;stroke-linejoin:round;stroke-miterlimit:4;stroke-dasharray:none;stroke-dashoffset:0;stroke-opacity:1"
               d="M 519.51037,257.03329 L 519.51037,284.25204 L 500.88537,295.00204 L 519.51037,305.75204 L 519.51037,334.72079 L 632.51037,334.72079 L 632.51037,257.03329 L 519.51037,257.03329 z"
               id="path4264" />
            <g
               style="fill:#91cb37;fill-opacity:1"
               id="g4266"
               transform="matrix(1.2039867,0,0,1.2039867,133.15182,-94.589033)">
              <text
                 sodipodi:linespacing="100%"
                 id="text4272"
                 y="339.12939"
                 x="325.23526"
                 style="font-size:41.04744339px;font-style:normal;font-variant:normal;font-weight:normal;font-stretch:normal;text-align:start;line-height:100%;writing-mode:lr-tb;text-anchor:start;opacity:1;fill:#91cb37;fill-opacity:1;stroke:none;stroke-width:1px;stroke-linecap:butt;stroke-linejoin:miter;stroke-opacity:1;font-family:Verdana;-inkscape-font-specification:Verdana"
                 xml:space="preserve"><tspan
                   style="font-size:41.04744339px;font-style:normal;font-variant:normal;font-weight:normal;font-stretch:normal;text-align:start;line-height:100%;writing-mode:lr-tb;text-anchor:start;fill:#91cb37;fill-opacity:1;font-family:OldSansBlack;-inkscape-font-specification:OldSansBlack"
                   y="339.12939"
                   x="325.23526"
                   id="tspan4274"
                   sodipodi:role="line">0.47</tspan></text>
            </g>
          </g>
        </g>
        <g
           id="g4409">
          <rect
             transform="matrix(0,-1,1,0,0,0)"
             y="184.06151"
             x="-352.62531"
             height="20.156527"
             width="136.04424"
             id="rect4300"
             style="opacity:0.1;fill:#000000;fill-opacity:1;stroke:none;stroke-width:3;stroke-linecap:round;stroke-linejoin:round;stroke-miterlimit:4;stroke-dasharray:none;stroke-dashoffset:0;stroke-opacity:1" />
          <rect
             transform="matrix(0,-1,1,0,0,0)"
             y="182.89366"
             x="-354.62988"
             height="20.156527"
             width="136.4787"
             id="rect4302"
             style="opacity:1;fill:#ffffff;fill-opacity:1;stroke:none;stroke-width:3;stroke-linecap:round;stroke-linejoin:round;stroke-miterlimit:4;stroke-dasharray:none;stroke-dashoffset:0;stroke-opacity:1" />
          <path
             transform="matrix(0,-1,1,0,0,0)"
             id="text4162"
             d="M -335.50718,197.10439 L -333.48489,189.1619 L -335.5367,189.1619 L -336.50402,193.397 L -337.44182,189.1619 L -339.39078,189.1619 L -340.37241,193.41175 L -341.2959,189.1619 L -343.36202,189.1619 L -341.32497,197.10439 L -339.41984,197.10439 L -338.42346,192.82546 L -337.41231,197.10439 L -335.50718,197.10439 z M -325.74722,197.10439 L -323.72493,189.1619 L -325.77674,189.1619 L -326.74406,193.397 L -327.68186,189.1619 L -329.63081,189.1619 L -330.61245,193.41175 L -331.53594,189.1619 L -333.60206,189.1619 L -331.56501,197.10439 L -329.65988,197.10439 L -328.66349,192.82546 L -327.65235,197.10439 L -325.74722,197.10439 z M -315.98726,197.10439 L -313.96497,189.1619 L -316.01678,189.1619 L -316.9841,193.397 L -317.9219,189.1619 L -319.87085,189.1619 L -320.85248,193.41175 L -321.77598,189.1619 L -323.8421,189.1619 L -321.80505,197.10439 L -319.89992,197.10439 L -318.90353,192.82546 L -317.89239,197.10439 L -315.98726,197.10439 z M -312.96858,197.10439 L -310.62384,197.10439 L -310.62384,194.70107 L -312.96858,194.70107 L -312.96858,197.10439 z M -308.59127,188.07741 L -306.48132,188.07741 L -306.48132,186.05511 L -308.59127,186.05511 L -308.59127,188.07741 z M -308.59127,197.10439 L -306.4518,197.10439 L -306.4518,189.1619 L -308.59127,189.1619 L -308.59127,197.10439 z M -300.27759,197.10439 L -298.13768,197.10439 L -298.13768,191.75573 C -298.13768,191.37471 -298.18412,191.01567 -298.27698,190.67862 C -298.36986,190.34157 -298.51155,190.05096 -298.70206,189.80678 C -298.89258,189.56261 -299.13683,189.36971 -299.43482,189.22808 C -299.73281,189.08647 -300.09185,189.01567 -300.51193,189.01566 C -300.92217,189.01567 -301.31296,189.09132 -301.68429,189.24262 C -302.05563,189.39393 -302.40245,189.5869 -302.72473,189.82153 L -302.72473,189.1619 L -304.71751,189.1619 L -304.71751,197.10439 L -302.57805,197.10439 L -302.57805,191.50663 C -302.37293,191.29168 -302.1409,191.12069 -301.88196,190.99368 C -301.62303,190.86668 -301.34226,190.80317 -301.03964,190.80316 C -300.75611,190.80317 -300.56068,190.89112 -300.45334,191.06702 C -300.40445,191.17436 -300.36294,191.31113 -300.32879,191.47734 C -300.29466,191.64356 -300.27759,191.84875 -300.27759,192.09293 L -300.27759,197.10439 z M -292.07616,197.10439 L -289.7757,197.10439 L -292.25236,192.18058 L -289.86335,189.1619 L -292.35477,189.1619 L -294.42089,191.85859 L -294.42089,186.2018 L -296.56036,186.2018 L -296.56036,197.10439 L -294.42089,197.10439 L -294.42089,194.65724 L -293.70312,193.82185 L -292.07616,197.10439 z M -284.66138,196.62095 C -284.10446,196.18149 -283.82599,195.61487 -283.82599,194.9211 C -283.82599,194.247 -284.00667,193.6853 -284.36801,193.236 C -284.55376,193.02104 -284.76633,192.84514 -285.00573,192.70829 C -285.24515,192.57145 -285.49424,192.45666 -285.75303,192.36394 C -286.01182,192.27122 -286.27314,192.18088 -286.53699,192.09293 C -286.80085,192.00498 -287.05486,191.89258 -287.29904,191.75573 C -287.53338,191.61889 -287.65055,191.45774 -287.65055,191.27229 C -287.65055,191.02812 -287.55775,190.86936 -287.37216,190.79601 C -287.18657,190.72267 -286.99121,190.686 -286.78609,190.686 C -286.50286,190.686 -286.24153,190.78126 -286.00212,190.97176 C -285.76272,191.16228 -285.55506,191.3601 -285.37916,191.56521 L -283.98698,190.3488 C -284.40707,189.88013 -284.84184,189.54077 -285.29128,189.33072 C -285.74073,189.12069 -286.27806,189.01567 -286.90326,189.01566 C -287.25507,189.01567 -287.59457,189.06695 -287.92178,189.1695 C -288.24899,189.27207 -288.53476,189.42345 -288.77909,189.62364 C -289.02342,189.82385 -289.21885,190.07049 -289.36538,190.36356 C -289.51192,190.65663 -289.58519,190.99368 -289.58519,191.3747 C -289.58519,192.13676 -289.34578,192.69845 -288.86697,193.0598 C -288.39799,193.40177 -287.88504,193.67531 -287.32811,193.88043 C -287.0255,193.9979 -286.76917,194.10061 -286.55913,194.18856 C -286.34909,194.27652 -286.18534,194.35463 -286.06786,194.4229 C -285.87259,194.53023 -285.77494,194.68646 -285.77494,194.89158 C -285.77494,195.01859 -285.80424,195.12607 -285.86282,195.21402 C -285.92141,195.30197 -285.99713,195.37286 -286.09,195.42667 C -286.18288,195.48049 -286.28551,195.51962 -286.39791,195.54406 C -286.51031,195.56851 -286.62017,195.58074 -286.7275,195.58073 C -286.91325,195.58074 -287.08915,195.54652 -287.25521,195.4781 C -287.42128,195.40968 -287.57512,195.31927 -287.71674,195.20686 C -287.85835,195.09447 -287.99021,194.96992 -288.11229,194.83322 C -288.23439,194.69652 -288.33941,194.55483 -288.42736,194.40814 L -289.90763,195.52215 C -289.65361,195.87366 -289.4069,196.15935 -289.16749,196.37923 C -288.92809,196.59911 -288.67168,196.77255 -288.39829,196.89956 C -287.87058,197.1339 -287.32349,197.25107 -286.75702,197.25107 C -285.89718,197.25107 -285.19864,197.04103 -284.66138,196.62095 L -284.66138,196.62095 z M -277.98808,196.7967 C -277.74391,196.64048 -277.50949,196.43051 -277.28484,196.16681 C -277.06019,195.9031 -276.82578,195.55629 -276.5816,195.12637 L -278.23762,194.18856 C -278.33512,194.35463 -278.43276,194.51332 -278.53055,194.66462 C -278.62834,194.81593 -278.73828,194.95024 -278.86037,195.06756 C -278.98246,195.18488 -279.11923,195.28013 -279.27068,195.35333 C -279.42214,195.42652 -279.60043,195.46312 -279.80555,195.46312 C -280.29391,195.46312 -280.64065,195.27753 -280.84577,194.90634 C -281.07057,194.50594 -281.18297,193.91487 -281.18296,193.13314 C -281.18297,192.34188 -281.07057,191.75081 -280.84577,191.35994 C -280.65049,190.98876 -280.31344,190.80317 -279.83462,190.80316 C -279.6295,190.80317 -279.45613,190.83492 -279.31451,190.89842 C -279.1729,190.96193 -279.04835,191.04742 -278.94086,191.1549 C -278.83339,191.26238 -278.74059,191.38939 -278.66247,191.53592 C -278.58437,191.68246 -278.51102,191.83876 -278.44245,192.00482 L -276.64018,191.30136 C -276.80625,190.85207 -276.99676,190.48334 -277.21172,190.19518 C -277.42668,189.90703 -277.68547,189.67992 -277.98808,189.51385 C -278.56469,189.18173 -279.18512,189.01567 -279.84938,189.01566 C -280.91434,189.01567 -281.75942,189.38685 -282.38462,190.12922 C -283.00983,190.87159 -283.32243,191.87782 -283.32243,193.1479 C -283.32243,193.70483 -283.25408,194.22993 -283.11738,194.7232 C -282.98068,195.21648 -282.77064,195.65125 -282.48726,196.0275 C -282.20388,196.40375 -281.83992,196.70175 -281.39539,196.92148 C -280.95086,197.14121 -280.42569,197.25107 -279.81986,197.25107 C -279.07749,197.25107 -278.4669,197.09962 -277.98808,196.7967 L -277.98808,196.7967 z M -271.49635,197.10439 L -269.59122,197.10439 L -269.59122,196.78239 C -269.59123,196.78239 -269.57416,196.77017 -269.54002,196.74572 C -269.50588,196.72127 -269.49865,196.67968 -269.51833,196.62095 C -269.55739,196.45489 -269.57692,196.23993 -269.57691,195.97607 L -269.57691,192.22485 C -269.57692,191.13068 -269.81379,190.32227 -270.28753,189.79962 C -270.76128,189.27699 -271.55508,189.01567 -272.66894,189.01566 C -273.30398,189.01567 -273.88767,189.14506 -274.42,189.40384 C -274.95233,189.66263 -275.38948,190.06557 -275.73145,190.61265 L -274.29545,191.69714 C -274.09033,191.3844 -273.86806,191.13769 -273.62865,190.95701 C -273.38925,190.77634 -273.06934,190.686 -272.66894,190.686 C -272.40508,190.686 -272.18036,190.74951 -271.99476,190.87651 C -271.80917,191.00352 -271.71638,191.20864 -271.71637,191.49187 L -271.71637,191.94624 C -271.96056,191.96592 -272.17552,191.99529 -272.36125,192.03434 C -272.86899,192.13184 -273.36473,192.25385 -273.84846,192.40038 C -274.3322,192.54692 -274.7841,192.78641 -275.20418,193.11883 C -275.79033,193.60719 -276.0834,194.25684 -276.0834,195.06778 C -276.0834,195.39007 -276.02966,195.68315 -275.92218,195.947 C -275.8147,196.21086 -275.66325,196.44043 -275.46781,196.63571 C -275.27238,196.83099 -275.04036,196.98237 -274.77173,197.08985 C -274.5031,197.19733 -274.2075,197.25107 -273.88491,197.25107 C -273.44545,197.25107 -273.04743,197.19487 -272.69085,197.08247 C -272.33428,196.97007 -271.97039,196.7967 -271.5992,196.56237 L -271.49635,197.10439 z M -271.71637,193.4851 L -271.71637,194.86251 C -271.91166,195.01874 -272.14853,195.1775 -272.42699,195.33879 C -272.70546,195.50009 -272.97662,195.58074 -273.24047,195.58073 C -273.46498,195.58074 -273.63827,195.51477 -273.76036,195.38284 C -273.88245,195.25092 -273.94349,195.07747 -273.94349,194.86251 C -273.94349,194.6085 -273.86292,194.40092 -273.70177,194.23977 C -273.54063,194.07863 -273.34527,193.94916 -273.1157,193.85136 C -272.88614,193.75358 -272.64434,193.67785 -272.39032,193.62418 C -272.13631,193.57052 -271.91166,193.52416 -271.71637,193.4851 L -271.71637,193.4851 z M -261.91259,196.108 C -261.30677,195.35579 -261.00386,194.4229 -261.00385,193.30934 C -261.00386,192.02943 -261.28724,190.9986 -261.854,190.21687 C -262.42048,189.41607 -263.21174,189.01567 -264.2278,189.01566 C -264.56978,189.01567 -264.8873,189.07425 -265.18037,189.19141 C -265.47344,189.30859 -265.75191,189.46973 -266.01576,189.67485 L -266.01576,189.1619 L -268.08188,189.1619 L -268.08188,199.88873 L -265.94242,199.88873 L -265.94242,196.59188 C -265.70808,196.797 -265.43946,196.95815 -265.13654,197.07532 C -264.83363,197.19249 -264.52595,197.25107 -264.21349,197.25107 C -263.29493,197.25107 -262.52796,196.87005 -261.91259,196.108 L -261.91259,196.108 z M -263.56861,191.38946 C -263.43177,191.59459 -263.32914,191.84122 -263.26071,192.12937 C -263.19229,192.41753 -263.15808,192.75212 -263.15807,193.13314 C -263.15808,193.38716 -263.18007,193.65094 -263.22404,193.92448 C -263.26802,194.19803 -263.34621,194.44959 -263.4586,194.67915 C -263.571,194.90872 -263.7273,195.09678 -263.9275,195.24331 C -264.12771,195.38985 -264.3891,195.46312 -264.71169,195.46312 C -264.94603,195.46312 -265.16822,195.40699 -265.37826,195.29474 C -265.5883,195.18249 -265.77636,195.05303 -265.94242,194.90634 L -265.94242,191.38946 C -265.74714,191.20372 -265.55908,191.05957 -265.37826,190.95701 C -265.19744,190.85445 -264.96541,190.80317 -264.68217,190.80316 C -264.18398,190.80317 -263.8128,190.9986 -263.56861,191.38946 L -263.56861,191.38946 z M -255.19144,196.87005 C -254.91805,196.74304 -254.66164,196.56967 -254.42223,196.34994 C -254.18283,196.13021 -253.94596,195.84444 -253.71161,195.49263 L -255.29429,194.49624 C -255.50926,194.77948 -255.74129,195.01143 -255.99038,195.19211 C -256.23948,195.37278 -256.54962,195.46312 -256.92081,195.46312 C -257.21388,195.46312 -257.44837,195.40945 -257.62427,195.30212 C -257.80018,195.19479 -257.93941,195.05317 -258.04197,194.87727 C -258.14453,194.70137 -258.2178,194.50109 -258.26177,194.27644 C -258.30575,194.05179 -258.34235,193.82215 -258.37156,193.58751 L -253.77019,193.58751 L -253.77019,192.5616 C -253.7702,192.04403 -253.86054,191.57521 -254.04121,191.15512 C -254.22189,190.73505 -254.45876,190.35894 -254.75183,190.0268 C -255.35765,189.35271 -256.12462,189.01567 -257.05273,189.01566 C -257.65826,189.01567 -258.17844,189.12799 -258.61328,189.35263 C -259.04812,189.57729 -259.40716,189.87767 -259.69039,190.25376 C -259.97363,190.62988 -260.18121,191.06703 -260.31313,191.56521 C -260.44506,192.06341 -260.51103,192.58606 -260.51103,193.13314 C -260.51103,193.67069 -260.44506,194.18611 -260.31313,194.67938 C -260.18121,195.17265 -259.97847,195.6098 -259.70493,195.99083 C -259.43138,196.37185 -259.07972,196.67715 -258.64995,196.90672 C -258.22018,197.13629 -257.70731,197.25107 -257.11132,197.25107 C -256.34927,197.25107 -255.70931,197.12406 -255.19144,196.87005 L -255.19144,196.87005 z M -256.144,191.06702 C -255.92904,191.3112 -255.80695,191.63364 -255.77773,192.03434 L -258.3568,192.03434 C -258.32759,191.8486 -258.28607,191.6727 -258.23226,191.50663 C -258.17844,191.34057 -258.10272,191.19649 -258.00507,191.0744 C -257.90743,190.95232 -257.78288,190.85706 -257.63143,190.78863 C -257.47997,190.72021 -257.29199,190.686 -257.06749,190.686 C -256.67663,190.686 -256.3688,190.81301 -256.144,191.06702 L -256.144,191.06702 z M -252.31944,197.10439 L -249.9747,197.10439 L -249.9747,194.70107 L -252.31944,194.70107 L -252.31944,197.10439 z M -242.69587,196.108 C -242.07068,195.35579 -241.75807,194.36417 -241.75807,193.13314 C -241.75807,191.90242 -242.07068,190.9108 -242.69587,190.15828 C -243.33092,189.39654 -244.18092,189.01567 -245.24588,189.01566 C -246.31084,189.01567 -247.15592,189.39654 -247.78112,190.15828 C -248.40633,190.9108 -248.71893,191.90242 -248.71893,193.13314 C -248.71893,194.36417 -248.40633,195.35579 -247.78112,196.108 C -247.15592,196.87005 -246.31084,197.25107 -245.24588,197.25107 C -244.18092,197.25107 -243.33092,196.87005 -242.69587,196.108 L -242.69587,196.108 z M -244.23473,191.35994 C -244.00993,191.76065 -243.89754,192.35172 -243.89753,193.13314 C -243.89754,193.35794 -243.90976,193.60711 -243.9342,193.88066 C -243.95865,194.1542 -244.01731,194.40822 -244.11018,194.64271 C -244.20306,194.8772 -244.33983,195.07255 -244.5205,195.22878 C -244.70118,195.38501 -244.94297,195.46312 -245.24588,195.46312 C -245.54879,195.46312 -245.78812,195.38255 -245.96388,195.2214 C -246.13963,195.06026 -246.27395,194.86244 -246.36681,194.62795 C -246.45969,194.39346 -246.51835,194.14191 -246.54279,193.87328 C -246.56724,193.60466 -246.57947,193.35794 -246.57946,193.13314 C -246.57947,192.90864 -246.56724,192.66201 -246.54279,192.39323 C -246.51835,192.12446 -246.45969,191.8729 -246.36681,191.63856 C -246.27395,191.40422 -246.13963,191.20641 -245.96388,191.04511 C -245.78812,190.88382 -245.54879,190.80317 -245.24588,190.80316 C -244.7769,190.80317 -244.43985,190.98876 -244.23473,191.35994 L -244.23473,191.35994 z M -237.20053,191.24277 L -236.76092,191.27229 L -236.76092,189.01566 C -237.2299,189.01567 -237.64268,189.09378 -237.99925,189.25 C -238.35583,189.40623 -238.66604,189.67977 -238.9299,190.07063 L -238.9299,189.1619 L -240.92268,189.1619 L -240.92268,197.10439 L -238.78321,197.10439 L -238.78321,192.31251 C -238.68572,192.09755 -238.48552,191.86798 -238.18261,191.6238 C -237.85048,191.35995 -237.52312,191.23294 -237.20053,191.24277 L -237.20053,191.24277 z M -235.63215,196.43044 C -235.97412,196.53807 -236.2379,196.71643 -236.4235,196.96553 C -236.60909,197.21462 -236.70189,197.52477 -236.70189,197.89595 C -236.70189,198.33541 -236.57488,198.68707 -236.32086,198.95093 C -236.06685,199.21478 -235.7567,199.41506 -235.39044,199.55176 C -235.02417,199.68845 -234.63338,199.77879 -234.21807,199.82277 C -233.80276,199.86674 -233.43888,199.88873 -233.12642,199.88873 C -232.1691,199.88873 -231.32893,199.67869 -230.60594,199.25861 C -229.83405,198.80931 -229.44811,198.24761 -229.4481,197.57351 C -229.44811,197.13375 -229.52138,196.77472 -229.66791,196.4964 C -229.81445,196.21809 -230.01227,195.99828 -230.26136,195.83699 C -230.51046,195.67569 -230.79377,195.56091 -231.11129,195.49263 C -231.42881,195.42436 -231.75856,195.37308 -232.10052,195.33879 C -232.44249,195.30451 -232.78446,195.28006 -233.12642,195.26545 C -233.4684,195.25084 -233.78592,195.21417 -234.07899,195.15544 C -234.23521,195.12622 -234.33778,195.08478 -234.38667,195.03111 C -234.43557,194.97745 -234.46001,194.91633 -234.46001,194.84775 C -234.46001,194.77948 -234.40873,194.72336 -234.30617,194.67938 C -234.20361,194.6354 -234.08883,194.60611 -233.96182,194.5915 C -233.83481,194.57689 -233.71265,194.56713 -233.59533,194.56221 C -233.47801,194.55729 -233.39982,194.55483 -233.36076,194.55483 C -232.92131,194.55483 -232.50614,194.5084 -232.11528,194.41552 C -231.72442,194.32265 -231.38737,194.1712 -231.10413,193.96115 C -230.8209,193.75112 -230.59618,193.47757 -230.42996,193.14052 C -230.26375,192.80348 -230.18064,192.39077 -230.18064,191.90241 C -230.18064,191.44328 -230.28335,191.02812 -230.48877,190.65693 C -230.35193,190.5982 -230.17602,190.56883 -229.96106,190.56883 C -229.7461,190.56883 -229.56543,190.56883 -229.41903,190.56883 L -229.41903,189.01566 C -229.79023,189.01567 -230.14919,189.04496 -230.49592,189.10353 C -230.84267,189.16213 -231.14796,189.33796 -231.41181,189.63102 C -231.95891,189.22079 -232.56458,189.01567 -233.22884,189.01566 C -233.63908,189.01567 -234.03471,189.07671 -234.41574,189.19879 C -234.79676,189.32089 -235.13381,189.50156 -235.42688,189.74081 C -235.71996,189.98008 -235.95445,190.27069 -236.13035,190.61265 C -236.30625,190.95463 -236.3942,191.34549 -236.3942,191.78524 C -236.3942,192.19549 -236.30871,192.5716 -236.13773,192.91356 C -235.96674,193.25553 -235.72503,193.55352 -235.41257,193.80754 C -235.67613,193.96377 -235.91539,194.15666 -236.13035,194.38623 C -236.34531,194.6158 -236.45279,194.90157 -236.45279,195.24354 C -236.45279,195.73189 -236.17924,196.12753 -235.63215,196.43044 L -235.63215,196.43044 z M -232.46679,191.00844 C -232.26167,191.21356 -232.15911,191.47727 -232.1591,191.79955 C -232.15911,192.08309 -232.26413,192.33472 -232.47416,192.55445 C -232.68421,192.77418 -232.93577,192.88405 -233.22884,192.88404 C -233.54159,192.88405 -233.81521,192.78641 -234.04969,192.59112 C -234.28418,192.39584 -234.40143,192.13199 -234.40143,191.79955 C -234.40143,191.45789 -234.29395,191.18688 -234.07899,190.98652 C -233.86403,190.78618 -233.58556,190.686 -233.24359,190.686 C -232.94069,190.686 -232.68175,190.79348 -232.46679,191.00844 L -232.46679,191.00844 z M -232.04193,197.16342 C -231.8076,197.24153 -231.64891,197.32449 -231.56588,197.41229 C -231.48285,197.50009 -231.44133,197.58797 -231.44133,197.67592 C -231.44133,197.81277 -231.49746,197.92517 -231.6097,198.01312 C -231.72196,198.10107 -231.85627,198.1695 -232.01264,198.21839 C -232.16902,198.26729 -232.32778,198.30388 -232.48892,198.32818 C -232.65007,198.35248 -232.77462,198.36463 -232.86257,198.36463 C -233.23376,198.36463 -233.54151,198.34756 -233.78584,198.31342 C -234.03017,198.27929 -234.22061,198.233 -234.35715,198.17457 C -234.59179,198.04756 -234.70911,197.87657 -234.70911,197.66161 C -234.70911,197.46603 -234.60655,197.29505 -234.40143,197.14866 C -234.26458,197.04103 -234.01057,196.97261 -233.63938,196.94339 C -233.28757,196.96307 -232.97982,196.99243 -232.71611,197.03149 C -232.4524,197.07055 -232.22768,197.11452 -232.04193,197.16342 L -232.04193,197.16342 z"
             style="font-size:14.65425301000000000px;font-style:normal;font-variant:normal;font-weight:normal;font-stretch:normal;text-align:start;line-height:100%;writing-mode:lr-tb;text-anchor:start;fill:#b9e764;fill-opacity:1;stroke:none;stroke-width:1px;stroke-linecap:butt;stroke-linejoin:miter;stroke-opacity:1;font-family:Verdana;-inkscape-font-specification:Verdana" />
        </g>
      </g>
    </g>
    <path
       style="opacity:0.2;fill:#000000;fill-opacity:1;stroke:none;stroke-width:0.2;stroke-linecap:round;stroke-linejoin:round;stroke-miterlimit:4;stroke-dasharray:none;stroke-dashoffset:0;stroke-opacity:1;filter:url(#filter4377)"
       d="M 0,-4.7e-06 L 0,625 L 750,625 L 750,-4.7e-06 L 0,-4.7e-06 z M 110.99252,83.671862 C 216.86751,-4.3541807 549.9837,-4.3541798 655.8587,83.671862 C 761.73371,171.6979 761.7337,465.58877 655.8587,553.61481 C 549.98371,641.64086 216.86752,641.64084 110.99252,553.61481 C 5.1175172,465.58877 5.1175136,171.6979 110.99252,83.671862 z"
       id="rect4366"
       sodipodi:nodetypes="cccccczzzz" />
  </g>
</svg>
